EESchema Schematic File Version 4
EELAYER 30 0
EELAYER END
$Descr A4 11693 8268
encoding utf-8
Sheet 1 1
Title ""
Date "10 mar 2015"
Rev ""
Comp ""
Comment1 ""
Comment2 ""
Comment3 ""
Comment4 ""
$EndDescr
$Comp
L mxblack-rescue:CHMX-mxblacksii-rescue S5
U 1 1 548A2431
P 1300 1700
F 0 "S5" H 1300 1700 20  0000 C BNN
F 1 "CHMX" H 1300 1750 20  0000 C TNN
F 2 "~" H 1250 1700 60  0000 C CNN
F 3 "~" H 1250 1700 60  0000 C CNN
	1    1300 1700
	1    0    0    -1  
$EndComp
$Comp
L mxblack-rescue:CHMX-mxblacksii-rescue S6
U 1 1 548A243E
P 1250 1750
F 0 "S6" H 1250 1750 20  0000 C BNN
F 1 "CHMX" H 1250 1800 20  0000 C TNN
F 2 "~" H 1200 1750 60  0000 C CNN
F 3 "~" H 1200 1750 60  0000 C CNN
	1    1250 1750
	1    0    0    -1  
$EndComp
$Comp
L mxblack-rescue:CHMX-mxblacksii-rescue S7
U 1 1 548A2444
P 1200 1800
F 0 "S7" H 1200 1800 20  0000 C BNN
F 1 "CHMX" H 1200 1850 20  0000 C TNN
F 2 "~" H 1150 1800 60  0000 C CNN
F 3 "~" H 1150 1800 60  0000 C CNN
	1    1200 1800
	1    0    0    -1  
$EndComp
$Comp
L mxblack-rescue:CHMX-mxblacksii-rescue S8
U 1 1 548A244A
P 1150 1850
F 0 "S8" H 1150 1850 20  0000 C BNN
F 1 "CHMX" H 1150 1900 20  0000 C TNN
F 2 "~" H 1100 1850 60  0000 C CNN
F 3 "~" H 1100 1850 60  0000 C CNN
	1    1150 1850
	1    0    0    -1  
$EndComp
$Comp
L mxblack-rescue:CHMX-mxblacksii-rescue S1
U 1 1 548A248E
P 1500 1500
F 0 "S1" H 1500 1500 20  0000 C BNN
F 1 "CHMX" H 1500 1550 20  0000 C TNN
F 2 "~" H 1450 1500 60  0000 C CNN
F 3 "~" H 1450 1500 60  0000 C CNN
	1    1500 1500
	1    0    0    -1  
$EndComp
$Comp
L mxblack-rescue:CHMX-mxblacksii-rescue S2
U 1 1 548A2494
P 1450 1550
F 0 "S2" H 1450 1550 20  0000 C BNN
F 1 "CHMX" H 1450 1600 20  0000 C TNN
F 2 "~" H 1400 1550 60  0000 C CNN
F 3 "~" H 1400 1550 60  0000 C CNN
	1    1450 1550
	1    0    0    -1  
$EndComp
$Comp
L mxblack-rescue:CHMX-mxblacksii-rescue S3
U 1 1 548A249A
P 1400 1600
F 0 "S3" H 1400 1600 20  0000 C BNN
F 1 "CHMX" H 1400 1650 20  0000 C TNN
F 2 "~" H 1350 1600 60  0000 C CNN
F 3 "~" H 1350 1600 60  0000 C CNN
	1    1400 1600
	1    0    0    -1  
$EndComp
$Comp
L mxblack-rescue:CHMX-mxblacksii-rescue S4
U 1 1 548A24A0
P 1350 1650
F 0 "S4" H 1350 1650 20  0000 C BNN
F 1 "CHMX" H 1350 1700 20  0000 C TNN
F 2 "~" H 1300 1650 60  0000 C CNN
F 3 "~" H 1300 1650 60  0000 C CNN
	1    1350 1650
	1    0    0    -1  
$EndComp
$Comp
L power:+5V #PWR1
U 1 1 548A25C5
P 2100 1700
F 0 "#PWR1" H 2100 1790 20  0001 C CNN
F 1 "+5V" H 2100 1790 30  0000 C CNN
F 2 "" H 2100 1700 60  0000 C CNN
F 3 "" H 2100 1700 60  0000 C CNN
	1    2100 1700
	1    0    0    -1  
$EndComp
$Comp
L mxblack-rescue:GND-mxblacksii-rescue #PWR2
U 1 1 548A2D39
P 2300 1700
F 0 "#PWR2" H 2300 1700 30  0001 C CNN
F 1 "GND" H 2300 1630 30  0001 C CNN
F 2 "" H 2300 1700 60  0000 C CNN
F 3 "" H 2300 1700 60  0000 C CNN
	1    2300 1700
	-1   0    0    1   
$EndComp
$Comp
L mxblack-rescue:SN74HC165-mxblacksii-rescue SR1
U 1 1 548A3038
P 1900 2050
F 0 "SR1" H 1900 1800 20  0000 C BNN
F 1 "SN74HC165" H 1900 2250 20  0000 C TNN
F 2 "~" H 1900 2050 60  0000 C CNN
F 3 "~" H 1900 2050 60  0000 C CNN
	1    1900 2050
	1    0    0    -1  
$EndComp
$Comp
L mxblack-rescue:CHMX-mxblacksii-rescue S13
U 1 1 548A3179
P 1300 2700
F 0 "S13" H 1300 2700 20  0000 C BNN
F 1 "CHMX" H 1300 2750 20  0000 C TNN
F 2 "~" H 1250 2700 60  0000 C CNN
F 3 "~" H 1250 2700 60  0000 C CNN
	1    1300 2700
	1    0    0    -1  
$EndComp
$Comp
L mxblack-rescue:CHMX-mxblacksii-rescue S14
U 1 1 548A317F
P 1250 2750
F 0 "S14" H 1250 2750 20  0000 C BNN
F 1 "CHMX" H 1250 2800 20  0000 C TNN
F 2 "~" H 1200 2750 60  0000 C CNN
F 3 "~" H 1200 2750 60  0000 C CNN
	1    1250 2750
	1    0    0    -1  
$EndComp
$Comp
L mxblack-rescue:CHMX-mxblacksii-rescue S15
U 1 1 548A3185
P 1200 2800
F 0 "S15" H 1200 2800 20  0000 C BNN
F 1 "CHMX" H 1200 2850 20  0000 C TNN
F 2 "~" H 1150 2800 60  0000 C CNN
F 3 "~" H 1150 2800 60  0000 C CNN
	1    1200 2800
	1    0    0    -1  
$EndComp
$Comp
L mxblack-rescue:CHMX-mxblacksii-rescue S16
U 1 1 548A318B
P 1150 2850
F 0 "S16" H 1150 2850 20  0000 C BNN
F 1 "CHMX" H 1150 2900 20  0000 C TNN
F 2 "~" H 1100 2850 60  0000 C CNN
F 3 "~" H 1100 2850 60  0000 C CNN
	1    1150 2850
	1    0    0    -1  
$EndComp
$Comp
L mxblack-rescue:CHMX-mxblacksii-rescue S9
U 1 1 548A3191
P 1500 2500
F 0 "S9" H 1500 2500 20  0000 C BNN
F 1 "CHMX" H 1500 2550 20  0000 C TNN
F 2 "~" H 1450 2500 60  0000 C CNN
F 3 "~" H 1450 2500 60  0000 C CNN
	1    1500 2500
	1    0    0    -1  
$EndComp
$Comp
L mxblack-rescue:CHMX-mxblacksii-rescue S10
U 1 1 548A3197
P 1450 2550
F 0 "S10" H 1450 2550 20  0000 C BNN
F 1 "CHMX" H 1450 2600 20  0000 C TNN
F 2 "~" H 1400 2550 60  0000 C CNN
F 3 "~" H 1400 2550 60  0000 C CNN
	1    1450 2550
	1    0    0    -1  
$EndComp
$Comp
L mxblack-rescue:CHMX-mxblacksii-rescue S11
U 1 1 548A319D
P 1400 2600
F 0 "S11" H 1400 2600 20  0000 C BNN
F 1 "CHMX" H 1400 2650 20  0000 C TNN
F 2 "~" H 1350 2600 60  0000 C CNN
F 3 "~" H 1350 2600 60  0000 C CNN
	1    1400 2600
	1    0    0    -1  
$EndComp
$Comp
L mxblack-rescue:CHMX-mxblacksii-rescue S12
U 1 1 548A31A3
P 1350 2650
F 0 "S12" H 1350 2650 20  0000 C BNN
F 1 "CHMX" H 1350 2700 20  0000 C TNN
F 2 "~" H 1300 2650 60  0000 C CNN
F 3 "~" H 1300 2650 60  0000 C CNN
	1    1350 2650
	1    0    0    -1  
$EndComp
$Comp
L mxblack-rescue:SN74HC165-mxblacksii-rescue SR2
U 1 1 548A320C
P 1900 3050
F 0 "SR2" H 1900 2800 20  0000 C BNN
F 1 "SN74HC165" H 1900 3250 20  0000 C TNN
F 2 "~" H 1900 3050 60  0000 C CNN
F 3 "~" H 1900 3050 60  0000 C CNN
	1    1900 3050
	1    0    0    -1  
$EndComp
$Comp
L mxblack-rescue:CHMX-mxblacksii-rescue S21
U 1 1 548A4741
P 1300 3700
F 0 "S21" H 1300 3700 20  0000 C BNN
F 1 "CHMX" H 1300 3750 20  0000 C TNN
F 2 "~" H 1250 3700 60  0000 C CNN
F 3 "~" H 1250 3700 60  0000 C CNN
	1    1300 3700
	1    0    0    -1  
$EndComp
$Comp
L mxblack-rescue:CHMX-mxblacksii-rescue S22
U 1 1 548A4747
P 1250 3750
F 0 "S22" H 1250 3750 20  0000 C BNN
F 1 "CHMX" H 1250 3800 20  0000 C TNN
F 2 "~" H 1200 3750 60  0000 C CNN
F 3 "~" H 1200 3750 60  0000 C CNN
	1    1250 3750
	1    0    0    -1  
$EndComp
$Comp
L mxblack-rescue:CHMX-mxblacksii-rescue S23
U 1 1 548A474D
P 1200 3800
F 0 "S23" H 1200 3800 20  0000 C BNN
F 1 "CHMX" H 1200 3850 20  0000 C TNN
F 2 "~" H 1150 3800 60  0000 C CNN
F 3 "~" H 1150 3800 60  0000 C CNN
	1    1200 3800
	1    0    0    -1  
$EndComp
$Comp
L mxblack-rescue:CHMX-mxblacksii-rescue S24
U 1 1 548A4753
P 1150 3850
F 0 "S24" H 1150 3850 20  0000 C BNN
F 1 "CHMX" H 1150 3900 20  0000 C TNN
F 2 "~" H 1100 3850 60  0000 C CNN
F 3 "~" H 1100 3850 60  0000 C CNN
	1    1150 3850
	1    0    0    -1  
$EndComp
$Comp
L mxblack-rescue:CHMX-mxblacksii-rescue S17
U 1 1 548A4759
P 1500 3500
F 0 "S17" H 1500 3500 20  0000 C BNN
F 1 "CHMX" H 1500 3550 20  0000 C TNN
F 2 "~" H 1450 3500 60  0000 C CNN
F 3 "~" H 1450 3500 60  0000 C CNN
	1    1500 3500
	1    0    0    -1  
$EndComp
$Comp
L mxblack-rescue:CHMX-mxblacksii-rescue S18
U 1 1 548A475F
P 1450 3550
F 0 "S18" H 1450 3550 20  0000 C BNN
F 1 "CHMX" H 1450 3600 20  0000 C TNN
F 2 "~" H 1400 3550 60  0000 C CNN
F 3 "~" H 1400 3550 60  0000 C CNN
	1    1450 3550
	1    0    0    -1  
$EndComp
$Comp
L mxblack-rescue:CHMX-mxblacksii-rescue S19
U 1 1 548A4765
P 1400 3600
F 0 "S19" H 1400 3600 20  0000 C BNN
F 1 "CHMX" H 1400 3650 20  0000 C TNN
F 2 "~" H 1350 3600 60  0000 C CNN
F 3 "~" H 1350 3600 60  0000 C CNN
	1    1400 3600
	1    0    0    -1  
$EndComp
$Comp
L mxblack-rescue:CHMX-mxblacksii-rescue S20
U 1 1 548A476B
P 1350 3650
F 0 "S20" H 1350 3650 20  0000 C BNN
F 1 "CHMX" H 1350 3700 20  0000 C TNN
F 2 "~" H 1300 3650 60  0000 C CNN
F 3 "~" H 1300 3650 60  0000 C CNN
	1    1350 3650
	1    0    0    -1  
$EndComp
$Comp
L mxblack-rescue:SN74HC165-mxblacksii-rescue SR3
U 1 1 548A4789
P 1900 4050
F 0 "SR3" H 1900 3800 20  0000 C BNN
F 1 "SN74HC165" H 1900 4250 20  0000 C TNN
F 2 "~" H 1900 4050 60  0000 C CNN
F 3 "~" H 1900 4050 60  0000 C CNN
	1    1900 4050
	1    0    0    -1  
$EndComp
$Comp
L mxblack-rescue:RESIST-mxblacksii-rescue U25
U 1 1 548A3361
P 1150 4900
F 0 "U25" H 1150 4900 20  0000 C BNN
F 1 "RESIST" H 1150 4950 20  0000 C TNN
F 2 "" H 1150 4900 60  0000 C CNN
F 3 "" H 1150 4900 60  0000 C CNN
	1    1150 4900
	1    0    0    -1  
$EndComp
$Comp
L mxblack-rescue:RESIST-mxblacksii-rescue U26
U 1 1 548A3367
P 1150 4950
F 0 "U26" H 1150 4950 20  0000 C BNN
F 1 "RESIST" H 1150 5000 20  0000 C TNN
F 2 "" H 1150 4950 60  0000 C CNN
F 3 "" H 1150 4950 60  0000 C CNN
	1    1150 4950
	1    0    0    -1  
$EndComp
$Comp
L mxblack-rescue:RESIST-mxblacksii-rescue U27
U 1 1 548A336D
P 1150 5000
F 0 "U27" H 1150 5000 20  0000 C BNN
F 1 "RESIST" H 1150 5050 20  0000 C TNN
F 2 "" H 1150 5000 60  0000 C CNN
F 3 "" H 1150 5000 60  0000 C CNN
	1    1150 5000
	1    0    0    -1  
$EndComp
$Comp
L mxblack-rescue:RESIST-mxblacksii-rescue U28
U 1 1 548A3373
P 1150 5050
F 0 "U28" H 1150 5050 20  0000 C BNN
F 1 "RESIST" H 1150 5100 20  0000 C TNN
F 2 "" H 1150 5050 60  0000 C CNN
F 3 "" H 1150 5050 60  0000 C CNN
	1    1150 5050
	1    0    0    -1  
$EndComp
$Comp
L mxblack-rescue:CHMX-mxblacksii-rescue S29
U 1 1 548A3379
P 1300 4700
F 0 "S29" H 1300 4700 20  0000 C BNN
F 1 "CHMX" H 1300 4750 20  0000 C TNN
F 2 "~" H 1250 4700 60  0000 C CNN
F 3 "~" H 1250 4700 60  0000 C CNN
	1    1300 4700
	1    0    0    -1  
$EndComp
$Comp
L mxblack-rescue:CHMX-mxblacksii-rescue S30
U 1 1 548A337F
P 1250 4750
F 0 "S30" H 1250 4750 20  0000 C BNN
F 1 "CHMX" H 1250 4800 20  0000 C TNN
F 2 "~" H 1200 4750 60  0000 C CNN
F 3 "~" H 1200 4750 60  0000 C CNN
	1    1250 4750
	1    0    0    -1  
$EndComp
$Comp
L mxblack-rescue:CHMX-mxblacksii-rescue S31
U 1 1 548A3385
P 1200 4800
F 0 "S31" H 1200 4800 20  0000 C BNN
F 1 "CHMX" H 1200 4850 20  0000 C TNN
F 2 "~" H 1150 4800 60  0000 C CNN
F 3 "~" H 1150 4800 60  0000 C CNN
	1    1200 4800
	1    0    0    -1  
$EndComp
$Comp
L mxblack-rescue:CHMX-mxblacksii-rescue S32
U 1 1 548A338B
P 1150 4850
F 0 "S32" H 1150 4850 20  0000 C BNN
F 1 "CHMX" H 1150 4900 20  0000 C TNN
F 2 "~" H 1100 4850 60  0000 C CNN
F 3 "~" H 1100 4850 60  0000 C CNN
	1    1150 4850
	1    0    0    -1  
$EndComp
$Comp
L mxblack-rescue:CHMX-mxblacksii-rescue S25
U 1 1 548A3391
P 1500 4500
F 0 "S25" H 1500 4500 20  0000 C BNN
F 1 "CHMX" H 1500 4550 20  0000 C TNN
F 2 "~" H 1450 4500 60  0000 C CNN
F 3 "~" H 1450 4500 60  0000 C CNN
	1    1500 4500
	1    0    0    -1  
$EndComp
$Comp
L mxblack-rescue:CHMX-mxblacksii-rescue S26
U 1 1 548A3397
P 1450 4550
F 0 "S26" H 1450 4550 20  0000 C BNN
F 1 "CHMX" H 1450 4600 20  0000 C TNN
F 2 "~" H 1400 4550 60  0000 C CNN
F 3 "~" H 1400 4550 60  0000 C CNN
	1    1450 4550
	1    0    0    -1  
$EndComp
$Comp
L mxblack-rescue:CHMX-mxblacksii-rescue S27
U 1 1 548A339D
P 1400 4600
F 0 "S27" H 1400 4600 20  0000 C BNN
F 1 "CHMX" H 1400 4650 20  0000 C TNN
F 2 "~" H 1350 4600 60  0000 C CNN
F 3 "~" H 1350 4600 60  0000 C CNN
	1    1400 4600
	1    0    0    -1  
$EndComp
$Comp
L mxblack-rescue:CHMX-mxblacksii-rescue S28
U 1 1 548A33A3
P 1350 4650
F 0 "S28" H 1350 4650 20  0000 C BNN
F 1 "CHMX" H 1350 4700 20  0000 C TNN
F 2 "~" H 1300 4650 60  0000 C CNN
F 3 "~" H 1300 4650 60  0000 C CNN
	1    1350 4650
	1    0    0    -1  
$EndComp
$Comp
L mxblack-rescue:RESIST-mxblacksii-rescue U29
U 1 1 548A33A9
P 1150 5100
F 0 "U29" H 1150 5100 20  0000 C BNN
F 1 "RESIST" H 1150 5150 20  0000 C TNN
F 2 "" H 1150 5100 60  0000 C CNN
F 3 "" H 1150 5100 60  0000 C CNN
	1    1150 5100
	1    0    0    -1  
$EndComp
$Comp
L mxblack-rescue:RESIST-mxblacksii-rescue U30
U 1 1 548A33AF
P 1150 5150
F 0 "U30" H 1150 5150 20  0000 C BNN
F 1 "RESIST" H 1150 5200 20  0000 C TNN
F 2 "" H 1150 5150 60  0000 C CNN
F 3 "" H 1150 5150 60  0000 C CNN
	1    1150 5150
	1    0    0    -1  
$EndComp
$Comp
L mxblack-rescue:RESIST-mxblacksii-rescue U31
U 1 1 548A33B5
P 1150 5200
F 0 "U31" H 1150 5200 20  0000 C BNN
F 1 "RESIST" H 1150 5250 20  0000 C TNN
F 2 "" H 1150 5200 60  0000 C CNN
F 3 "" H 1150 5200 60  0000 C CNN
	1    1150 5200
	1    0    0    -1  
$EndComp
$Comp
L mxblack-rescue:RESIST-mxblacksii-rescue U32
U 1 1 548A33BB
P 1150 5250
F 0 "U32" H 1150 5250 20  0000 C BNN
F 1 "RESIST" H 1150 5300 20  0000 C TNN
F 2 "" H 1150 5250 60  0000 C CNN
F 3 "" H 1150 5250 60  0000 C CNN
	1    1150 5250
	1    0    0    -1  
$EndComp
$Comp
L mxblack-rescue:SN74HC165-mxblacksii-rescue SR4
U 1 1 548A33C1
P 1900 5050
F 0 "SR4" H 1900 4800 20  0000 C BNN
F 1 "SN74HC165" H 1900 5250 20  0000 C TNN
F 2 "~" H 1900 5050 60  0000 C CNN
F 3 "~" H 1900 5050 60  0000 C CNN
	1    1900 5050
	1    0    0    -1  
$EndComp
$Comp
L mxblack-rescue:RESIST-mxblacksii-rescue U33
U 1 1 548A3921
P 1150 5900
F 0 "U33" H 1150 5900 20  0000 C BNN
F 1 "RESIST" H 1150 5950 20  0000 C TNN
F 2 "" H 1150 5900 60  0000 C CNN
F 3 "" H 1150 5900 60  0000 C CNN
	1    1150 5900
	1    0    0    -1  
$EndComp
$Comp
L mxblack-rescue:RESIST-mxblacksii-rescue U34
U 1 1 548A3927
P 1150 5950
F 0 "U34" H 1150 5950 20  0000 C BNN
F 1 "RESIST" H 1150 6000 20  0000 C TNN
F 2 "" H 1150 5950 60  0000 C CNN
F 3 "" H 1150 5950 60  0000 C CNN
	1    1150 5950
	1    0    0    -1  
$EndComp
$Comp
L mxblack-rescue:RESIST-mxblacksii-rescue U35
U 1 1 548A392D
P 1150 6000
F 0 "U35" H 1150 6000 20  0000 C BNN
F 1 "RESIST" H 1150 6050 20  0000 C TNN
F 2 "" H 1150 6000 60  0000 C CNN
F 3 "" H 1150 6000 60  0000 C CNN
	1    1150 6000
	1    0    0    -1  
$EndComp
$Comp
L mxblack-rescue:RESIST-mxblacksii-rescue U36
U 1 1 548A3933
P 1150 6050
F 0 "U36" H 1150 6050 20  0000 C BNN
F 1 "RESIST" H 1150 6100 20  0000 C TNN
F 2 "" H 1150 6050 60  0000 C CNN
F 3 "" H 1150 6050 60  0000 C CNN
	1    1150 6050
	1    0    0    -1  
$EndComp
$Comp
L mxblack-rescue:CHMX-mxblacksii-rescue S37
U 1 1 548A3939
P 1300 5700
F 0 "S37" H 1300 5700 20  0000 C BNN
F 1 "CHMX" H 1300 5750 20  0000 C TNN
F 2 "~" H 1250 5700 60  0000 C CNN
F 3 "~" H 1250 5700 60  0000 C CNN
	1    1300 5700
	1    0    0    -1  
$EndComp
$Comp
L mxblack-rescue:CHMX-mxblacksii-rescue S38
U 1 1 548A393F
P 1250 5750
F 0 "S38" H 1250 5750 20  0000 C BNN
F 1 "CHMX" H 1250 5800 20  0000 C TNN
F 2 "~" H 1200 5750 60  0000 C CNN
F 3 "~" H 1200 5750 60  0000 C CNN
	1    1250 5750
	1    0    0    -1  
$EndComp
$Comp
L mxblack-rescue:CHMX-mxblacksii-rescue S39
U 1 1 548A3945
P 1200 5800
F 0 "S39" H 1200 5800 20  0000 C BNN
F 1 "CHMX" H 1200 5850 20  0000 C TNN
F 2 "~" H 1150 5800 60  0000 C CNN
F 3 "~" H 1150 5800 60  0000 C CNN
	1    1200 5800
	1    0    0    -1  
$EndComp
$Comp
L mxblack-rescue:CHMX-mxblacksii-rescue S40
U 1 1 548A394B
P 1150 5850
F 0 "S40" H 1150 5850 20  0000 C BNN
F 1 "CHMX" H 1150 5900 20  0000 C TNN
F 2 "~" H 1100 5850 60  0000 C CNN
F 3 "~" H 1100 5850 60  0000 C CNN
	1    1150 5850
	1    0    0    -1  
$EndComp
$Comp
L mxblack-rescue:CHMX-mxblacksii-rescue S33
U 1 1 548A3951
P 1500 5500
F 0 "S33" H 1500 5500 20  0000 C BNN
F 1 "CHMX" H 1500 5550 20  0000 C TNN
F 2 "~" H 1450 5500 60  0000 C CNN
F 3 "~" H 1450 5500 60  0000 C CNN
	1    1500 5500
	1    0    0    -1  
$EndComp
$Comp
L mxblack-rescue:CHMX-mxblacksii-rescue S34
U 1 1 548A3957
P 1450 5550
F 0 "S34" H 1450 5550 20  0000 C BNN
F 1 "CHMX" H 1450 5600 20  0000 C TNN
F 2 "~" H 1400 5550 60  0000 C CNN
F 3 "~" H 1400 5550 60  0000 C CNN
	1    1450 5550
	1    0    0    -1  
$EndComp
$Comp
L mxblack-rescue:CHMX-mxblacksii-rescue S35
U 1 1 548A395D
P 1400 5600
F 0 "S35" H 1400 5600 20  0000 C BNN
F 1 "CHMX" H 1400 5650 20  0000 C TNN
F 2 "~" H 1350 5600 60  0000 C CNN
F 3 "~" H 1350 5600 60  0000 C CNN
	1    1400 5600
	1    0    0    -1  
$EndComp
$Comp
L mxblack-rescue:CHMX-mxblacksii-rescue S36
U 1 1 548A3963
P 1350 5650
F 0 "S36" H 1350 5650 20  0000 C BNN
F 1 "CHMX" H 1350 5700 20  0000 C TNN
F 2 "~" H 1300 5650 60  0000 C CNN
F 3 "~" H 1300 5650 60  0000 C CNN
	1    1350 5650
	1    0    0    -1  
$EndComp
$Comp
L mxblack-rescue:RESIST-mxblacksii-rescue U37
U 1 1 548A3969
P 1150 6100
F 0 "U37" H 1150 6100 20  0000 C BNN
F 1 "RESIST" H 1150 6150 20  0000 C TNN
F 2 "" H 1150 6100 60  0000 C CNN
F 3 "" H 1150 6100 60  0000 C CNN
	1    1150 6100
	1    0    0    -1  
$EndComp
$Comp
L mxblack-rescue:RESIST-mxblacksii-rescue U38
U 1 1 548A396F
P 1150 6150
F 0 "U38" H 1150 6150 20  0000 C BNN
F 1 "RESIST" H 1150 6200 20  0000 C TNN
F 2 "" H 1150 6150 60  0000 C CNN
F 3 "" H 1150 6150 60  0000 C CNN
	1    1150 6150
	1    0    0    -1  
$EndComp
$Comp
L mxblack-rescue:RESIST-mxblacksii-rescue U39
U 1 1 548A3975
P 1150 6200
F 0 "U39" H 1150 6200 20  0000 C BNN
F 1 "RESIST" H 1150 6250 20  0000 C TNN
F 2 "" H 1150 6200 60  0000 C CNN
F 3 "" H 1150 6200 60  0000 C CNN
	1    1150 6200
	1    0    0    -1  
$EndComp
$Comp
L mxblack-rescue:RESIST-mxblacksii-rescue U40
U 1 1 548A397B
P 1150 6250
F 0 "U40" H 1150 6250 20  0000 C BNN
F 1 "RESIST" H 1150 6300 20  0000 C TNN
F 2 "" H 1150 6250 60  0000 C CNN
F 3 "" H 1150 6250 60  0000 C CNN
	1    1150 6250
	1    0    0    -1  
$EndComp
$Comp
L mxblack-rescue:SN74HC165-mxblacksii-rescue SR5
U 1 1 548A398D
P 1900 6050
F 0 "SR5" H 1900 5800 20  0000 C BNN
F 1 "SN74HC165" H 1900 6250 20  0000 C TNN
F 2 "~" H 1900 6050 60  0000 C CNN
F 3 "~" H 1900 6050 60  0000 C CNN
	1    1900 6050
	1    0    0    -1  
$EndComp
$Comp
L mxblack-rescue:RESIST-mxblacksii-rescue U41
U 1 1 548A3993
P 1150 6900
F 0 "U41" H 1150 6900 20  0000 C BNN
F 1 "RESIST" H 1150 6950 20  0000 C TNN
F 2 "" H 1150 6900 60  0000 C CNN
F 3 "" H 1150 6900 60  0000 C CNN
	1    1150 6900
	1    0    0    -1  
$EndComp
$Comp
L mxblack-rescue:RESIST-mxblacksii-rescue U42
U 1 1 548A3999
P 1150 6950
F 0 "U42" H 1150 6950 20  0000 C BNN
F 1 "RESIST" H 1150 7000 20  0000 C TNN
F 2 "" H 1150 6950 60  0000 C CNN
F 3 "" H 1150 6950 60  0000 C CNN
	1    1150 6950
	1    0    0    -1  
$EndComp
$Comp
L mxblack-rescue:RESIST-mxblacksii-rescue U43
U 1 1 548A399F
P 1150 7000
F 0 "U43" H 1150 7000 20  0000 C BNN
F 1 "RESIST" H 1150 7050 20  0000 C TNN
F 2 "" H 1150 7000 60  0000 C CNN
F 3 "" H 1150 7000 60  0000 C CNN
	1    1150 7000
	1    0    0    -1  
$EndComp
$Comp
L mxblack-rescue:RESIST-mxblacksii-rescue U44
U 1 1 548A39A5
P 1150 7050
F 0 "U44" H 1150 7050 20  0000 C BNN
F 1 "RESIST" H 1150 7100 20  0000 C TNN
F 2 "" H 1150 7050 60  0000 C CNN
F 3 "" H 1150 7050 60  0000 C CNN
	1    1150 7050
	1    0    0    -1  
$EndComp
$Comp
L mxblack-rescue:CHMX-mxblacksii-rescue S45
U 1 1 548A39AB
P 1300 6700
F 0 "S45" H 1300 6700 20  0000 C BNN
F 1 "CHMX" H 1300 6750 20  0000 C TNN
F 2 "~" H 1250 6700 60  0000 C CNN
F 3 "~" H 1250 6700 60  0000 C CNN
	1    1300 6700
	1    0    0    -1  
$EndComp
$Comp
L mxblack-rescue:CHMX-mxblacksii-rescue S46
U 1 1 548A39B1
P 1250 6750
F 0 "S46" H 1250 6750 20  0000 C BNN
F 1 "CHMX" H 1250 6800 20  0000 C TNN
F 2 "~" H 1200 6750 60  0000 C CNN
F 3 "~" H 1200 6750 60  0000 C CNN
	1    1250 6750
	1    0    0    -1  
$EndComp
$Comp
L mxblack-rescue:CHMX-mxblacksii-rescue S47
U 1 1 548A39B7
P 1200 6800
F 0 "S47" H 1200 6800 20  0000 C BNN
F 1 "CHMX" H 1200 6850 20  0000 C TNN
F 2 "~" H 1150 6800 60  0000 C CNN
F 3 "~" H 1150 6800 60  0000 C CNN
	1    1200 6800
	1    0    0    -1  
$EndComp
$Comp
L mxblack-rescue:CHMX-mxblacksii-rescue S48
U 1 1 548A39BD
P 1150 6850
F 0 "S48" H 1150 6850 20  0000 C BNN
F 1 "CHMX" H 1150 6900 20  0000 C TNN
F 2 "~" H 1100 6850 60  0000 C CNN
F 3 "~" H 1100 6850 60  0000 C CNN
	1    1150 6850
	1    0    0    -1  
$EndComp
$Comp
L mxblack-rescue:CHMX-mxblacksii-rescue S41
U 1 1 548A39C3
P 1500 6500
F 0 "S41" H 1500 6500 20  0000 C BNN
F 1 "CHMX" H 1500 6550 20  0000 C TNN
F 2 "~" H 1450 6500 60  0000 C CNN
F 3 "~" H 1450 6500 60  0000 C CNN
	1    1500 6500
	1    0    0    -1  
$EndComp
$Comp
L mxblack-rescue:CHMX-mxblacksii-rescue S42
U 1 1 548A39C9
P 1450 6550
F 0 "S42" H 1450 6550 20  0000 C BNN
F 1 "CHMX" H 1450 6600 20  0000 C TNN
F 2 "~" H 1400 6550 60  0000 C CNN
F 3 "~" H 1400 6550 60  0000 C CNN
	1    1450 6550
	1    0    0    -1  
$EndComp
$Comp
L mxblack-rescue:CHMX-mxblacksii-rescue S43
U 1 1 548A39CF
P 1400 6600
F 0 "S43" H 1400 6600 20  0000 C BNN
F 1 "CHMX" H 1400 6650 20  0000 C TNN
F 2 "~" H 1350 6600 60  0000 C CNN
F 3 "~" H 1350 6600 60  0000 C CNN
	1    1400 6600
	1    0    0    -1  
$EndComp
$Comp
L mxblack-rescue:CHMX-mxblacksii-rescue S44
U 1 1 548A39D5
P 1350 6650
F 0 "S44" H 1350 6650 20  0000 C BNN
F 1 "CHMX" H 1350 6700 20  0000 C TNN
F 2 "~" H 1300 6650 60  0000 C CNN
F 3 "~" H 1300 6650 60  0000 C CNN
	1    1350 6650
	1    0    0    -1  
$EndComp
$Comp
L mxblack-rescue:RESIST-mxblacksii-rescue U45
U 1 1 548A39DB
P 1150 7100
F 0 "U45" H 1150 7100 20  0000 C BNN
F 1 "RESIST" H 1150 7150 20  0000 C TNN
F 2 "" H 1150 7100 60  0000 C CNN
F 3 "" H 1150 7100 60  0000 C CNN
	1    1150 7100
	1    0    0    -1  
$EndComp
$Comp
L mxblack-rescue:RESIST-mxblacksii-rescue U46
U 1 1 548A39E1
P 1150 7150
F 0 "U46" H 1150 7150 20  0000 C BNN
F 1 "RESIST" H 1150 7200 20  0000 C TNN
F 2 "" H 1150 7150 60  0000 C CNN
F 3 "" H 1150 7150 60  0000 C CNN
	1    1150 7150
	1    0    0    -1  
$EndComp
$Comp
L mxblack-rescue:RESIST-mxblacksii-rescue U47
U 1 1 548A39E7
P 1150 7200
F 0 "U47" H 1150 7200 20  0000 C BNN
F 1 "RESIST" H 1150 7250 20  0000 C TNN
F 2 "" H 1150 7200 60  0000 C CNN
F 3 "" H 1150 7200 60  0000 C CNN
	1    1150 7200
	1    0    0    -1  
$EndComp
$Comp
L mxblack-rescue:RESIST-mxblacksii-rescue U48
U 1 1 548A39ED
P 1150 7250
F 0 "U48" H 1150 7250 20  0000 C BNN
F 1 "RESIST" H 1150 7300 20  0000 C TNN
F 2 "" H 1150 7250 60  0000 C CNN
F 3 "" H 1150 7250 60  0000 C CNN
	1    1150 7250
	1    0    0    -1  
$EndComp
$Comp
L mxblack-rescue:SN74HC165-mxblacksii-rescue SR6
U 1 1 548A39F3
P 1900 7050
F 0 "SR6" H 1900 6800 20  0000 C BNN
F 1 "SN74HC165" H 1900 7250 20  0000 C TNN
F 2 "~" H 1900 7050 60  0000 C CNN
F 3 "~" H 1900 7050 60  0000 C CNN
	1    1900 7050
	1    0    0    -1  
$EndComp
$Comp
L mxblack-rescue:RESIST-mxblacksii-rescue U49
U 1 1 548A3A75
P 1150 7900
F 0 "U49" H 1150 7900 20  0000 C BNN
F 1 "RESIST" H 1150 7950 20  0000 C TNN
F 2 "" H 1150 7900 60  0000 C CNN
F 3 "" H 1150 7900 60  0000 C CNN
	1    1150 7900
	1    0    0    -1  
$EndComp
$Comp
L mxblack-rescue:RESIST-mxblacksii-rescue U50
U 1 1 548A3A7B
P 1150 7950
F 0 "U50" H 1150 7950 20  0000 C BNN
F 1 "RESIST" H 1150 8000 20  0000 C TNN
F 2 "" H 1150 7950 60  0000 C CNN
F 3 "" H 1150 7950 60  0000 C CNN
	1    1150 7950
	1    0    0    -1  
$EndComp
$Comp
L mxblack-rescue:RESIST-mxblacksii-rescue U51
U 1 1 548A3A81
P 1150 8000
F 0 "U51" H 1150 8000 20  0000 C BNN
F 1 "RESIST" H 1150 8050 20  0000 C TNN
F 2 "" H 1150 8000 60  0000 C CNN
F 3 "" H 1150 8000 60  0000 C CNN
	1    1150 8000
	1    0    0    -1  
$EndComp
$Comp
L mxblack-rescue:RESIST-mxblacksii-rescue U52
U 1 1 548A3A87
P 1150 8050
F 0 "U52" H 1150 8050 20  0000 C BNN
F 1 "RESIST" H 1150 8100 20  0000 C TNN
F 2 "" H 1150 8050 60  0000 C CNN
F 3 "" H 1150 8050 60  0000 C CNN
	1    1150 8050
	1    0    0    -1  
$EndComp
$Comp
L mxblack-rescue:CHMX-mxblacksii-rescue S53
U 1 1 548A3A8D
P 1300 7700
F 0 "S53" H 1300 7700 20  0000 C BNN
F 1 "CHMX" H 1300 7750 20  0000 C TNN
F 2 "~" H 1250 7700 60  0000 C CNN
F 3 "~" H 1250 7700 60  0000 C CNN
	1    1300 7700
	1    0    0    -1  
$EndComp
$Comp
L mxblack-rescue:CHMX-mxblacksii-rescue S54
U 1 1 548A3A93
P 1250 7750
F 0 "S54" H 1250 7750 20  0000 C BNN
F 1 "CHMX" H 1250 7800 20  0000 C TNN
F 2 "~" H 1200 7750 60  0000 C CNN
F 3 "~" H 1200 7750 60  0000 C CNN
	1    1250 7750
	1    0    0    -1  
$EndComp
$Comp
L mxblack-rescue:CHMX-mxblacksii-rescue S55
U 1 1 548A3A99
P 1200 7800
F 0 "S55" H 1200 7800 20  0000 C BNN
F 1 "CHMX" H 1200 7850 20  0000 C TNN
F 2 "~" H 1150 7800 60  0000 C CNN
F 3 "~" H 1150 7800 60  0000 C CNN
	1    1200 7800
	1    0    0    -1  
$EndComp
$Comp
L mxblack-rescue:CHMX-mxblacksii-rescue S56
U 1 1 548A3A9F
P 1150 7850
F 0 "S56" H 1150 7850 20  0000 C BNN
F 1 "CHMX" H 1150 7900 20  0000 C TNN
F 2 "~" H 1100 7850 60  0000 C CNN
F 3 "~" H 1100 7850 60  0000 C CNN
	1    1150 7850
	1    0    0    -1  
$EndComp
$Comp
L mxblack-rescue:CHMX-mxblacksii-rescue S49
U 1 1 548A3AA5
P 1500 7500
F 0 "S49" H 1500 7500 20  0000 C BNN
F 1 "CHMX" H 1500 7550 20  0000 C TNN
F 2 "~" H 1450 7500 60  0000 C CNN
F 3 "~" H 1450 7500 60  0000 C CNN
	1    1500 7500
	1    0    0    -1  
$EndComp
$Comp
L mxblack-rescue:CHMX-mxblacksii-rescue S50
U 1 1 548A3AAB
P 1450 7550
F 0 "S50" H 1450 7550 20  0000 C BNN
F 1 "CHMX" H 1450 7600 20  0000 C TNN
F 2 "~" H 1400 7550 60  0000 C CNN
F 3 "~" H 1400 7550 60  0000 C CNN
	1    1450 7550
	1    0    0    -1  
$EndComp
$Comp
L mxblack-rescue:CHMX-mxblacksii-rescue S51
U 1 1 548A3AB1
P 1400 7600
F 0 "S51" H 1400 7600 20  0000 C BNN
F 1 "CHMX" H 1400 7650 20  0000 C TNN
F 2 "~" H 1350 7600 60  0000 C CNN
F 3 "~" H 1350 7600 60  0000 C CNN
	1    1400 7600
	1    0    0    -1  
$EndComp
$Comp
L mxblack-rescue:CHMX-mxblacksii-rescue S52
U 1 1 548A3AB7
P 1350 7650
F 0 "S52" H 1350 7650 20  0000 C BNN
F 1 "CHMX" H 1350 7700 20  0000 C TNN
F 2 "~" H 1300 7650 60  0000 C CNN
F 3 "~" H 1300 7650 60  0000 C CNN
	1    1350 7650
	1    0    0    -1  
$EndComp
$Comp
L mxblack-rescue:RESIST-mxblacksii-rescue U53
U 1 1 548A3ABD
P 1150 8100
F 0 "U53" H 1150 8100 20  0000 C BNN
F 1 "RESIST" H 1150 8150 20  0000 C TNN
F 2 "" H 1150 8100 60  0000 C CNN
F 3 "" H 1150 8100 60  0000 C CNN
	1    1150 8100
	1    0    0    -1  
$EndComp
$Comp
L mxblack-rescue:RESIST-mxblacksii-rescue U54
U 1 1 548A3AC3
P 1150 8150
F 0 "U54" H 1150 8150 20  0000 C BNN
F 1 "RESIST" H 1150 8200 20  0000 C TNN
F 2 "" H 1150 8150 60  0000 C CNN
F 3 "" H 1150 8150 60  0000 C CNN
	1    1150 8150
	1    0    0    -1  
$EndComp
$Comp
L mxblack-rescue:RESIST-mxblacksii-rescue U55
U 1 1 548A3AC9
P 1150 8200
F 0 "U55" H 1150 8200 20  0000 C BNN
F 1 "RESIST" H 1150 8250 20  0000 C TNN
F 2 "" H 1150 8200 60  0000 C CNN
F 3 "" H 1150 8200 60  0000 C CNN
	1    1150 8200
	1    0    0    -1  
$EndComp
$Comp
L mxblack-rescue:RESIST-mxblacksii-rescue U56
U 1 1 548A3ACF
P 1150 8250
F 0 "U56" H 1150 8250 20  0000 C BNN
F 1 "RESIST" H 1150 8300 20  0000 C TNN
F 2 "" H 1150 8250 60  0000 C CNN
F 3 "" H 1150 8250 60  0000 C CNN
	1    1150 8250
	1    0    0    -1  
$EndComp
$Comp
L mxblack-rescue:SN74HC165-mxblacksii-rescue SR7
U 1 1 548A3AD5
P 1900 8050
F 0 "SR7" H 1900 7800 20  0000 C BNN
F 1 "SN74HC165" H 1900 8250 20  0000 C TNN
F 2 "~" H 1900 8050 60  0000 C CNN
F 3 "~" H 1900 8050 60  0000 C CNN
	1    1900 8050
	1    0    0    -1  
$EndComp
$Comp
L mxblack-rescue:RESIST-mxblacksii-rescue U57
U 1 1 548A3B30
P 1150 8900
F 0 "U57" H 1150 8900 20  0000 C BNN
F 1 "RESIST" H 1150 8950 20  0000 C TNN
F 2 "" H 1150 8900 60  0000 C CNN
F 3 "" H 1150 8900 60  0000 C CNN
	1    1150 8900
	1    0    0    -1  
$EndComp
$Comp
L mxblack-rescue:RESIST-mxblacksii-rescue U58
U 1 1 548A3B36
P 1150 8950
F 0 "U58" H 1150 8950 20  0000 C BNN
F 1 "RESIST" H 1150 9000 20  0000 C TNN
F 2 "" H 1150 8950 60  0000 C CNN
F 3 "" H 1150 8950 60  0000 C CNN
	1    1150 8950
	1    0    0    -1  
$EndComp
$Comp
L mxblack-rescue:RESIST-mxblacksii-rescue U59
U 1 1 548A3B3C
P 1150 9000
F 0 "U59" H 1150 9000 20  0000 C BNN
F 1 "RESIST" H 1150 9050 20  0000 C TNN
F 2 "" H 1150 9000 60  0000 C CNN
F 3 "" H 1150 9000 60  0000 C CNN
	1    1150 9000
	1    0    0    -1  
$EndComp
$Comp
L mxblack-rescue:RESIST-mxblacksii-rescue U60
U 1 1 548A3B42
P 1150 9050
F 0 "U60" H 1150 9050 20  0000 C BNN
F 1 "RESIST" H 1150 9100 20  0000 C TNN
F 2 "" H 1150 9050 60  0000 C CNN
F 3 "" H 1150 9050 60  0000 C CNN
	1    1150 9050
	1    0    0    -1  
$EndComp
$Comp
L mxblack-rescue:CHMX-mxblacksii-rescue S61
U 1 1 548A3B48
P 1300 8700
F 0 "S61" H 1300 8700 20  0000 C BNN
F 1 "CHMX" H 1300 8750 20  0000 C TNN
F 2 "~" H 1250 8700 60  0000 C CNN
F 3 "~" H 1250 8700 60  0000 C CNN
	1    1300 8700
	1    0    0    -1  
$EndComp
$Comp
L mxblack-rescue:CHMX-mxblacksii-rescue S62
U 1 1 548A3B4E
P 1250 8750
F 0 "S62" H 1250 8750 20  0000 C BNN
F 1 "CHMX" H 1250 8800 20  0000 C TNN
F 2 "~" H 1200 8750 60  0000 C CNN
F 3 "~" H 1200 8750 60  0000 C CNN
	1    1250 8750
	1    0    0    -1  
$EndComp
$Comp
L mxblack-rescue:CHMX-mxblacksii-rescue S63
U 1 1 548A3B54
P 1200 8800
F 0 "S63" H 1200 8800 20  0000 C BNN
F 1 "CHMX" H 1200 8850 20  0000 C TNN
F 2 "~" H 1150 8800 60  0000 C CNN
F 3 "~" H 1150 8800 60  0000 C CNN
	1    1200 8800
	1    0    0    -1  
$EndComp
$Comp
L mxblack-rescue:CHMX-mxblacksii-rescue S64
U 1 1 548A3B5A
P 1150 8850
F 0 "S64" H 1150 8850 20  0000 C BNN
F 1 "CHMX" H 1150 8900 20  0000 C TNN
F 2 "~" H 1100 8850 60  0000 C CNN
F 3 "~" H 1100 8850 60  0000 C CNN
	1    1150 8850
	1    0    0    -1  
$EndComp
$Comp
L mxblack-rescue:CHMX-mxblacksii-rescue S57
U 1 1 548A3B60
P 1500 8500
F 0 "S57" H 1500 8500 20  0000 C BNN
F 1 "CHMX" H 1500 8550 20  0000 C TNN
F 2 "~" H 1450 8500 60  0000 C CNN
F 3 "~" H 1450 8500 60  0000 C CNN
	1    1500 8500
	1    0    0    -1  
$EndComp
$Comp
L mxblack-rescue:CHMX-mxblacksii-rescue S58
U 1 1 548A3B66
P 1450 8550
F 0 "S58" H 1450 8550 20  0000 C BNN
F 1 "CHMX" H 1450 8600 20  0000 C TNN
F 2 "~" H 1400 8550 60  0000 C CNN
F 3 "~" H 1400 8550 60  0000 C CNN
	1    1450 8550
	1    0    0    -1  
$EndComp
$Comp
L mxblack-rescue:CHMX-mxblacksii-rescue S59
U 1 1 548A3B6C
P 1400 8600
F 0 "S59" H 1400 8600 20  0000 C BNN
F 1 "CHMX" H 1400 8650 20  0000 C TNN
F 2 "~" H 1350 8600 60  0000 C CNN
F 3 "~" H 1350 8600 60  0000 C CNN
	1    1400 8600
	1    0    0    -1  
$EndComp
$Comp
L mxblack-rescue:CHMX-mxblacksii-rescue S60
U 1 1 548A3B72
P 1350 8650
F 0 "S60" H 1350 8650 20  0000 C BNN
F 1 "CHMX" H 1350 8700 20  0000 C TNN
F 2 "~" H 1300 8650 60  0000 C CNN
F 3 "~" H 1300 8650 60  0000 C CNN
	1    1350 8650
	1    0    0    -1  
$EndComp
$Comp
L mxblack-rescue:RESIST-mxblacksii-rescue U61
U 1 1 548A3B78
P 1150 9100
F 0 "U61" H 1150 9100 20  0000 C BNN
F 1 "RESIST" H 1150 9150 20  0000 C TNN
F 2 "" H 1150 9100 60  0000 C CNN
F 3 "" H 1150 9100 60  0000 C CNN
	1    1150 9100
	1    0    0    -1  
$EndComp
$Comp
L mxblack-rescue:RESIST-mxblacksii-rescue U62
U 1 1 548A3B7E
P 1150 9150
F 0 "U62" H 1150 9150 20  0000 C BNN
F 1 "RESIST" H 1150 9200 20  0000 C TNN
F 2 "" H 1150 9150 60  0000 C CNN
F 3 "" H 1150 9150 60  0000 C CNN
	1    1150 9150
	1    0    0    -1  
$EndComp
$Comp
L mxblack-rescue:RESIST-mxblacksii-rescue U63
U 1 1 548A3B84
P 1150 9200
F 0 "U63" H 1150 9200 20  0000 C BNN
F 1 "RESIST" H 1150 9250 20  0000 C TNN
F 2 "" H 1150 9200 60  0000 C CNN
F 3 "" H 1150 9200 60  0000 C CNN
	1    1150 9200
	1    0    0    -1  
$EndComp
$Comp
L mxblack-rescue:RESIST-mxblacksii-rescue U64
U 1 1 548A3B8A
P 1150 9250
F 0 "U64" H 1150 9250 20  0000 C BNN
F 1 "RESIST" H 1150 9300 20  0000 C TNN
F 2 "" H 1150 9250 60  0000 C CNN
F 3 "" H 1150 9250 60  0000 C CNN
	1    1150 9250
	1    0    0    -1  
$EndComp
$Comp
L mxblack-rescue:SN74HC165-mxblacksii-rescue SR8
U 1 1 548A3B90
P 1900 9050
F 0 "SR8" H 1900 8800 20  0000 C BNN
F 1 "SN74HC165" H 1900 9250 20  0000 C TNN
F 2 "~" H 1900 9050 60  0000 C CNN
F 3 "~" H 1900 9050 60  0000 C CNN
	1    1900 9050
	1    0    0    -1  
$EndComp
$Comp
L mxblack-rescue:RESIST-mxblacksii-rescue U65
U 1 1 548A4CB9
P 1150 9900
F 0 "U65" H 1150 9900 20  0000 C BNN
F 1 "RESIST" H 1150 9950 20  0000 C TNN
F 2 "" H 1150 9900 60  0000 C CNN
F 3 "" H 1150 9900 60  0000 C CNN
	1    1150 9900
	1    0    0    -1  
$EndComp
$Comp
L mxblack-rescue:RESIST-mxblacksii-rescue U66
U 1 1 548A4CBF
P 1150 9950
F 0 "U66" H 1150 9950 20  0000 C BNN
F 1 "RESIST" H 1150 10000 20  0000 C TNN
F 2 "" H 1150 9950 60  0000 C CNN
F 3 "" H 1150 9950 60  0000 C CNN
	1    1150 9950
	1    0    0    -1  
$EndComp
$Comp
L mxblack-rescue:RESIST-mxblacksii-rescue U67
U 1 1 548A4CC5
P 1150 10000
F 0 "U67" H 1150 10000 20  0000 C BNN
F 1 "RESIST" H 1150 10050 20  0000 C TNN
F 2 "" H 1150 10000 60  0000 C CNN
F 3 "" H 1150 10000 60  0000 C CNN
	1    1150 10000
	1    0    0    -1  
$EndComp
$Comp
L mxblack-rescue:RESIST-mxblacksii-rescue U68
U 1 1 548A4CCB
P 1150 10050
F 0 "U68" H 1150 10050 20  0000 C BNN
F 1 "RESIST" H 1150 10100 20  0000 C TNN
F 2 "" H 1150 10050 60  0000 C CNN
F 3 "" H 1150 10050 60  0000 C CNN
	1    1150 10050
	1    0    0    -1  
$EndComp
$Comp
L mxblack-rescue:CHMX-mxblacksii-rescue S69
U 1 1 548A4CD1
P 1300 9700
F 0 "S69" H 1300 9700 20  0000 C BNN
F 1 "CHMX" H 1300 9750 20  0000 C TNN
F 2 "~" H 1250 9700 60  0000 C CNN
F 3 "~" H 1250 9700 60  0000 C CNN
	1    1300 9700
	1    0    0    -1  
$EndComp
$Comp
L mxblack-rescue:CHMX-mxblacksii-rescue S70
U 1 1 548A4CD7
P 1250 9750
F 0 "S70" H 1250 9750 20  0000 C BNN
F 1 "CHMX" H 1250 9800 20  0000 C TNN
F 2 "~" H 1200 9750 60  0000 C CNN
F 3 "~" H 1200 9750 60  0000 C CNN
	1    1250 9750
	1    0    0    -1  
$EndComp
$Comp
L mxblack-rescue:CHMX-mxblacksii-rescue S71
U 1 1 548A4CDD
P 1200 9800
F 0 "S71" H 1200 9800 20  0000 C BNN
F 1 "CHMX" H 1200 9850 20  0000 C TNN
F 2 "~" H 1150 9800 60  0000 C CNN
F 3 "~" H 1150 9800 60  0000 C CNN
	1    1200 9800
	1    0    0    -1  
$EndComp
$Comp
L mxblack-rescue:CHMX-mxblacksii-rescue S72
U 1 1 548A4CE3
P 1150 9850
F 0 "S72" H 1150 9850 20  0000 C BNN
F 1 "CHMX" H 1150 9900 20  0000 C TNN
F 2 "~" H 1100 9850 60  0000 C CNN
F 3 "~" H 1100 9850 60  0000 C CNN
	1    1150 9850
	1    0    0    -1  
$EndComp
$Comp
L mxblack-rescue:CHMX-mxblacksii-rescue S65
U 1 1 548A4CE9
P 1500 9500
F 0 "S65" H 1500 9500 20  0000 C BNN
F 1 "CHMX" H 1500 9550 20  0000 C TNN
F 2 "~" H 1450 9500 60  0000 C CNN
F 3 "~" H 1450 9500 60  0000 C CNN
	1    1500 9500
	1    0    0    -1  
$EndComp
$Comp
L mxblack-rescue:CHMX-mxblacksii-rescue S66
U 1 1 548A4CEF
P 1450 9550
F 0 "S66" H 1450 9550 20  0000 C BNN
F 1 "CHMX" H 1450 9600 20  0000 C TNN
F 2 "~" H 1400 9550 60  0000 C CNN
F 3 "~" H 1400 9550 60  0000 C CNN
	1    1450 9550
	1    0    0    -1  
$EndComp
$Comp
L mxblack-rescue:CHMX-mxblacksii-rescue S67
U 1 1 548A4CF5
P 1400 9600
F 0 "S67" H 1400 9600 20  0000 C BNN
F 1 "CHMX" H 1400 9650 20  0000 C TNN
F 2 "~" H 1350 9600 60  0000 C CNN
F 3 "~" H 1350 9600 60  0000 C CNN
	1    1400 9600
	1    0    0    -1  
$EndComp
$Comp
L mxblack-rescue:CHMX-mxblacksii-rescue S68
U 1 1 548A4CFB
P 1350 9650
F 0 "S68" H 1350 9650 20  0000 C BNN
F 1 "CHMX" H 1350 9700 20  0000 C TNN
F 2 "~" H 1300 9650 60  0000 C CNN
F 3 "~" H 1300 9650 60  0000 C CNN
	1    1350 9650
	1    0    0    -1  
$EndComp
$Comp
L mxblack-rescue:RESIST-mxblacksii-rescue U69
U 1 1 548A4D01
P 1150 10100
F 0 "U69" H 1150 10100 20  0000 C BNN
F 1 "RESIST" H 1150 10150 20  0000 C TNN
F 2 "" H 1150 10100 60  0000 C CNN
F 3 "" H 1150 10100 60  0000 C CNN
	1    1150 10100
	1    0    0    -1  
$EndComp
$Comp
L mxblack-rescue:RESIST-mxblacksii-rescue U70
U 1 1 548A4D07
P 1150 10150
F 0 "U70" H 1150 10150 20  0000 C BNN
F 1 "RESIST" H 1150 10200 20  0000 C TNN
F 2 "" H 1150 10150 60  0000 C CNN
F 3 "" H 1150 10150 60  0000 C CNN
	1    1150 10150
	1    0    0    -1  
$EndComp
$Comp
L mxblack-rescue:RESIST-mxblacksii-rescue U71
U 1 1 548A4D0D
P 1150 10200
F 0 "U71" H 1150 10200 20  0000 C BNN
F 1 "RESIST" H 1150 10250 20  0000 C TNN
F 2 "" H 1150 10200 60  0000 C CNN
F 3 "" H 1150 10200 60  0000 C CNN
	1    1150 10200
	1    0    0    -1  
$EndComp
$Comp
L mxblack-rescue:RESIST-mxblacksii-rescue U72
U 1 1 548A4D13
P 1150 10250
F 0 "U72" H 1150 10250 20  0000 C BNN
F 1 "RESIST" H 1150 10300 20  0000 C TNN
F 2 "" H 1150 10250 60  0000 C CNN
F 3 "" H 1150 10250 60  0000 C CNN
	1    1150 10250
	1    0    0    -1  
$EndComp
$Comp
L mxblack-rescue:SN74HC165-mxblacksii-rescue SR9
U 1 1 548A4D19
P 1900 10050
F 0 "SR9" H 1900 9800 20  0000 C BNN
F 1 "SN74HC165" H 1900 10250 20  0000 C TNN
F 2 "~" H 1900 10050 60  0000 C CNN
F 3 "~" H 1900 10050 60  0000 C CNN
	1    1900 10050
	1    0    0    -1  
$EndComp
$Comp
L mxblack-rescue:RESIST-mxblacksii-rescue U73
U 1 1 548A4D1F
P 1150 10900
F 0 "U73" H 1150 10900 20  0000 C BNN
F 1 "RESIST" H 1150 10950 20  0000 C TNN
F 2 "" H 1150 10900 60  0000 C CNN
F 3 "" H 1150 10900 60  0000 C CNN
	1    1150 10900
	1    0    0    -1  
$EndComp
$Comp
L mxblack-rescue:RESIST-mxblacksii-rescue U74
U 1 1 548A4D25
P 1150 10950
F 0 "U74" H 1150 10950 20  0000 C BNN
F 1 "RESIST" H 1150 11000 20  0000 C TNN
F 2 "" H 1150 10950 60  0000 C CNN
F 3 "" H 1150 10950 60  0000 C CNN
	1    1150 10950
	1    0    0    -1  
$EndComp
$Comp
L mxblack-rescue:RESIST-mxblacksii-rescue U75
U 1 1 548A4D2B
P 1150 11000
F 0 "U75" H 1150 11000 20  0000 C BNN
F 1 "RESIST" H 1150 11050 20  0000 C TNN
F 2 "" H 1150 11000 60  0000 C CNN
F 3 "" H 1150 11000 60  0000 C CNN
	1    1150 11000
	1    0    0    -1  
$EndComp
$Comp
L mxblack-rescue:RESIST-mxblacksii-rescue U76
U 1 1 548A4D31
P 1150 11050
F 0 "U76" H 1150 11050 20  0000 C BNN
F 1 "RESIST" H 1150 11100 20  0000 C TNN
F 2 "" H 1150 11050 60  0000 C CNN
F 3 "" H 1150 11050 60  0000 C CNN
	1    1150 11050
	1    0    0    -1  
$EndComp
$Comp
L mxblack-rescue:CHMX-mxblacksii-rescue S77
U 1 1 548A4D37
P 1300 10700
F 0 "S77" H 1300 10700 20  0000 C BNN
F 1 "CHMX" H 1300 10750 20  0000 C TNN
F 2 "~" H 1250 10700 60  0000 C CNN
F 3 "~" H 1250 10700 60  0000 C CNN
	1    1300 10700
	1    0    0    -1  
$EndComp
$Comp
L mxblack-rescue:CHMX-mxblacksii-rescue S78
U 1 1 548A4D3D
P 1250 10750
F 0 "S78" H 1250 10750 20  0000 C BNN
F 1 "CHMX" H 1250 10800 20  0000 C TNN
F 2 "~" H 1200 10750 60  0000 C CNN
F 3 "~" H 1200 10750 60  0000 C CNN
	1    1250 10750
	1    0    0    -1  
$EndComp
$Comp
L mxblack-rescue:CHMX-mxblacksii-rescue S79
U 1 1 548A4D43
P 1200 10800
F 0 "S79" H 1200 10800 20  0000 C BNN
F 1 "CHMX" H 1200 10850 20  0000 C TNN
F 2 "~" H 1150 10800 60  0000 C CNN
F 3 "~" H 1150 10800 60  0000 C CNN
	1    1200 10800
	1    0    0    -1  
$EndComp
$Comp
L mxblack-rescue:CHMX-mxblacksii-rescue S80
U 1 1 548A4D49
P 1150 10850
F 0 "S80" H 1150 10850 20  0000 C BNN
F 1 "CHMX" H 1150 10900 20  0000 C TNN
F 2 "~" H 1100 10850 60  0000 C CNN
F 3 "~" H 1100 10850 60  0000 C CNN
	1    1150 10850
	1    0    0    -1  
$EndComp
$Comp
L mxblack-rescue:CHMX-mxblacksii-rescue S73
U 1 1 548A4D4F
P 1500 10500
F 0 "S73" H 1500 10500 20  0000 C BNN
F 1 "CHMX" H 1500 10550 20  0000 C TNN
F 2 "~" H 1450 10500 60  0000 C CNN
F 3 "~" H 1450 10500 60  0000 C CNN
	1    1500 10500
	1    0    0    -1  
$EndComp
$Comp
L mxblack-rescue:CHMX-mxblacksii-rescue S74
U 1 1 548A4D55
P 1450 10550
F 0 "S74" H 1450 10550 20  0000 C BNN
F 1 "CHMX" H 1450 10600 20  0000 C TNN
F 2 "~" H 1400 10550 60  0000 C CNN
F 3 "~" H 1400 10550 60  0000 C CNN
	1    1450 10550
	1    0    0    -1  
$EndComp
$Comp
L mxblack-rescue:CHMX-mxblacksii-rescue S75
U 1 1 548A4D5B
P 1400 10600
F 0 "S75" H 1400 10600 20  0000 C BNN
F 1 "CHMX" H 1400 10650 20  0000 C TNN
F 2 "~" H 1350 10600 60  0000 C CNN
F 3 "~" H 1350 10600 60  0000 C CNN
	1    1400 10600
	1    0    0    -1  
$EndComp
$Comp
L mxblack-rescue:CHMX-mxblacksii-rescue S76
U 1 1 548A4D61
P 1350 10650
F 0 "S76" H 1350 10650 20  0000 C BNN
F 1 "CHMX" H 1350 10700 20  0000 C TNN
F 2 "~" H 1300 10650 60  0000 C CNN
F 3 "~" H 1300 10650 60  0000 C CNN
	1    1350 10650
	1    0    0    -1  
$EndComp
$Comp
L mxblack-rescue:RESIST-mxblacksii-rescue U77
U 1 1 548A4D67
P 1150 11100
F 0 "U77" H 1150 11100 20  0000 C BNN
F 1 "RESIST" H 1150 11150 20  0000 C TNN
F 2 "" H 1150 11100 60  0000 C CNN
F 3 "" H 1150 11100 60  0000 C CNN
	1    1150 11100
	1    0    0    -1  
$EndComp
$Comp
L mxblack-rescue:RESIST-mxblacksii-rescue U78
U 1 1 548A4D6D
P 1150 11150
F 0 "U78" H 1150 11150 20  0000 C BNN
F 1 "RESIST" H 1150 11200 20  0000 C TNN
F 2 "" H 1150 11150 60  0000 C CNN
F 3 "" H 1150 11150 60  0000 C CNN
	1    1150 11150
	1    0    0    -1  
$EndComp
$Comp
L mxblack-rescue:RESIST-mxblacksii-rescue U79
U 1 1 548A4D73
P 1150 11200
F 0 "U79" H 1150 11200 20  0000 C BNN
F 1 "RESIST" H 1150 11250 20  0000 C TNN
F 2 "" H 1150 11200 60  0000 C CNN
F 3 "" H 1150 11200 60  0000 C CNN
	1    1150 11200
	1    0    0    -1  
$EndComp
$Comp
L mxblack-rescue:RESIST-mxblacksii-rescue U80
U 1 1 548A4D79
P 1150 11250
F 0 "U80" H 1150 11250 20  0000 C BNN
F 1 "RESIST" H 1150 11300 20  0000 C TNN
F 2 "" H 1150 11250 60  0000 C CNN
F 3 "" H 1150 11250 60  0000 C CNN
	1    1150 11250
	1    0    0    -1  
$EndComp
$Comp
L mxblack-rescue:SN74HC165-mxblacksii-rescue SR10
U 1 1 548A4D7F
P 1900 11050
F 0 "SR10" H 1900 10800 20  0000 C BNN
F 1 "SN74HC165" H 1900 11250 20  0000 C TNN
F 2 "~" H 1900 11050 60  0000 C CNN
F 3 "~" H 1900 11050 60  0000 C CNN
	1    1900 11050
	1    0    0    -1  
$EndComp
$Comp
L mxblack-rescue:RESIST-mxblacksii-rescue U81
U 1 1 548A4D85
P 1150 11900
F 0 "U81" H 1150 11900 20  0000 C BNN
F 1 "RESIST" H 1150 11950 20  0000 C TNN
F 2 "" H 1150 11900 60  0000 C CNN
F 3 "" H 1150 11900 60  0000 C CNN
	1    1150 11900
	1    0    0    -1  
$EndComp
$Comp
L mxblack-rescue:RESIST-mxblacksii-rescue U82
U 1 1 548A4D8B
P 1150 11950
F 0 "U82" H 1150 11950 20  0000 C BNN
F 1 "RESIST" H 1150 12000 20  0000 C TNN
F 2 "" H 1150 11950 60  0000 C CNN
F 3 "" H 1150 11950 60  0000 C CNN
	1    1150 11950
	1    0    0    -1  
$EndComp
$Comp
L mxblack-rescue:RESIST-mxblacksii-rescue U83
U 1 1 548A4D91
P 1150 12000
F 0 "U83" H 1150 12000 20  0000 C BNN
F 1 "RESIST" H 1150 12050 20  0000 C TNN
F 2 "" H 1150 12000 60  0000 C CNN
F 3 "" H 1150 12000 60  0000 C CNN
	1    1150 12000
	1    0    0    -1  
$EndComp
$Comp
L mxblack-rescue:RESIST-mxblacksii-rescue U84
U 1 1 548A4D97
P 1150 12050
F 0 "U84" H 1150 12050 20  0000 C BNN
F 1 "RESIST" H 1150 12100 20  0000 C TNN
F 2 "" H 1150 12050 60  0000 C CNN
F 3 "" H 1150 12050 60  0000 C CNN
	1    1150 12050
	1    0    0    -1  
$EndComp
$Comp
L mxblack-rescue:CHMX-mxblacksii-rescue S85
U 1 1 548A4D9D
P 1300 11700
F 0 "S85" H 1300 11700 20  0000 C BNN
F 1 "CHMX" H 1300 11750 20  0000 C TNN
F 2 "~" H 1250 11700 60  0000 C CNN
F 3 "~" H 1250 11700 60  0000 C CNN
	1    1300 11700
	1    0    0    -1  
$EndComp
$Comp
L mxblack-rescue:CHMX-mxblacksii-rescue S86
U 1 1 548A4DA3
P 1250 11750
F 0 "S86" H 1250 11750 20  0000 C BNN
F 1 "CHMX" H 1250 11800 20  0000 C TNN
F 2 "~" H 1200 11750 60  0000 C CNN
F 3 "~" H 1200 11750 60  0000 C CNN
	1    1250 11750
	1    0    0    -1  
$EndComp
$Comp
L mxblack-rescue:CHMX-mxblacksii-rescue S87
U 1 1 548A4DA9
P 1200 11800
F 0 "S87" H 1200 11800 20  0000 C BNN
F 1 "CHMX" H 1200 11850 20  0000 C TNN
F 2 "~" H 1150 11800 60  0000 C CNN
F 3 "~" H 1150 11800 60  0000 C CNN
	1    1200 11800
	1    0    0    -1  
$EndComp
$Comp
L mxblack-rescue:CHMX-mxblacksii-rescue S88
U 1 1 548A4DAF
P 1150 11850
F 0 "S88" H 1150 11850 20  0000 C BNN
F 1 "CHMX" H 1150 11900 20  0000 C TNN
F 2 "~" H 1100 11850 60  0000 C CNN
F 3 "~" H 1100 11850 60  0000 C CNN
	1    1150 11850
	1    0    0    -1  
$EndComp
$Comp
L mxblack-rescue:CHMX-mxblacksii-rescue S81
U 1 1 548A4DB5
P 1500 11500
F 0 "S81" H 1500 11500 20  0000 C BNN
F 1 "CHMX" H 1500 11550 20  0000 C TNN
F 2 "~" H 1450 11500 60  0000 C CNN
F 3 "~" H 1450 11500 60  0000 C CNN
	1    1500 11500
	1    0    0    -1  
$EndComp
$Comp
L mxblack-rescue:CHMX-mxblacksii-rescue S82
U 1 1 548A4DBB
P 1450 11550
F 0 "S82" H 1450 11550 20  0000 C BNN
F 1 "CHMX" H 1450 11600 20  0000 C TNN
F 2 "~" H 1400 11550 60  0000 C CNN
F 3 "~" H 1400 11550 60  0000 C CNN
	1    1450 11550
	1    0    0    -1  
$EndComp
$Comp
L mxblack-rescue:CHMX-mxblacksii-rescue S83
U 1 1 548A4DC1
P 1400 11600
F 0 "S83" H 1400 11600 20  0000 C BNN
F 1 "CHMX" H 1400 11650 20  0000 C TNN
F 2 "~" H 1350 11600 60  0000 C CNN
F 3 "~" H 1350 11600 60  0000 C CNN
	1    1400 11600
	1    0    0    -1  
$EndComp
$Comp
L mxblack-rescue:CHMX-mxblacksii-rescue S84
U 1 1 548A4DC7
P 1350 11650
F 0 "S84" H 1350 11650 20  0000 C BNN
F 1 "CHMX" H 1350 11700 20  0000 C TNN
F 2 "~" H 1300 11650 60  0000 C CNN
F 3 "~" H 1300 11650 60  0000 C CNN
	1    1350 11650
	1    0    0    -1  
$EndComp
$Comp
L mxblack-rescue:RESIST-mxblacksii-rescue U85
U 1 1 548A4DCD
P 1150 12100
F 0 "U85" H 1150 12100 20  0000 C BNN
F 1 "RESIST" H 1150 12150 20  0000 C TNN
F 2 "" H 1150 12100 60  0000 C CNN
F 3 "" H 1150 12100 60  0000 C CNN
	1    1150 12100
	1    0    0    -1  
$EndComp
$Comp
L mxblack-rescue:RESIST-mxblacksii-rescue U86
U 1 1 548A4DD3
P 1150 12150
F 0 "U86" H 1150 12150 20  0000 C BNN
F 1 "RESIST" H 1150 12200 20  0000 C TNN
F 2 "" H 1150 12150 60  0000 C CNN
F 3 "" H 1150 12150 60  0000 C CNN
	1    1150 12150
	1    0    0    -1  
$EndComp
$Comp
L mxblack-rescue:RESIST-mxblacksii-rescue U87
U 1 1 548A4DD9
P 1150 12200
F 0 "U87" H 1150 12200 20  0000 C BNN
F 1 "RESIST" H 1150 12250 20  0000 C TNN
F 2 "" H 1150 12200 60  0000 C CNN
F 3 "" H 1150 12200 60  0000 C CNN
	1    1150 12200
	1    0    0    -1  
$EndComp
$Comp
L mxblack-rescue:RESIST-mxblacksii-rescue U88
U 1 1 548A4DDF
P 1150 12250
F 0 "U88" H 1150 12250 20  0000 C BNN
F 1 "RESIST" H 1150 12300 20  0000 C TNN
F 2 "" H 1150 12250 60  0000 C CNN
F 3 "" H 1150 12250 60  0000 C CNN
	1    1150 12250
	1    0    0    -1  
$EndComp
$Comp
L mxblack-rescue:SN74HC165-mxblacksii-rescue SR11
U 1 1 548A4DE5
P 1900 12050
F 0 "SR11" H 1900 11800 20  0000 C BNN
F 1 "SN74HC165" H 1900 12250 20  0000 C TNN
F 2 "~" H 1900 12050 60  0000 C CNN
F 3 "~" H 1900 12050 60  0000 C CNN
	1    1900 12050
	1    0    0    -1  
$EndComp
$Comp
L mxblack-rescue:RESIST-mxblacksii-rescue U89
U 1 1 548A4DEB
P 1150 12900
F 0 "U89" H 1150 12900 20  0000 C BNN
F 1 "RESIST" H 1150 12950 20  0000 C TNN
F 2 "" H 1150 12900 60  0000 C CNN
F 3 "" H 1150 12900 60  0000 C CNN
	1    1150 12900
	1    0    0    -1  
$EndComp
$Comp
L mxblack-rescue:RESIST-mxblacksii-rescue U90
U 1 1 548A4DF1
P 1150 12950
F 0 "U90" H 1150 12950 20  0000 C BNN
F 1 "RESIST" H 1150 13000 20  0000 C TNN
F 2 "" H 1150 12950 60  0000 C CNN
F 3 "" H 1150 12950 60  0000 C CNN
	1    1150 12950
	1    0    0    -1  
$EndComp
$Comp
L mxblack-rescue:RESIST-mxblacksii-rescue U91
U 1 1 548A4DF7
P 1150 13000
F 0 "U91" H 1150 13000 20  0000 C BNN
F 1 "RESIST" H 1150 13050 20  0000 C TNN
F 2 "" H 1150 13000 60  0000 C CNN
F 3 "" H 1150 13000 60  0000 C CNN
	1    1150 13000
	1    0    0    -1  
$EndComp
$Comp
L mxblack-rescue:CHMX-mxblacksii-rescue S89
U 1 1 548A4E1B
P 1500 12500
F 0 "S89" H 1500 12500 20  0000 C BNN
F 1 "CHMX" H 1500 12550 20  0000 C TNN
F 2 "~" H 1450 12500 60  0000 C CNN
F 3 "~" H 1450 12500 60  0000 C CNN
	1    1500 12500
	1    0    0    -1  
$EndComp
$Comp
L mxblack-rescue:CHMX-mxblacksii-rescue S90
U 1 1 548A4E21
P 1450 12550
F 0 "S90" H 1450 12550 20  0000 C BNN
F 1 "CHMX" H 1450 12600 20  0000 C TNN
F 2 "~" H 1400 12550 60  0000 C CNN
F 3 "~" H 1400 12550 60  0000 C CNN
	1    1450 12550
	1    0    0    -1  
$EndComp
$Comp
L mxblack-rescue:CHMX-mxblacksii-rescue S91
U 1 1 548A4E27
P 1400 12600
F 0 "S91" H 1400 12600 20  0000 C BNN
F 1 "CHMX" H 1400 12650 20  0000 C TNN
F 2 "~" H 1350 12600 60  0000 C CNN
F 3 "~" H 1350 12600 60  0000 C CNN
	1    1400 12600
	1    0    0    -1  
$EndComp
$Comp
L mxblack-rescue:SN74HC165-mxblacksii-rescue SR12
U 1 1 548A4E4B
P 1900 13050
F 0 "SR12" H 1900 12800 20  0000 C BNN
F 1 "SN74HC165" H 1900 13250 20  0000 C TNN
F 2 "~" H 1900 13050 60  0000 C CNN
F 3 "~" H 1900 13050 60  0000 C CNN
	1    1900 13050
	1    0    0    -1  
$EndComp
$Comp
L mxblack-rescue:RESIST-mxblacksii-rescue U17
U 1 1 548A3C4D
P 1150 3900
F 0 "U17" H 1150 3900 20  0000 C BNN
F 1 "RESIST" H 1150 3950 20  0000 C TNN
F 2 "" H 1150 3900 60  0000 C CNN
F 3 "" H 1150 3900 60  0000 C CNN
	1    1150 3900
	1    0    0    -1  
$EndComp
$Comp
L mxblack-rescue:RESIST-mxblacksii-rescue U18
U 1 1 548A3C53
P 1150 3950
F 0 "U18" H 1150 3950 20  0000 C BNN
F 1 "RESIST" H 1150 4000 20  0000 C TNN
F 2 "" H 1150 3950 60  0000 C CNN
F 3 "" H 1150 3950 60  0000 C CNN
	1    1150 3950
	1    0    0    -1  
$EndComp
$Comp
L mxblack-rescue:RESIST-mxblacksii-rescue U19
U 1 1 548A3C59
P 1150 4000
F 0 "U19" H 1150 4000 20  0000 C BNN
F 1 "RESIST" H 1150 4050 20  0000 C TNN
F 2 "" H 1150 4000 60  0000 C CNN
F 3 "" H 1150 4000 60  0000 C CNN
	1    1150 4000
	1    0    0    -1  
$EndComp
$Comp
L mxblack-rescue:RESIST-mxblacksii-rescue U20
U 1 1 548A3C5F
P 1150 4050
F 0 "U20" H 1150 4050 20  0000 C BNN
F 1 "RESIST" H 1150 4100 20  0000 C TNN
F 2 "" H 1150 4050 60  0000 C CNN
F 3 "" H 1150 4050 60  0000 C CNN
	1    1150 4050
	1    0    0    -1  
$EndComp
$Comp
L mxblack-rescue:RESIST-mxblacksii-rescue U21
U 1 1 548A3C65
P 1150 4100
F 0 "U21" H 1150 4100 20  0000 C BNN
F 1 "RESIST" H 1150 4150 20  0000 C TNN
F 2 "" H 1150 4100 60  0000 C CNN
F 3 "" H 1150 4100 60  0000 C CNN
	1    1150 4100
	1    0    0    -1  
$EndComp
$Comp
L mxblack-rescue:RESIST-mxblacksii-rescue U22
U 1 1 548A3C6B
P 1150 4150
F 0 "U22" H 1150 4150 20  0000 C BNN
F 1 "RESIST" H 1150 4200 20  0000 C TNN
F 2 "" H 1150 4150 60  0000 C CNN
F 3 "" H 1150 4150 60  0000 C CNN
	1    1150 4150
	1    0    0    -1  
$EndComp
$Comp
L mxblack-rescue:RESIST-mxblacksii-rescue U23
U 1 1 548A3C71
P 1150 4200
F 0 "U23" H 1150 4200 20  0000 C BNN
F 1 "RESIST" H 1150 4250 20  0000 C TNN
F 2 "" H 1150 4200 60  0000 C CNN
F 3 "" H 1150 4200 60  0000 C CNN
	1    1150 4200
	1    0    0    -1  
$EndComp
$Comp
L mxblack-rescue:RESIST-mxblacksii-rescue U24
U 1 1 548A3C77
P 1150 4250
F 0 "U24" H 1150 4250 20  0000 C BNN
F 1 "RESIST" H 1150 4300 20  0000 C TNN
F 2 "" H 1150 4250 60  0000 C CNN
F 3 "" H 1150 4250 60  0000 C CNN
	1    1150 4250
	1    0    0    -1  
$EndComp
$Comp
L mxblack-rescue:RESIST-mxblacksii-rescue U9
U 1 1 548A3C7D
P 1150 2900
F 0 "U9" H 1150 2900 20  0000 C BNN
F 1 "RESIST" H 1150 2950 20  0000 C TNN
F 2 "" H 1150 2900 60  0000 C CNN
F 3 "" H 1150 2900 60  0000 C CNN
	1    1150 2900
	1    0    0    -1  
$EndComp
$Comp
L mxblack-rescue:RESIST-mxblacksii-rescue U10
U 1 1 548A3C83
P 1150 2950
F 0 "U10" H 1150 2950 20  0000 C BNN
F 1 "RESIST" H 1150 3000 20  0000 C TNN
F 2 "" H 1150 2950 60  0000 C CNN
F 3 "" H 1150 2950 60  0000 C CNN
	1    1150 2950
	1    0    0    -1  
$EndComp
$Comp
L mxblack-rescue:RESIST-mxblacksii-rescue U11
U 1 1 548A3C89
P 1150 3000
F 0 "U11" H 1150 3000 20  0000 C BNN
F 1 "RESIST" H 1150 3050 20  0000 C TNN
F 2 "" H 1150 3000 60  0000 C CNN
F 3 "" H 1150 3000 60  0000 C CNN
	1    1150 3000
	1    0    0    -1  
$EndComp
$Comp
L mxblack-rescue:RESIST-mxblacksii-rescue U12
U 1 1 548A3C8F
P 1150 3050
F 0 "U12" H 1150 3050 20  0000 C BNN
F 1 "RESIST" H 1150 3100 20  0000 C TNN
F 2 "" H 1150 3050 60  0000 C CNN
F 3 "" H 1150 3050 60  0000 C CNN
	1    1150 3050
	1    0    0    -1  
$EndComp
$Comp
L mxblack-rescue:RESIST-mxblacksii-rescue U13
U 1 1 548A3C95
P 1150 3100
F 0 "U13" H 1150 3100 20  0000 C BNN
F 1 "RESIST" H 1150 3150 20  0000 C TNN
F 2 "" H 1150 3100 60  0000 C CNN
F 3 "" H 1150 3100 60  0000 C CNN
	1    1150 3100
	1    0    0    -1  
$EndComp
$Comp
L mxblack-rescue:RESIST-mxblacksii-rescue U14
U 1 1 548A3C9B
P 1150 3150
F 0 "U14" H 1150 3150 20  0000 C BNN
F 1 "RESIST" H 1150 3200 20  0000 C TNN
F 2 "" H 1150 3150 60  0000 C CNN
F 3 "" H 1150 3150 60  0000 C CNN
	1    1150 3150
	1    0    0    -1  
$EndComp
$Comp
L mxblack-rescue:RESIST-mxblacksii-rescue U15
U 1 1 548A3CA1
P 1150 3200
F 0 "U15" H 1150 3200 20  0000 C BNN
F 1 "RESIST" H 1150 3250 20  0000 C TNN
F 2 "" H 1150 3200 60  0000 C CNN
F 3 "" H 1150 3200 60  0000 C CNN
	1    1150 3200
	1    0    0    -1  
$EndComp
$Comp
L mxblack-rescue:RESIST-mxblacksii-rescue U16
U 1 1 548A3CA7
P 1150 3250
F 0 "U16" H 1150 3250 20  0000 C BNN
F 1 "RESIST" H 1150 3300 20  0000 C TNN
F 2 "" H 1150 3250 60  0000 C CNN
F 3 "" H 1150 3250 60  0000 C CNN
	1    1150 3250
	1    0    0    -1  
$EndComp
$Comp
L mxblack-rescue:RESIST-mxblacksii-rescue U1
U 1 1 548A3CAD
P 1150 1900
F 0 "U1" H 1150 1900 20  0000 C BNN
F 1 "RESIST" H 1150 1950 20  0000 C TNN
F 2 "" H 1150 1900 60  0000 C CNN
F 3 "" H 1150 1900 60  0000 C CNN
	1    1150 1900
	1    0    0    -1  
$EndComp
$Comp
L mxblack-rescue:RESIST-mxblacksii-rescue U2
U 1 1 548A3CB3
P 1150 1950
F 0 "U2" H 1150 1950 20  0000 C BNN
F 1 "RESIST" H 1150 2000 20  0000 C TNN
F 2 "" H 1150 1950 60  0000 C CNN
F 3 "" H 1150 1950 60  0000 C CNN
	1    1150 1950
	1    0    0    -1  
$EndComp
$Comp
L mxblack-rescue:RESIST-mxblacksii-rescue U3
U 1 1 548A3CB9
P 1150 2000
F 0 "U3" H 1150 2000 20  0000 C BNN
F 1 "RESIST" H 1150 2050 20  0000 C TNN
F 2 "" H 1150 2000 60  0000 C CNN
F 3 "" H 1150 2000 60  0000 C CNN
	1    1150 2000
	1    0    0    -1  
$EndComp
$Comp
L mxblack-rescue:RESIST-mxblacksii-rescue U4
U 1 1 548A3CBF
P 1150 2050
F 0 "U4" H 1150 2050 20  0000 C BNN
F 1 "RESIST" H 1150 2100 20  0000 C TNN
F 2 "" H 1150 2050 60  0000 C CNN
F 3 "" H 1150 2050 60  0000 C CNN
	1    1150 2050
	1    0    0    -1  
$EndComp
$Comp
L mxblack-rescue:RESIST-mxblacksii-rescue U5
U 1 1 548A3CC5
P 1150 2100
F 0 "U5" H 1150 2100 20  0000 C BNN
F 1 "RESIST" H 1150 2150 20  0000 C TNN
F 2 "" H 1150 2100 60  0000 C CNN
F 3 "" H 1150 2100 60  0000 C CNN
	1    1150 2100
	1    0    0    -1  
$EndComp
$Comp
L mxblack-rescue:RESIST-mxblacksii-rescue U6
U 1 1 548A3CCB
P 1150 2150
F 0 "U6" H 1150 2150 20  0000 C BNN
F 1 "RESIST" H 1150 2200 20  0000 C TNN
F 2 "" H 1150 2150 60  0000 C CNN
F 3 "" H 1150 2150 60  0000 C CNN
	1    1150 2150
	1    0    0    -1  
$EndComp
$Comp
L mxblack-rescue:RESIST-mxblacksii-rescue U7
U 1 1 548A3CD1
P 1150 2200
F 0 "U7" H 1150 2200 20  0000 C BNN
F 1 "RESIST" H 1150 2250 20  0000 C TNN
F 2 "" H 1150 2200 60  0000 C CNN
F 3 "" H 1150 2200 60  0000 C CNN
	1    1150 2200
	1    0    0    -1  
$EndComp
$Comp
L mxblack-rescue:RESIST-mxblacksii-rescue U8
U 1 1 548A3CD7
P 1150 2250
F 0 "U8" H 1150 2250 20  0000 C BNN
F 1 "RESIST" H 1150 2300 20  0000 C TNN
F 2 "" H 1150 2250 60  0000 C CNN
F 3 "" H 1150 2250 60  0000 C CNN
	1    1150 2250
	1    0    0    -1  
$EndComp
$Comp
L mxblack-rescue:TEENSY3.1-mxblacksii-rescue MODULE1
U 1 1 54F79A8A
P 2750 1200
F 0 "MODULE1" H 2900 450 60  0000 C CNN
F 1 "TEENSY3.1" H 2900 1300 60  0000 C CNN
F 2 "" H 2750 1200 60  0000 C CNN
F 3 "" H 2750 1200 60  0000 C CNN
	1    2750 1200
	1    0    0    -1  
$EndComp
$Comp
L mxblack-rescue:PIN-mxblacksii-rescue P10
U 1 1 54F7B076
P 3000 2200
F 0 "P10" H 3050 2200 20  0000 C TNN
F 1 "PIN" H 3050 2200 20  0000 C BNN
F 2 "~" H 3000 2200 60  0000 C CNN
F 3 "~" H 3000 2200 60  0000 C CNN
	1    3000 2200
	1    0    0    -1  
$EndComp
$Comp
L mxblack-rescue:BUSB-mxblacksii-rescue PORT1
U 1 1 54F7DC75
P 2950 700
F 0 "PORT1" H 2950 600 60  0000 C CNN
F 1 "BUSB" H 2950 900 60  0000 C CNN
F 2 "" H 3000 700 60  0000 C CNN
F 3 "" H 3000 700 60  0000 C CNN
	1    2950 700 
	-1   0    0    1   
$EndComp
$Comp
L mxblack-rescue:SN74HCT245-mxblacksii-rescue SN1
U 1 1 54F80E6E
P 2650 2250
F 0 "SN1" H 2650 2050 60  0000 C CNN
F 1 "SN74HCT245" H 2650 2400 60  0000 C CNN
F 2 "" H 2650 2250 60  0000 C CNN
F 3 "" H 2650 2250 60  0000 C CNN
	1    2650 2250
	1    0    0    -1  
$EndComp
$Comp
L mxblack-rescue:PIN-mxblacksii-rescue P1
U 1 1 54F80F8B
P 2350 13050
F 0 "P1" H 2400 13050 20  0000 C TNN
F 1 "PIN" H 2400 13050 20  0000 C BNN
F 2 "~" H 2350 13050 60  0000 C CNN
F 3 "~" H 2350 13050 60  0000 C CNN
	1    2350 13050
	1    0    0    -1  
$EndComp
Wire Wire Line
	1700 1900 1650 1900
Wire Wire Line
	1050 2350 1050 2250
Connection ~ 1050 2250
Connection ~ 1050 2200
Connection ~ 1050 2150
Connection ~ 1050 2100
Connection ~ 1050 2050
Connection ~ 1050 2000
Connection ~ 1050 1950
Wire Wire Line
	1250 1950 1600 1950
Wire Wire Line
	1700 2000 1550 2000
Wire Wire Line
	1250 2050 1500 2050
Wire Wire Line
	1700 2100 1450 2100
Wire Wire Line
	1250 2150 1400 2150
Wire Wire Line
	1700 2200 1350 2200
Wire Wire Line
	1250 2250 1300 2250
Wire Wire Line
	1650 1500 1650 1900
Connection ~ 1650 1900
Wire Wire Line
	1600 1550 1600 1950
Connection ~ 1600 1950
Wire Wire Line
	1550 1600 1550 2000
Connection ~ 1550 2000
Wire Wire Line
	1500 1650 1500 2050
Connection ~ 1500 2050
Wire Wire Line
	1450 1700 1450 2100
Connection ~ 1450 2100
Wire Wire Line
	1400 2150 1400 1750
Connection ~ 1400 2150
Wire Wire Line
	1350 1800 1350 2200
Connection ~ 1350 2200
Wire Wire Line
	1300 2250 1300 1850
Connection ~ 1300 2250
Wire Wire Line
	1000 1800 1050 1800
Wire Wire Line
	1100 1750 1050 1750
Wire Wire Line
	1050 1750 1050 1800
Wire Wire Line
	1100 1750 1100 1700
Wire Wire Line
	1100 1700 1150 1700
Wire Wire Line
	1150 1700 1150 1650
Wire Wire Line
	1150 1650 1200 1650
Wire Wire Line
	1200 1650 1200 1600
Wire Wire Line
	1200 1600 1250 1600
Wire Wire Line
	1250 1600 1250 1550
Wire Wire Line
	1250 1550 1300 1550
Wire Wire Line
	1300 1550 1300 1500
Wire Wire Line
	1300 1500 1350 1500
Wire Wire Line
	1350 1500 1350 1400
Wire Wire Line
	2100 2250 2100 2350
Connection ~ 2100 2350
Wire Wire Line
	1700 2900 1650 2900
Wire Wire Line
	1050 3350 1050 3250
Connection ~ 1050 3250
Connection ~ 1050 3200
Connection ~ 1050 3150
Connection ~ 1050 3100
Connection ~ 1050 3050
Connection ~ 1050 3000
Connection ~ 1050 2950
Wire Wire Line
	1250 2950 1600 2950
Wire Wire Line
	1700 3000 1550 3000
Wire Wire Line
	1250 3050 1500 3050
Wire Wire Line
	1700 3100 1450 3100
Wire Wire Line
	1250 3150 1400 3150
Wire Wire Line
	1700 3200 1350 3200
Wire Wire Line
	1250 3250 1300 3250
Wire Wire Line
	1650 2500 1650 2900
Connection ~ 1650 2900
Wire Wire Line
	1600 2550 1600 2950
Connection ~ 1600 2950
Wire Wire Line
	1550 2600 1550 3000
Connection ~ 1550 3000
Wire Wire Line
	1500 2650 1500 3050
Connection ~ 1500 3050
Wire Wire Line
	1450 2700 1450 3100
Connection ~ 1450 3100
Wire Wire Line
	1400 3150 1400 2750
Connection ~ 1400 3150
Wire Wire Line
	1350 2800 1350 3200
Connection ~ 1350 3200
Wire Wire Line
	1300 3250 1300 2850
Connection ~ 1300 3250
Wire Wire Line
	1000 2800 1050 2800
Wire Wire Line
	1100 2750 1050 2750
Wire Wire Line
	1050 2750 1050 2800
Wire Wire Line
	1100 2750 1100 2700
Wire Wire Line
	1100 2700 1150 2700
Wire Wire Line
	1150 2700 1150 2650
Wire Wire Line
	1150 2650 1200 2650
Wire Wire Line
	1200 2650 1200 2600
Wire Wire Line
	1200 2600 1250 2600
Wire Wire Line
	1250 2600 1250 2550
Wire Wire Line
	1250 2550 1300 2550
Wire Wire Line
	1300 2550 1300 2500
Wire Wire Line
	1300 2500 1350 2500
Wire Wire Line
	1350 2500 1350 2400
Wire Wire Line
	2100 3250 2100 3350
Connection ~ 2100 3350
Connection ~ 1000 1850
Wire Wire Line
	2100 2050 2150 2050
Wire Wire Line
	2150 2050 2150 3000
Wire Wire Line
	2150 3000 2100 3000
Wire Wire Line
	2200 3200 2100 3200
Connection ~ 2200 2200
Wire Wire Line
	2100 2200 2200 2200
Wire Wire Line
	2250 3150 2100 3150
Wire Wire Line
	2100 2150 2250 2150
Connection ~ 2250 2150
Wire Wire Line
	2150 1500 2150 2000
Wire Wire Line
	2150 2000 2100 2000
Connection ~ 2300 1950
Connection ~ 2300 3350
Wire Wire Line
	2300 2950 2100 2950
Wire Wire Line
	2300 3350 2100 3350
Connection ~ 2300 2950
Connection ~ 2300 2350
Wire Wire Line
	2400 2350 2300 2350
Wire Wire Line
	2300 1950 2100 1950
Wire Wire Line
	2100 1900 2100 1800
Wire Wire Line
	2100 1700 2050 1700
Wire Wire Line
	1700 1700 1700 1400
Wire Wire Line
	1700 1400 1350 1400
Wire Wire Line
	1350 2400 1700 2400
Wire Wire Line
	1700 2400 1700 2800
Wire Wire Line
	1700 2800 2100 2800
Wire Wire Line
	2100 2800 2100 2900
Wire Wire Line
	1700 3900 1650 3900
Wire Wire Line
	1050 4350 1050 4250
Connection ~ 1050 4250
Connection ~ 1050 4200
Connection ~ 1050 4150
Connection ~ 1050 4100
Connection ~ 1050 4050
Connection ~ 1050 4000
Connection ~ 1050 3950
Wire Wire Line
	1250 3950 1600 3950
Wire Wire Line
	1700 4000 1550 4000
Wire Wire Line
	1250 4050 1500 4050
Wire Wire Line
	1700 4100 1450 4100
Wire Wire Line
	1250 4150 1400 4150
Wire Wire Line
	1700 4200 1350 4200
Wire Wire Line
	1250 4250 1300 4250
Wire Wire Line
	1650 3500 1650 3900
Connection ~ 1650 3900
Wire Wire Line
	1600 3550 1600 3950
Connection ~ 1600 3950
Wire Wire Line
	1550 3600 1550 4000
Connection ~ 1550 4000
Wire Wire Line
	1500 3650 1500 4050
Connection ~ 1500 4050
Wire Wire Line
	1450 3700 1450 4100
Connection ~ 1450 4100
Wire Wire Line
	1400 4150 1400 3750
Connection ~ 1400 4150
Wire Wire Line
	1350 3800 1350 4200
Connection ~ 1350 4200
Wire Wire Line
	1300 4250 1300 3850
Connection ~ 1300 4250
Wire Wire Line
	1000 3800 1050 3800
Wire Wire Line
	1100 3750 1050 3750
Wire Wire Line
	1050 3750 1050 3800
Wire Wire Line
	1100 3750 1100 3700
Wire Wire Line
	1100 3700 1150 3700
Wire Wire Line
	1150 3700 1150 3650
Wire Wire Line
	1150 3650 1200 3650
Wire Wire Line
	1200 3650 1200 3600
Wire Wire Line
	1200 3600 1250 3600
Wire Wire Line
	1250 3600 1250 3550
Wire Wire Line
	1250 3550 1300 3550
Wire Wire Line
	1300 3550 1300 3500
Wire Wire Line
	1300 3500 1350 3500
Wire Wire Line
	1350 3500 1350 3400
Wire Wire Line
	2100 4250 2100 4350
Connection ~ 2100 4350
Connection ~ 1000 3800
Wire Wire Line
	2150 3050 2150 4000
Wire Wire Line
	2150 4000 2100 4000
Wire Wire Line
	2200 4200 2100 4200
Wire Wire Line
	2250 4150 2100 4150
Connection ~ 2300 4350
Wire Wire Line
	2300 3950 2100 3950
Wire Wire Line
	2300 4350 2100 4350
Connection ~ 2300 3950
Wire Wire Line
	1350 3400 1700 3400
Wire Wire Line
	1700 3400 1700 3800
Wire Wire Line
	1700 3800 2100 3800
Wire Wire Line
	2100 3800 2100 3900
Connection ~ 2200 3200
Connection ~ 2250 3150
Wire Wire Line
	2150 3050 2100 3050
Wire Wire Line
	1000 1800 1000 1850
Connection ~ 1000 2800
Connection ~ 1000 2850
Wire Wire Line
	1700 4900 1650 4900
Wire Wire Line
	1050 5350 1050 5250
Connection ~ 1050 5250
Connection ~ 1050 5200
Connection ~ 1050 5150
Connection ~ 1050 5100
Connection ~ 1050 5050
Connection ~ 1050 5000
Connection ~ 1050 4950
Wire Wire Line
	1250 4950 1600 4950
Wire Wire Line
	1700 5000 1550 5000
Wire Wire Line
	1250 5050 1500 5050
Wire Wire Line
	1700 5100 1450 5100
Wire Wire Line
	1250 5150 1400 5150
Wire Wire Line
	1700 5200 1350 5200
Wire Wire Line
	1250 5250 1300 5250
Wire Wire Line
	1650 4500 1650 4900
Connection ~ 1650 4900
Wire Wire Line
	1600 4550 1600 4950
Connection ~ 1600 4950
Wire Wire Line
	1550 4600 1550 5000
Connection ~ 1550 5000
Wire Wire Line
	1500 4650 1500 5050
Connection ~ 1500 5050
Wire Wire Line
	1450 4700 1450 5100
Connection ~ 1450 5100
Wire Wire Line
	1400 5150 1400 4750
Connection ~ 1400 5150
Wire Wire Line
	1350 4800 1350 5200
Connection ~ 1350 5200
Wire Wire Line
	1300 5250 1300 4850
Connection ~ 1300 5250
Wire Wire Line
	1000 4800 1050 4800
Wire Wire Line
	1100 4750 1050 4750
Wire Wire Line
	1050 4750 1050 4800
Wire Wire Line
	1100 4750 1100 4700
Wire Wire Line
	1100 4700 1150 4700
Wire Wire Line
	1150 4700 1150 4650
Wire Wire Line
	1150 4650 1200 4650
Wire Wire Line
	1200 4650 1200 4600
Wire Wire Line
	1200 4600 1250 4600
Wire Wire Line
	1250 4600 1250 4550
Wire Wire Line
	1250 4550 1300 4550
Wire Wire Line
	1300 4550 1300 4500
Wire Wire Line
	1300 4500 1350 4500
Wire Wire Line
	1350 4500 1350 4400
Wire Wire Line
	2100 5250 2100 5350
Connection ~ 2100 5350
Connection ~ 1000 4800
Wire Wire Line
	2150 5000 2100 5000
Wire Wire Line
	2200 5200 2100 5200
Wire Wire Line
	2250 5150 2100 5150
Connection ~ 2300 5350
Wire Wire Line
	2300 4950 2100 4950
Wire Wire Line
	2300 5350 2100 5350
Connection ~ 2300 4950
Wire Wire Line
	1350 4400 1700 4400
Wire Wire Line
	1700 4400 1700 4800
Wire Wire Line
	1700 4800 2100 4800
Wire Wire Line
	2100 4800 2100 4900
Wire Wire Line
	1000 2800 1000 2850
Connection ~ 1000 3850
Wire Wire Line
	2150 4050 2150 5000
Connection ~ 2200 4200
Connection ~ 2250 4150
Wire Wire Line
	2100 4050 2150 4050
Wire Wire Line
	1700 5900 1650 5900
Wire Wire Line
	1050 6350 1050 6250
Connection ~ 1050 6250
Connection ~ 1050 6200
Connection ~ 1050 6150
Connection ~ 1050 6100
Connection ~ 1050 6050
Connection ~ 1050 6000
Connection ~ 1050 5950
Wire Wire Line
	1250 5950 1600 5950
Wire Wire Line
	1700 6000 1550 6000
Wire Wire Line
	1250 6050 1500 6050
Wire Wire Line
	1700 6100 1450 6100
Wire Wire Line
	1250 6150 1400 6150
Wire Wire Line
	1700 6200 1350 6200
Wire Wire Line
	1250 6250 1300 6250
Wire Wire Line
	1650 5500 1650 5900
Connection ~ 1650 5900
Wire Wire Line
	1600 5550 1600 5950
Connection ~ 1600 5950
Wire Wire Line
	1550 5600 1550 6000
Connection ~ 1550 6000
Wire Wire Line
	1500 5650 1500 6050
Connection ~ 1500 6050
Wire Wire Line
	1450 5700 1450 6100
Connection ~ 1450 6100
Wire Wire Line
	1400 6150 1400 5750
Connection ~ 1400 6150
Wire Wire Line
	1350 5800 1350 6200
Connection ~ 1350 6200
Wire Wire Line
	1300 6250 1300 5850
Connection ~ 1300 6250
Wire Wire Line
	1000 5800 1050 5800
Wire Wire Line
	1100 5750 1050 5750
Wire Wire Line
	1050 5750 1050 5800
Wire Wire Line
	1100 5750 1100 5700
Wire Wire Line
	1100 5700 1150 5700
Wire Wire Line
	1150 5700 1150 5650
Wire Wire Line
	1150 5650 1200 5650
Wire Wire Line
	1200 5650 1200 5600
Wire Wire Line
	1200 5600 1250 5600
Wire Wire Line
	1250 5600 1250 5550
Wire Wire Line
	1250 5550 1300 5550
Wire Wire Line
	1300 5550 1300 5500
Wire Wire Line
	1300 5500 1350 5500
Wire Wire Line
	1350 5500 1350 5400
Wire Wire Line
	2100 6250 2100 6350
Connection ~ 2100 6350
Wire Wire Line
	1700 6900 1650 6900
Wire Wire Line
	1050 7350 1050 7250
Connection ~ 1050 7250
Connection ~ 1050 7200
Connection ~ 1050 7150
Connection ~ 1050 7100
Connection ~ 1050 7050
Connection ~ 1050 7000
Connection ~ 1050 6950
Wire Wire Line
	1250 6950 1600 6950
Wire Wire Line
	1700 7000 1550 7000
Wire Wire Line
	1250 7050 1500 7050
Wire Wire Line
	1700 7100 1450 7100
Wire Wire Line
	1250 7150 1400 7150
Wire Wire Line
	1700 7200 1350 7200
Wire Wire Line
	1250 7250 1300 7250
Wire Wire Line
	1650 6500 1650 6900
Connection ~ 1650 6900
Wire Wire Line
	1600 6550 1600 6950
Connection ~ 1600 6950
Wire Wire Line
	1550 6600 1550 7000
Connection ~ 1550 7000
Wire Wire Line
	1500 6650 1500 7050
Connection ~ 1500 7050
Wire Wire Line
	1450 6700 1450 7100
Connection ~ 1450 7100
Wire Wire Line
	1400 7150 1400 6750
Connection ~ 1400 7150
Wire Wire Line
	1350 6800 1350 7200
Connection ~ 1350 7200
Wire Wire Line
	1300 7250 1300 6850
Connection ~ 1300 7250
Wire Wire Line
	1000 6800 1050 6800
Wire Wire Line
	1100 6750 1050 6750
Wire Wire Line
	1050 6750 1050 6800
Wire Wire Line
	1100 6750 1100 6700
Wire Wire Line
	1100 6700 1150 6700
Wire Wire Line
	1150 6700 1150 6650
Wire Wire Line
	1150 6650 1200 6650
Wire Wire Line
	1200 6650 1200 6600
Wire Wire Line
	1200 6600 1250 6600
Wire Wire Line
	1250 6600 1250 6550
Wire Wire Line
	1250 6550 1300 6550
Wire Wire Line
	1300 6550 1300 6500
Wire Wire Line
	1300 6500 1350 6500
Wire Wire Line
	1350 6500 1350 6400
Wire Wire Line
	2100 7250 2100 7350
Connection ~ 2100 7350
Connection ~ 1000 5850
Wire Wire Line
	2100 6050 2150 6050
Wire Wire Line
	2150 7000 2100 7000
Wire Wire Line
	2200 7200 2100 7200
Connection ~ 2200 6200
Wire Wire Line
	2100 6200 2200 6200
Wire Wire Line
	2250 7150 2100 7150
Wire Wire Line
	2100 6150 2250 6150
Connection ~ 2250 6150
Wire Wire Line
	2150 6000 2100 6000
Connection ~ 2300 5950
Connection ~ 2300 7350
Wire Wire Line
	2300 6950 2100 6950
Wire Wire Line
	2300 7350 2100 7350
Connection ~ 2300 6950
Connection ~ 2300 6350
Wire Wire Line
	1050 6350 2100 6350
Wire Wire Line
	2300 5950 2100 5950
Wire Wire Line
	2100 5900 2100 5700
Wire Wire Line
	2100 5700 1700 5700
Wire Wire Line
	1700 5700 1700 5400
Wire Wire Line
	1700 5400 1350 5400
Wire Wire Line
	1350 6400 1700 6400
Wire Wire Line
	1700 6400 1700 6800
Wire Wire Line
	1700 6800 2100 6800
Wire Wire Line
	2100 6800 2100 6900
Wire Wire Line
	1700 7900 1650 7900
Wire Wire Line
	1050 8350 1050 8250
Connection ~ 1050 8250
Connection ~ 1050 8200
Connection ~ 1050 8150
Connection ~ 1050 8100
Connection ~ 1050 8050
Connection ~ 1050 8000
Connection ~ 1050 7950
Wire Wire Line
	1250 7950 1600 7950
Wire Wire Line
	1700 8000 1550 8000
Wire Wire Line
	1250 8050 1500 8050
Wire Wire Line
	1700 8100 1450 8100
Wire Wire Line
	1250 8150 1400 8150
Wire Wire Line
	1700 8200 1350 8200
Wire Wire Line
	1250 8250 1300 8250
Wire Wire Line
	1650 7500 1650 7900
Connection ~ 1650 7900
Wire Wire Line
	1600 7550 1600 7950
Connection ~ 1600 7950
Wire Wire Line
	1550 7600 1550 8000
Connection ~ 1550 8000
Wire Wire Line
	1500 7650 1500 8050
Connection ~ 1500 8050
Wire Wire Line
	1450 7700 1450 8100
Connection ~ 1450 8100
Wire Wire Line
	1400 8150 1400 7750
Connection ~ 1400 8150
Wire Wire Line
	1350 7800 1350 8200
Connection ~ 1350 8200
Wire Wire Line
	1300 8250 1300 7850
Connection ~ 1300 8250
Wire Wire Line
	1000 7800 1050 7800
Wire Wire Line
	1100 7750 1050 7750
Wire Wire Line
	1050 7750 1050 7800
Wire Wire Line
	1100 7750 1100 7700
Wire Wire Line
	1100 7700 1150 7700
Wire Wire Line
	1150 7700 1150 7650
Wire Wire Line
	1150 7650 1200 7650
Wire Wire Line
	1200 7650 1200 7600
Wire Wire Line
	1200 7600 1250 7600
Wire Wire Line
	1250 7600 1250 7550
Wire Wire Line
	1250 7550 1300 7550
Wire Wire Line
	1300 7550 1300 7500
Wire Wire Line
	1300 7500 1350 7500
Wire Wire Line
	1350 7500 1350 7400
Wire Wire Line
	2100 8250 2100 8350
Connection ~ 2100 8350
Connection ~ 1000 7800
Wire Wire Line
	2150 7050 2150 8000
Wire Wire Line
	2150 8000 2100 8000
Wire Wire Line
	2200 8200 2100 8200
Wire Wire Line
	2250 8150 2100 8150
Connection ~ 2300 8350
Wire Wire Line
	2300 7950 2100 7950
Wire Wire Line
	2300 8350 2100 8350
Connection ~ 2300 7950
Wire Wire Line
	1350 7400 1700 7400
Wire Wire Line
	1700 7400 1700 7800
Wire Wire Line
	1700 7800 2100 7800
Wire Wire Line
	2100 7800 2100 7900
Connection ~ 2200 7200
Connection ~ 2250 7150
Wire Wire Line
	2150 7050 2100 7050
Connection ~ 1000 6800
Connection ~ 1000 6850
Wire Wire Line
	1700 8900 1650 8900
Wire Wire Line
	1050 9350 1050 9250
Connection ~ 1050 9250
Connection ~ 1050 9200
Connection ~ 1050 9150
Connection ~ 1050 9100
Connection ~ 1050 9050
Connection ~ 1050 9000
Connection ~ 1050 8950
Wire Wire Line
	1250 8950 1600 8950
Wire Wire Line
	1700 9000 1550 9000
Wire Wire Line
	1250 9050 1500 9050
Wire Wire Line
	1700 9100 1450 9100
Wire Wire Line
	1250 9150 1400 9150
Wire Wire Line
	1700 9200 1350 9200
Wire Wire Line
	1250 9250 1300 9250
Wire Wire Line
	1650 8500 1650 8900
Connection ~ 1650 8900
Wire Wire Line
	1600 8550 1600 8950
Connection ~ 1600 8950
Wire Wire Line
	1550 8600 1550 9000
Connection ~ 1550 9000
Wire Wire Line
	1500 8650 1500 9050
Connection ~ 1500 9050
Wire Wire Line
	1450 8700 1450 9100
Connection ~ 1450 9100
Wire Wire Line
	1400 9150 1400 8750
Connection ~ 1400 9150
Wire Wire Line
	1350 8800 1350 9200
Connection ~ 1350 9200
Wire Wire Line
	1300 9250 1300 8850
Connection ~ 1300 9250
Wire Wire Line
	1000 8800 1050 8800
Wire Wire Line
	1100 8750 1050 8750
Wire Wire Line
	1050 8750 1050 8800
Wire Wire Line
	1100 8750 1100 8700
Wire Wire Line
	1100 8700 1150 8700
Wire Wire Line
	1150 8700 1150 8650
Wire Wire Line
	1150 8650 1200 8650
Wire Wire Line
	1200 8650 1200 8600
Wire Wire Line
	1200 8600 1250 8600
Wire Wire Line
	1250 8600 1250 8550
Wire Wire Line
	1250 8550 1300 8550
Wire Wire Line
	1300 8550 1300 8500
Wire Wire Line
	1300 8500 1350 8500
Wire Wire Line
	1350 8500 1350 8400
Wire Wire Line
	2100 9250 2100 9350
Connection ~ 2100 9350
Connection ~ 1000 8800
Wire Wire Line
	2150 9000 2100 9000
Wire Wire Line
	2200 9200 2100 9200
Wire Wire Line
	2250 9150 2100 9150
Connection ~ 2300 9350
Wire Wire Line
	2300 8950 2100 8950
Wire Wire Line
	2300 9350 2100 9350
Connection ~ 2300 8950
Wire Wire Line
	1350 8400 1700 8400
Wire Wire Line
	1700 8400 1700 8800
Wire Wire Line
	1700 8800 2100 8800
Wire Wire Line
	2100 8800 2100 8900
Connection ~ 1000 7850
Connection ~ 2200 8200
Connection ~ 2250 8150
Wire Wire Line
	2100 8050 2150 8050
Connection ~ 1000 5800
Connection ~ 1000 4850
Connection ~ 2200 5200
Connection ~ 2250 5150
Wire Wire Line
	2100 5050 2150 5050
Wire Wire Line
	2150 8050 2150 9000
Wire Wire Line
	1700 9900 1650 9900
Wire Wire Line
	1050 10350 1050 10250
Connection ~ 1050 10250
Connection ~ 1050 10200
Connection ~ 1050 10150
Connection ~ 1050 10100
Connection ~ 1050 10050
Connection ~ 1050 10000
Connection ~ 1050 9950
Wire Wire Line
	1250 9950 1600 9950
Wire Wire Line
	1700 10000 1550 10000
Wire Wire Line
	1250 10050 1500 10050
Wire Wire Line
	1700 10100 1450 10100
Wire Wire Line
	1250 10150 1400 10150
Wire Wire Line
	1700 10200 1350 10200
Wire Wire Line
	1250 10250 1300 10250
Wire Wire Line
	1650 9500 1650 9900
Connection ~ 1650 9900
Wire Wire Line
	1600 9550 1600 9950
Connection ~ 1600 9950
Wire Wire Line
	1550 9600 1550 10000
Connection ~ 1550 10000
Wire Wire Line
	1500 9650 1500 10050
Connection ~ 1500 10050
Wire Wire Line
	1450 9700 1450 10100
Connection ~ 1450 10100
Wire Wire Line
	1400 10150 1400 9750
Connection ~ 1400 10150
Wire Wire Line
	1350 9800 1350 10200
Connection ~ 1350 10200
Wire Wire Line
	1300 10250 1300 9850
Connection ~ 1300 10250
Wire Wire Line
	1000 9800 1050 9800
Wire Wire Line
	1100 9750 1050 9750
Wire Wire Line
	1050 9750 1050 9800
Wire Wire Line
	1100 9750 1100 9700
Wire Wire Line
	1100 9700 1150 9700
Wire Wire Line
	1150 9700 1150 9650
Wire Wire Line
	1150 9650 1200 9650
Wire Wire Line
	1200 9650 1200 9600
Wire Wire Line
	1200 9600 1250 9600
Wire Wire Line
	1250 9600 1250 9550
Wire Wire Line
	1250 9550 1300 9550
Wire Wire Line
	1300 9550 1300 9500
Wire Wire Line
	1300 9500 1350 9500
Wire Wire Line
	1350 9500 1350 9400
Wire Wire Line
	2100 10250 2100 10350
Connection ~ 2100 10350
Wire Wire Line
	1700 10900 1650 10900
Wire Wire Line
	1050 11350 1050 11250
Connection ~ 1050 11250
Connection ~ 1050 11200
Connection ~ 1050 11150
Connection ~ 1050 11100
Connection ~ 1050 11050
Connection ~ 1050 11000
Connection ~ 1050 10950
Wire Wire Line
	1250 10950 1600 10950
Wire Wire Line
	1700 11000 1550 11000
Wire Wire Line
	1250 11050 1500 11050
Wire Wire Line
	1700 11100 1450 11100
Wire Wire Line
	1250 11150 1400 11150
Wire Wire Line
	1700 11200 1350 11200
Wire Wire Line
	1250 11250 1300 11250
Wire Wire Line
	1650 10500 1650 10900
Connection ~ 1650 10900
Wire Wire Line
	1600 10550 1600 10950
Connection ~ 1600 10950
Wire Wire Line
	1550 10600 1550 11000
Connection ~ 1550 11000
Wire Wire Line
	1500 10650 1500 11050
Connection ~ 1500 11050
Wire Wire Line
	1450 10700 1450 11100
Connection ~ 1450 11100
Wire Wire Line
	1400 11150 1400 10750
Connection ~ 1400 11150
Wire Wire Line
	1350 10800 1350 11200
Connection ~ 1350 11200
Wire Wire Line
	1300 11250 1300 10850
Connection ~ 1300 11250
Wire Wire Line
	1000 10800 1050 10800
Wire Wire Line
	1100 10750 1050 10750
Wire Wire Line
	1050 10750 1050 10800
Wire Wire Line
	1100 10750 1100 10700
Wire Wire Line
	1100 10700 1150 10700
Wire Wire Line
	1150 10700 1150 10650
Wire Wire Line
	1150 10650 1200 10650
Wire Wire Line
	1200 10650 1200 10600
Wire Wire Line
	1200 10600 1250 10600
Wire Wire Line
	1250 10600 1250 10550
Wire Wire Line
	1250 10550 1300 10550
Wire Wire Line
	1300 10550 1300 10500
Wire Wire Line
	1300 10500 1350 10500
Wire Wire Line
	1350 10500 1350 10400
Wire Wire Line
	2100 11250 2100 11350
Connection ~ 2100 11350
Connection ~ 1000 9850
Wire Wire Line
	2100 10050 2150 10050
Wire Wire Line
	2150 10050 2150 11000
Wire Wire Line
	2150 11000 2100 11000
Wire Wire Line
	2200 11200 2100 11200
Connection ~ 2200 10200
Wire Wire Line
	2200 10200 2100 10200
Wire Wire Line
	2250 11150 2100 11150
Wire Wire Line
	2250 10150 2100 10150
Connection ~ 2250 10150
Wire Wire Line
	2150 10000 2100 10000
Connection ~ 2300 9950
Connection ~ 2300 11350
Wire Wire Line
	2300 10950 2100 10950
Wire Wire Line
	2300 11350 2100 11350
Connection ~ 2300 10950
Connection ~ 2300 10350
Wire Wire Line
	2300 10350 2100 10350
Wire Wire Line
	2300 9950 2100 9950
Wire Wire Line
	2100 9900 2100 9700
Wire Wire Line
	2100 9700 1700 9700
Wire Wire Line
	1700 9700 1700 9400
Wire Wire Line
	1700 9400 1350 9400
Wire Wire Line
	1350 10400 1700 10400
Wire Wire Line
	1700 10400 1700 10800
Wire Wire Line
	1700 10800 2100 10800
Wire Wire Line
	2100 10800 2100 10900
Wire Wire Line
	1700 11900 1650 11900
Wire Wire Line
	1050 12350 1050 12250
Connection ~ 1050 12250
Connection ~ 1050 12200
Connection ~ 1050 12150
Connection ~ 1050 12100
Connection ~ 1050 12050
Connection ~ 1050 12000
Connection ~ 1050 11950
Wire Wire Line
	1250 11950 1600 11950
Wire Wire Line
	1700 12000 1550 12000
Wire Wire Line
	1250 12050 1500 12050
Wire Wire Line
	1700 12100 1450 12100
Wire Wire Line
	1250 12150 1400 12150
Wire Wire Line
	1700 12200 1350 12200
Wire Wire Line
	1250 12250 1300 12250
Wire Wire Line
	1650 11500 1650 11900
Connection ~ 1650 11900
Wire Wire Line
	1600 11550 1600 11950
Connection ~ 1600 11950
Wire Wire Line
	1550 11600 1550 12000
Connection ~ 1550 12000
Wire Wire Line
	1500 11650 1500 12050
Connection ~ 1500 12050
Wire Wire Line
	1450 11700 1450 12100
Connection ~ 1450 12100
Wire Wire Line
	1400 12150 1400 11750
Connection ~ 1400 12150
Wire Wire Line
	1350 11800 1350 12200
Connection ~ 1350 12200
Wire Wire Line
	1300 12250 1300 11850
Connection ~ 1300 12250
Wire Wire Line
	1000 11800 1050 11800
Wire Wire Line
	1100 11750 1050 11750
Wire Wire Line
	1050 11750 1050 11800
Wire Wire Line
	1100 11750 1100 11700
Wire Wire Line
	1100 11700 1150 11700
Wire Wire Line
	1150 11700 1150 11650
Wire Wire Line
	1150 11650 1200 11650
Wire Wire Line
	1200 11650 1200 11600
Wire Wire Line
	1200 11600 1250 11600
Wire Wire Line
	1250 11600 1250 11550
Wire Wire Line
	1250 11550 1300 11550
Wire Wire Line
	1300 11550 1300 11500
Wire Wire Line
	1300 11500 1350 11500
Wire Wire Line
	1350 11500 1350 11400
Wire Wire Line
	2100 12250 2100 12350
Connection ~ 2100 12350
Connection ~ 1000 11800
Wire Wire Line
	2150 11050 2150 12000
Wire Wire Line
	2150 12000 2100 12000
Wire Wire Line
	2200 12200 2100 12200
Wire Wire Line
	2250 12150 2100 12150
Connection ~ 2300 12350
Wire Wire Line
	2300 11950 2100 11950
Wire Wire Line
	2300 12350 2100 12350
Connection ~ 2300 11950
Wire Wire Line
	1350 11400 1700 11400
Wire Wire Line
	1700 11400 1700 11800
Wire Wire Line
	1700 11800 2100 11800
Wire Wire Line
	2100 11800 2100 11900
Connection ~ 2200 11200
Connection ~ 2250 11150
Wire Wire Line
	2150 11050 2100 11050
Connection ~ 1000 10800
Connection ~ 1000 10850
Wire Wire Line
	1700 12900 1650 12900
Connection ~ 1050 13000
Connection ~ 1050 12950
Wire Wire Line
	1250 12950 1600 12950
Wire Wire Line
	1700 13000 1550 13000
Wire Wire Line
	1650 12500 1650 12900
Connection ~ 1650 12900
Wire Wire Line
	1600 12550 1600 12950
Connection ~ 1600 12950
Wire Wire Line
	1550 12600 1550 13000
Connection ~ 1550 13000
Wire Wire Line
	1250 12600 1250 12550
Wire Wire Line
	1250 12550 1300 12550
Wire Wire Line
	1300 12550 1300 12500
Wire Wire Line
	1300 12500 1350 12500
Wire Wire Line
	1350 12500 1350 12400
Wire Wire Line
	2100 13250 2100 13350
Connection ~ 2100 13350
Wire Wire Line
	2150 13000 2100 13000
Wire Wire Line
	2200 13200 2100 13200
Wire Wire Line
	2250 13150 2100 13150
Wire Wire Line
	2300 12950 2100 12950
Wire Wire Line
	2300 13350 2100 13350
Connection ~ 2300 12950
Wire Wire Line
	1350 12400 1700 12400
Wire Wire Line
	1700 12400 1700 12800
Wire Wire Line
	1700 12800 2100 12800
Wire Wire Line
	2100 12800 2100 12900
Connection ~ 1000 11850
Connection ~ 2200 12200
Connection ~ 2250 12150
Wire Wire Line
	2100 12050 2150 12050
Connection ~ 1000 9800
Wire Wire Line
	2150 12050 2150 13000
Wire Wire Line
	2150 10000 2150 9050
Wire Wire Line
	2150 9050 2100 9050
Connection ~ 2200 9200
Connection ~ 2250 9150
Connection ~ 1000 8850
Wire Wire Line
	2300 1700 2300 1750
Wire Wire Line
	2250 1600 2250 2150
Wire Wire Line
	2200 1550 2200 2200
Wire Wire Line
	2150 6050 2150 7000
Wire Wire Line
	2150 5050 2150 6000
Wire Wire Line
	1050 13350 1050 13000
Wire Wire Line
	1000 12600 1250 12600
Wire Wire Line
	2150 1500 2600 1500
Wire Wire Line
	2600 1500 2600 1850
Wire Wire Line
	2600 1850 2650 1850
Wire Wire Line
	2200 1550 2550 1550
Wire Wire Line
	2550 1550 2550 1800
Wire Wire Line
	2550 1800 2650 1800
Wire Wire Line
	2250 1600 2500 1600
Wire Wire Line
	2500 1600 2500 2000
Wire Wire Line
	2500 2000 3300 2000
Wire Wire Line
	2650 1200 2400 1200
Wire Wire Line
	2400 1200 2400 1750
Wire Wire Line
	2400 1750 2300 1750
Connection ~ 2300 1750
Wire Wire Line
	2100 1000 3300 1000
Wire Wire Line
	2100 1000 2100 1550
Wire Wire Line
	2100 1550 2050 1550
Wire Wire Line
	2050 1550 2050 1700
Connection ~ 2050 1700
Wire Wire Line
	2450 1750 2650 1750
Wire Wire Line
	3300 2000 3300 1850
Wire Wire Line
	3300 1000 3300 1200
Wire Wire Line
	2700 800  2700 900 
Wire Wire Line
	2700 900  2950 900 
Wire Wire Line
	2950 900  2950 1050
Wire Wire Line
	2700 700  2650 700 
Wire Wire Line
	2650 700  2650 950 
Wire Wire Line
	2650 950  2900 950 
Wire Wire Line
	2900 950  2900 1050
Wire Wire Line
	3200 800  3200 900 
Wire Wire Line
	3200 900  3000 900 
Wire Wire Line
	3000 900  3000 1050
Wire Wire Line
	3200 700  3250 700 
Wire Wire Line
	3250 700  3250 950 
Wire Wire Line
	3250 950  3050 950 
Wire Wire Line
	3050 950  3050 1050
Wire Wire Line
	2450 1750 2450 2050
Wire Wire Line
	2450 2050 2950 2050
Wire Wire Line
	2950 2050 2950 2350
Wire Wire Line
	2950 2350 2900 2350
Wire Wire Line
	2900 2200 3000 2200
Wire Wire Line
	2400 2250 2400 2300
Connection ~ 2400 2300
Wire Wire Line
	2400 2200 2400 1800
Wire Wire Line
	2400 1800 2100 1800
Connection ~ 2100 1800
Wire Wire Line
	2350 13050 2100 13050
$Comp
L mxblack-rescue:POWER-mxblacksii-rescue PW1
U 1 1 54FE6C93
P 2500 2650
F 0 "PW1" H 2750 2500 30  0000 C CNN
F 1 "POWER" H 2750 2600 30  0000 C CNN
F 2 "" H 2950 2750 60  0000 C CNN
F 3 "" H 2950 2750 60  0000 C CNN
	1    2500 2650
	1    0    0    -1  
$EndComp
$Comp
L mxblack-rescue:PIN-mxblacksii-rescue LEDPower1
U 1 1 54FE6CA2
P 2400 3100
F 0 "LEDPower1" H 2450 3100 20  0000 C TNN
F 1 "PIN" H 2450 3100 20  0000 C BNN
F 2 "~" H 2400 3100 60  0000 C CNN
F 3 "~" H 2400 3100 60  0000 C CNN
	1    2400 3100
	1    0    0    -1  
$EndComp
Wire Wire Line
	2400 2700 2300 2700
Connection ~ 2300 2700
Wire Wire Line
	2400 2800 2400 3100
Wire Wire Line
	2650 2950 3350 2950
Wire Wire Line
	3350 2950 3350 1800
Wire Wire Line
	3350 1800 3300 1800
$Comp
L mxblack-rescue:PIN-mxblacksii-rescue GND1
U 1 1 54FE72CC
P 2400 3200
F 0 "GND1" H 2450 3200 20  0000 C TNN
F 1 "PIN" H 2450 3200 20  0000 C BNN
F 2 "~" H 2400 3200 60  0000 C CNN
F 3 "~" H 2400 3200 60  0000 C CNN
	1    2400 3200
	1    0    0    -1  
$EndComp
Wire Wire Line
	2300 3200 2400 3200
Connection ~ 2300 3200
Wire Wire Line
	1050 2250 1050 2200
Wire Wire Line
	1050 2200 1050 2150
Wire Wire Line
	1050 2150 1050 2100
Wire Wire Line
	1050 2100 1050 2050
Wire Wire Line
	1050 2050 1050 2000
Wire Wire Line
	1050 2000 1050 1950
Wire Wire Line
	1050 1950 1050 1900
Wire Wire Line
	1650 1900 1250 1900
Wire Wire Line
	1600 1950 1700 1950
Wire Wire Line
	1550 2000 1250 2000
Wire Wire Line
	1500 2050 1700 2050
Wire Wire Line
	1450 2100 1250 2100
Wire Wire Line
	1400 2150 1700 2150
Wire Wire Line
	1350 2200 1250 2200
Wire Wire Line
	1300 2250 1700 2250
Wire Wire Line
	2100 2350 1050 2350
Wire Wire Line
	1050 3250 1050 3200
Wire Wire Line
	1050 3200 1050 3150
Wire Wire Line
	1050 3150 1050 3100
Wire Wire Line
	1050 3100 1050 3050
Wire Wire Line
	1050 3050 1050 3000
Wire Wire Line
	1050 3000 1050 2950
Wire Wire Line
	1050 2950 1050 2900
Wire Wire Line
	1650 2900 1250 2900
Wire Wire Line
	1600 2950 1700 2950
Wire Wire Line
	1550 3000 1250 3000
Wire Wire Line
	1500 3050 1700 3050
Wire Wire Line
	1450 3100 1250 3100
Wire Wire Line
	1400 3150 1700 3150
Wire Wire Line
	1350 3200 1250 3200
Wire Wire Line
	1300 3250 1700 3250
Wire Wire Line
	2100 3350 1050 3350
Wire Wire Line
	1000 1850 1000 2800
Wire Wire Line
	2200 2200 2200 3200
Wire Wire Line
	2250 2150 2250 3150
Wire Wire Line
	2300 1950 2300 2350
Wire Wire Line
	2300 3350 2300 3950
Wire Wire Line
	2300 2950 2300 3200
Wire Wire Line
	2300 2350 2100 2350
Wire Wire Line
	2300 2350 2300 2700
Wire Wire Line
	1050 4250 1050 4200
Wire Wire Line
	1050 4200 1050 4150
Wire Wire Line
	1050 4150 1050 4100
Wire Wire Line
	1050 4100 1050 4050
Wire Wire Line
	1050 4050 1050 4000
Wire Wire Line
	1050 4000 1050 3950
Wire Wire Line
	1050 3950 1050 3900
Wire Wire Line
	1650 3900 1250 3900
Wire Wire Line
	1600 3950 1700 3950
Wire Wire Line
	1550 4000 1250 4000
Wire Wire Line
	1500 4050 1700 4050
Wire Wire Line
	1450 4100 1250 4100
Wire Wire Line
	1400 4150 1700 4150
Wire Wire Line
	1350 4200 1250 4200
Wire Wire Line
	1300 4250 1700 4250
Wire Wire Line
	2100 4350 1050 4350
Wire Wire Line
	1000 3800 1000 3850
Wire Wire Line
	2300 4350 2300 4950
Wire Wire Line
	2300 3950 2300 4350
Wire Wire Line
	2200 3200 2200 4200
Wire Wire Line
	2250 3150 2250 4150
Wire Wire Line
	1000 2850 1000 3800
Wire Wire Line
	1050 5250 1050 5200
Wire Wire Line
	1050 5200 1050 5150
Wire Wire Line
	1050 5150 1050 5100
Wire Wire Line
	1050 5100 1050 5050
Wire Wire Line
	1050 5050 1050 5000
Wire Wire Line
	1050 5000 1050 4950
Wire Wire Line
	1050 4950 1050 4900
Wire Wire Line
	1650 4900 1250 4900
Wire Wire Line
	1600 4950 1700 4950
Wire Wire Line
	1550 5000 1250 5000
Wire Wire Line
	1500 5050 1700 5050
Wire Wire Line
	1450 5100 1250 5100
Wire Wire Line
	1400 5150 1700 5150
Wire Wire Line
	1350 5200 1250 5200
Wire Wire Line
	1300 5250 1700 5250
Wire Wire Line
	2100 5350 1050 5350
Wire Wire Line
	1000 4800 1000 4850
Wire Wire Line
	2300 5350 2300 5950
Wire Wire Line
	2300 4950 2300 5350
Wire Wire Line
	1000 3850 1000 4800
Wire Wire Line
	2200 4200 2200 5200
Wire Wire Line
	2250 4150 2250 5150
Wire Wire Line
	1050 6250 1050 6200
Wire Wire Line
	1050 6200 1050 6150
Wire Wire Line
	1050 6150 1050 6100
Wire Wire Line
	1050 6100 1050 6050
Wire Wire Line
	1050 6050 1050 6000
Wire Wire Line
	1050 6000 1050 5950
Wire Wire Line
	1050 5950 1050 5900
Wire Wire Line
	1650 5900 1250 5900
Wire Wire Line
	1600 5950 1700 5950
Wire Wire Line
	1550 6000 1250 6000
Wire Wire Line
	1500 6050 1700 6050
Wire Wire Line
	1450 6100 1250 6100
Wire Wire Line
	1400 6150 1700 6150
Wire Wire Line
	1350 6200 1250 6200
Wire Wire Line
	1300 6250 1700 6250
Wire Wire Line
	2100 6350 2300 6350
Wire Wire Line
	1050 7250 1050 7200
Wire Wire Line
	1050 7200 1050 7150
Wire Wire Line
	1050 7150 1050 7100
Wire Wire Line
	1050 7100 1050 7050
Wire Wire Line
	1050 7050 1050 7000
Wire Wire Line
	1050 7000 1050 6950
Wire Wire Line
	1050 6950 1050 6900
Wire Wire Line
	1650 6900 1250 6900
Wire Wire Line
	1600 6950 1700 6950
Wire Wire Line
	1550 7000 1250 7000
Wire Wire Line
	1500 7050 1700 7050
Wire Wire Line
	1450 7100 1250 7100
Wire Wire Line
	1400 7150 1700 7150
Wire Wire Line
	1350 7200 1250 7200
Wire Wire Line
	1300 7250 1700 7250
Wire Wire Line
	2100 7350 1050 7350
Wire Wire Line
	1000 5850 1000 6800
Wire Wire Line
	2200 6200 2200 7200
Wire Wire Line
	2250 6150 2250 7150
Wire Wire Line
	2300 5950 2300 6350
Wire Wire Line
	2300 7350 2300 7950
Wire Wire Line
	2300 6950 2300 7350
Wire Wire Line
	2300 6350 2300 6950
Wire Wire Line
	1050 8250 1050 8200
Wire Wire Line
	1050 8200 1050 8150
Wire Wire Line
	1050 8150 1050 8100
Wire Wire Line
	1050 8100 1050 8050
Wire Wire Line
	1050 8050 1050 8000
Wire Wire Line
	1050 8000 1050 7950
Wire Wire Line
	1050 7950 1050 7900
Wire Wire Line
	1650 7900 1250 7900
Wire Wire Line
	1600 7950 1700 7950
Wire Wire Line
	1550 8000 1250 8000
Wire Wire Line
	1500 8050 1700 8050
Wire Wire Line
	1450 8100 1250 8100
Wire Wire Line
	1400 8150 1700 8150
Wire Wire Line
	1350 8200 1250 8200
Wire Wire Line
	1300 8250 1700 8250
Wire Wire Line
	2100 8350 1050 8350
Wire Wire Line
	1000 7800 1000 7850
Wire Wire Line
	2300 8350 2300 8950
Wire Wire Line
	2300 7950 2300 8350
Wire Wire Line
	2200 7200 2200 8200
Wire Wire Line
	2250 7150 2250 8150
Wire Wire Line
	1000 6800 1000 6850
Wire Wire Line
	1000 6850 1000 7800
Wire Wire Line
	1050 9250 1050 9200
Wire Wire Line
	1050 9200 1050 9150
Wire Wire Line
	1050 9150 1050 9100
Wire Wire Line
	1050 9100 1050 9050
Wire Wire Line
	1050 9050 1050 9000
Wire Wire Line
	1050 9000 1050 8950
Wire Wire Line
	1050 8950 1050 8900
Wire Wire Line
	1650 8900 1250 8900
Wire Wire Line
	1600 8950 1700 8950
Wire Wire Line
	1550 9000 1250 9000
Wire Wire Line
	1500 9050 1700 9050
Wire Wire Line
	1450 9100 1250 9100
Wire Wire Line
	1400 9150 1700 9150
Wire Wire Line
	1350 9200 1250 9200
Wire Wire Line
	1300 9250 1700 9250
Wire Wire Line
	2100 9350 1050 9350
Wire Wire Line
	1000 8800 1000 8850
Wire Wire Line
	2300 9350 2300 9950
Wire Wire Line
	2300 8950 2300 9350
Wire Wire Line
	1000 7850 1000 8800
Wire Wire Line
	2200 8200 2200 9200
Wire Wire Line
	2250 8150 2250 9150
Wire Wire Line
	1000 5800 1000 5850
Wire Wire Line
	1000 4850 1000 5800
Wire Wire Line
	2200 5200 2200 6200
Wire Wire Line
	2250 5150 2250 6150
Wire Wire Line
	1050 10250 1050 10200
Wire Wire Line
	1050 10200 1050 10150
Wire Wire Line
	1050 10150 1050 10100
Wire Wire Line
	1050 10100 1050 10050
Wire Wire Line
	1050 10050 1050 10000
Wire Wire Line
	1050 10000 1050 9950
Wire Wire Line
	1050 9950 1050 9900
Wire Wire Line
	1650 9900 1250 9900
Wire Wire Line
	1600 9950 1700 9950
Wire Wire Line
	1550 10000 1250 10000
Wire Wire Line
	1500 10050 1700 10050
Wire Wire Line
	1450 10100 1250 10100
Wire Wire Line
	1400 10150 1700 10150
Wire Wire Line
	1350 10200 1250 10200
Wire Wire Line
	1300 10250 1700 10250
Wire Wire Line
	2100 10350 1050 10350
Wire Wire Line
	1050 11250 1050 11200
Wire Wire Line
	1050 11200 1050 11150
Wire Wire Line
	1050 11150 1050 11100
Wire Wire Line
	1050 11100 1050 11050
Wire Wire Line
	1050 11050 1050 11000
Wire Wire Line
	1050 11000 1050 10950
Wire Wire Line
	1050 10950 1050 10900
Wire Wire Line
	1650 10900 1250 10900
Wire Wire Line
	1600 10950 1700 10950
Wire Wire Line
	1550 11000 1250 11000
Wire Wire Line
	1500 11050 1700 11050
Wire Wire Line
	1450 11100 1250 11100
Wire Wire Line
	1400 11150 1700 11150
Wire Wire Line
	1350 11200 1250 11200
Wire Wire Line
	1300 11250 1700 11250
Wire Wire Line
	2100 11350 1050 11350
Wire Wire Line
	1000 9850 1000 10800
Wire Wire Line
	2200 10200 2200 11200
Wire Wire Line
	2250 10150 2250 11150
Wire Wire Line
	2300 9950 2300 10350
Wire Wire Line
	2300 11350 2300 11950
Wire Wire Line
	2300 10950 2300 11350
Wire Wire Line
	2300 10350 2300 10950
Wire Wire Line
	1050 12250 1050 12200
Wire Wire Line
	1050 12200 1050 12150
Wire Wire Line
	1050 12150 1050 12100
Wire Wire Line
	1050 12100 1050 12050
Wire Wire Line
	1050 12050 1050 12000
Wire Wire Line
	1050 12000 1050 11950
Wire Wire Line
	1050 11950 1050 11900
Wire Wire Line
	1650 11900 1250 11900
Wire Wire Line
	1600 11950 1700 11950
Wire Wire Line
	1550 12000 1250 12000
Wire Wire Line
	1500 12050 1700 12050
Wire Wire Line
	1450 12100 1250 12100
Wire Wire Line
	1400 12150 1700 12150
Wire Wire Line
	1350 12200 1250 12200
Wire Wire Line
	1300 12250 1700 12250
Wire Wire Line
	2100 12350 1050 12350
Wire Wire Line
	1000 11800 1000 11850
Wire Wire Line
	2300 12350 2300 12950
Wire Wire Line
	2300 11950 2300 12350
Wire Wire Line
	2200 11200 2200 12200
Wire Wire Line
	2250 11150 2250 12150
Wire Wire Line
	1000 10800 1000 10850
Wire Wire Line
	1000 10850 1000 11800
Wire Wire Line
	1050 13000 1050 12950
Wire Wire Line
	1050 12950 1050 12900
Wire Wire Line
	1650 12900 1250 12900
Wire Wire Line
	1600 12950 1700 12950
Wire Wire Line
	1550 13000 1250 13000
Wire Wire Line
	2100 13350 1050 13350
Wire Wire Line
	2300 12950 2300 13350
Wire Wire Line
	1000 11850 1000 12600
Wire Wire Line
	2200 12200 2200 13200
Wire Wire Line
	2250 12150 2250 13150
Wire Wire Line
	1000 9800 1000 9850
Wire Wire Line
	2200 9200 2200 10200
Wire Wire Line
	2250 9150 2250 10150
Wire Wire Line
	1000 8850 1000 9800
Wire Wire Line
	2300 1750 2300 1950
Wire Wire Line
	2050 1700 1700 1700
Wire Wire Line
	2400 2300 2400 2350
Wire Wire Line
	2100 1800 2100 1700
Wire Wire Line
	2300 2700 2300 2950
Wire Wire Line
	2300 3200 2300 3350
$EndSCHEMATC
