(export (version D)
  (design
    (source C:/Users/asus/Desktop/pcbcb/mxblacksii/mxblacksii.sch)
    (date "3/9/2015 11:04:44 PM")
    (tool "eeschema (2013-07-07 BZR 4022)-stable"))
  (components
    (comp (ref S5)
      (value CHMX)
      (libsource (lib HEXPAD) (part CHMX))
      (sheetpath (names /) (tstamps /))
      (tstamp 548A2431))
    (comp (ref S6)
      (value CHMX)
      (libsource (lib HEXPAD) (part CHMX))
      (sheetpath (names /) (tstamps /))
      (tstamp 548A243E))
    (comp (ref S7)
      (value CHMX)
      (libsource (lib HEXPAD) (part CHMX))
      (sheetpath (names /) (tstamps /))
      (tstamp 548A2444))
    (comp (ref S8)
      (value CHMX)
      (libsource (lib HEXPAD) (part CHMX))
      (sheetpath (names /) (tstamps /))
      (tstamp 548A244A))
    (comp (ref S1)
      (value CHMX)
      (libsource (lib HEXPAD) (part CHMX))
      (sheetpath (names /) (tstamps /))
      (tstamp 548A248E))
    (comp (ref S2)
      (value CHMX)
      (libsource (lib HEXPAD) (part CHMX))
      (sheetpath (names /) (tstamps /))
      (tstamp 548A2494))
    (comp (ref S3)
      (value CHMX)
      (libsource (lib HEXPAD) (part CHMX))
      (sheetpath (names /) (tstamps /))
      (tstamp 548A249A))
    (comp (ref S4)
      (value CHMX)
      (libsource (lib HEXPAD) (part CHMX))
      (sheetpath (names /) (tstamps /))
      (tstamp 548A24A0))
    (comp (ref SR1)
      (value SN74HC165)
      (libsource (lib HEXPAD) (part SN74HC165))
      (sheetpath (names /) (tstamps /))
      (tstamp 548A3038))
    (comp (ref S13)
      (value CHMX)
      (libsource (lib HEXPAD) (part CHMX))
      (sheetpath (names /) (tstamps /))
      (tstamp 548A3179))
    (comp (ref S14)
      (value CHMX)
      (libsource (lib HEXPAD) (part CHMX))
      (sheetpath (names /) (tstamps /))
      (tstamp 548A317F))
    (comp (ref S15)
      (value CHMX)
      (libsource (lib HEXPAD) (part CHMX))
      (sheetpath (names /) (tstamps /))
      (tstamp 548A3185))
    (comp (ref S16)
      (value CHMX)
      (libsource (lib HEXPAD) (part CHMX))
      (sheetpath (names /) (tstamps /))
      (tstamp 548A318B))
    (comp (ref S9)
      (value CHMX)
      (libsource (lib HEXPAD) (part CHMX))
      (sheetpath (names /) (tstamps /))
      (tstamp 548A3191))
    (comp (ref S10)
      (value CHMX)
      (libsource (lib HEXPAD) (part CHMX))
      (sheetpath (names /) (tstamps /))
      (tstamp 548A3197))
    (comp (ref S11)
      (value CHMX)
      (libsource (lib HEXPAD) (part CHMX))
      (sheetpath (names /) (tstamps /))
      (tstamp 548A319D))
    (comp (ref S12)
      (value CHMX)
      (libsource (lib HEXPAD) (part CHMX))
      (sheetpath (names /) (tstamps /))
      (tstamp 548A31A3))
    (comp (ref SR2)
      (value SN74HC165)
      (libsource (lib HEXPAD) (part SN74HC165))
      (sheetpath (names /) (tstamps /))
      (tstamp 548A320C))
    (comp (ref S21)
      (value CHMX)
      (libsource (lib HEXPAD) (part CHMX))
      (sheetpath (names /) (tstamps /))
      (tstamp 548A4741))
    (comp (ref S22)
      (value CHMX)
      (libsource (lib HEXPAD) (part CHMX))
      (sheetpath (names /) (tstamps /))
      (tstamp 548A4747))
    (comp (ref S23)
      (value CHMX)
      (libsource (lib HEXPAD) (part CHMX))
      (sheetpath (names /) (tstamps /))
      (tstamp 548A474D))
    (comp (ref S24)
      (value CHMX)
      (libsource (lib HEXPAD) (part CHMX))
      (sheetpath (names /) (tstamps /))
      (tstamp 548A4753))
    (comp (ref S17)
      (value CHMX)
      (libsource (lib HEXPAD) (part CHMX))
      (sheetpath (names /) (tstamps /))
      (tstamp 548A4759))
    (comp (ref S18)
      (value CHMX)
      (libsource (lib HEXPAD) (part CHMX))
      (sheetpath (names /) (tstamps /))
      (tstamp 548A475F))
    (comp (ref S19)
      (value CHMX)
      (libsource (lib HEXPAD) (part CHMX))
      (sheetpath (names /) (tstamps /))
      (tstamp 548A4765))
    (comp (ref S20)
      (value CHMX)
      (libsource (lib HEXPAD) (part CHMX))
      (sheetpath (names /) (tstamps /))
      (tstamp 548A476B))
    (comp (ref SR3)
      (value SN74HC165)
      (libsource (lib HEXPAD) (part SN74HC165))
      (sheetpath (names /) (tstamps /))
      (tstamp 548A4789))
    (comp (ref U25)
      (value RESIST)
      (libsource (lib HEXPAD) (part RESIST))
      (sheetpath (names /) (tstamps /))
      (tstamp 548A3361))
    (comp (ref U26)
      (value RESIST)
      (libsource (lib HEXPAD) (part RESIST))
      (sheetpath (names /) (tstamps /))
      (tstamp 548A3367))
    (comp (ref U27)
      (value RESIST)
      (libsource (lib HEXPAD) (part RESIST))
      (sheetpath (names /) (tstamps /))
      (tstamp 548A336D))
    (comp (ref U28)
      (value RESIST)
      (libsource (lib HEXPAD) (part RESIST))
      (sheetpath (names /) (tstamps /))
      (tstamp 548A3373))
    (comp (ref S29)
      (value CHMX)
      (libsource (lib HEXPAD) (part CHMX))
      (sheetpath (names /) (tstamps /))
      (tstamp 548A3379))
    (comp (ref S30)
      (value CHMX)
      (libsource (lib HEXPAD) (part CHMX))
      (sheetpath (names /) (tstamps /))
      (tstamp 548A337F))
    (comp (ref S31)
      (value CHMX)
      (libsource (lib HEXPAD) (part CHMX))
      (sheetpath (names /) (tstamps /))
      (tstamp 548A3385))
    (comp (ref S32)
      (value CHMX)
      (libsource (lib HEXPAD) (part CHMX))
      (sheetpath (names /) (tstamps /))
      (tstamp 548A338B))
    (comp (ref S25)
      (value CHMX)
      (libsource (lib HEXPAD) (part CHMX))
      (sheetpath (names /) (tstamps /))
      (tstamp 548A3391))
    (comp (ref S26)
      (value CHMX)
      (libsource (lib HEXPAD) (part CHMX))
      (sheetpath (names /) (tstamps /))
      (tstamp 548A3397))
    (comp (ref S27)
      (value CHMX)
      (libsource (lib HEXPAD) (part CHMX))
      (sheetpath (names /) (tstamps /))
      (tstamp 548A339D))
    (comp (ref S28)
      (value CHMX)
      (libsource (lib HEXPAD) (part CHMX))
      (sheetpath (names /) (tstamps /))
      (tstamp 548A33A3))
    (comp (ref U29)
      (value RESIST)
      (libsource (lib HEXPAD) (part RESIST))
      (sheetpath (names /) (tstamps /))
      (tstamp 548A33A9))
    (comp (ref U30)
      (value RESIST)
      (libsource (lib HEXPAD) (part RESIST))
      (sheetpath (names /) (tstamps /))
      (tstamp 548A33AF))
    (comp (ref U31)
      (value RESIST)
      (libsource (lib HEXPAD) (part RESIST))
      (sheetpath (names /) (tstamps /))
      (tstamp 548A33B5))
    (comp (ref U32)
      (value RESIST)
      (libsource (lib HEXPAD) (part RESIST))
      (sheetpath (names /) (tstamps /))
      (tstamp 548A33BB))
    (comp (ref SR4)
      (value SN74HC165)
      (libsource (lib HEXPAD) (part SN74HC165))
      (sheetpath (names /) (tstamps /))
      (tstamp 548A33C1))
    (comp (ref U33)
      (value RESIST)
      (libsource (lib HEXPAD) (part RESIST))
      (sheetpath (names /) (tstamps /))
      (tstamp 548A3921))
    (comp (ref U34)
      (value RESIST)
      (libsource (lib HEXPAD) (part RESIST))
      (sheetpath (names /) (tstamps /))
      (tstamp 548A3927))
    (comp (ref U35)
      (value RESIST)
      (libsource (lib HEXPAD) (part RESIST))
      (sheetpath (names /) (tstamps /))
      (tstamp 548A392D))
    (comp (ref U36)
      (value RESIST)
      (libsource (lib HEXPAD) (part RESIST))
      (sheetpath (names /) (tstamps /))
      (tstamp 548A3933))
    (comp (ref S37)
      (value CHMX)
      (libsource (lib HEXPAD) (part CHMX))
      (sheetpath (names /) (tstamps /))
      (tstamp 548A3939))
    (comp (ref S38)
      (value CHMX)
      (libsource (lib HEXPAD) (part CHMX))
      (sheetpath (names /) (tstamps /))
      (tstamp 548A393F))
    (comp (ref S39)
      (value CHMX)
      (libsource (lib HEXPAD) (part CHMX))
      (sheetpath (names /) (tstamps /))
      (tstamp 548A3945))
    (comp (ref S40)
      (value CHMX)
      (libsource (lib HEXPAD) (part CHMX))
      (sheetpath (names /) (tstamps /))
      (tstamp 548A394B))
    (comp (ref S33)
      (value CHMX)
      (libsource (lib HEXPAD) (part CHMX))
      (sheetpath (names /) (tstamps /))
      (tstamp 548A3951))
    (comp (ref S34)
      (value CHMX)
      (libsource (lib HEXPAD) (part CHMX))
      (sheetpath (names /) (tstamps /))
      (tstamp 548A3957))
    (comp (ref S35)
      (value CHMX)
      (libsource (lib HEXPAD) (part CHMX))
      (sheetpath (names /) (tstamps /))
      (tstamp 548A395D))
    (comp (ref S36)
      (value CHMX)
      (libsource (lib HEXPAD) (part CHMX))
      (sheetpath (names /) (tstamps /))
      (tstamp 548A3963))
    (comp (ref U37)
      (value RESIST)
      (libsource (lib HEXPAD) (part RESIST))
      (sheetpath (names /) (tstamps /))
      (tstamp 548A3969))
    (comp (ref U38)
      (value RESIST)
      (libsource (lib HEXPAD) (part RESIST))
      (sheetpath (names /) (tstamps /))
      (tstamp 548A396F))
    (comp (ref U39)
      (value RESIST)
      (libsource (lib HEXPAD) (part RESIST))
      (sheetpath (names /) (tstamps /))
      (tstamp 548A3975))
    (comp (ref U40)
      (value RESIST)
      (libsource (lib HEXPAD) (part RESIST))
      (sheetpath (names /) (tstamps /))
      (tstamp 548A397B))
    (comp (ref SR5)
      (value SN74HC165)
      (libsource (lib HEXPAD) (part SN74HC165))
      (sheetpath (names /) (tstamps /))
      (tstamp 548A398D))
    (comp (ref U41)
      (value RESIST)
      (libsource (lib HEXPAD) (part RESIST))
      (sheetpath (names /) (tstamps /))
      (tstamp 548A3993))
    (comp (ref U42)
      (value RESIST)
      (libsource (lib HEXPAD) (part RESIST))
      (sheetpath (names /) (tstamps /))
      (tstamp 548A3999))
    (comp (ref U43)
      (value RESIST)
      (libsource (lib HEXPAD) (part RESIST))
      (sheetpath (names /) (tstamps /))
      (tstamp 548A399F))
    (comp (ref U44)
      (value RESIST)
      (libsource (lib HEXPAD) (part RESIST))
      (sheetpath (names /) (tstamps /))
      (tstamp 548A39A5))
    (comp (ref S45)
      (value CHMX)
      (libsource (lib HEXPAD) (part CHMX))
      (sheetpath (names /) (tstamps /))
      (tstamp 548A39AB))
    (comp (ref S46)
      (value CHMX)
      (libsource (lib HEXPAD) (part CHMX))
      (sheetpath (names /) (tstamps /))
      (tstamp 548A39B1))
    (comp (ref S47)
      (value CHMX)
      (libsource (lib HEXPAD) (part CHMX))
      (sheetpath (names /) (tstamps /))
      (tstamp 548A39B7))
    (comp (ref S48)
      (value CHMX)
      (libsource (lib HEXPAD) (part CHMX))
      (sheetpath (names /) (tstamps /))
      (tstamp 548A39BD))
    (comp (ref S41)
      (value CHMX)
      (libsource (lib HEXPAD) (part CHMX))
      (sheetpath (names /) (tstamps /))
      (tstamp 548A39C3))
    (comp (ref S42)
      (value CHMX)
      (libsource (lib HEXPAD) (part CHMX))
      (sheetpath (names /) (tstamps /))
      (tstamp 548A39C9))
    (comp (ref S43)
      (value CHMX)
      (libsource (lib HEXPAD) (part CHMX))
      (sheetpath (names /) (tstamps /))
      (tstamp 548A39CF))
    (comp (ref S44)
      (value CHMX)
      (libsource (lib HEXPAD) (part CHMX))
      (sheetpath (names /) (tstamps /))
      (tstamp 548A39D5))
    (comp (ref U45)
      (value RESIST)
      (libsource (lib HEXPAD) (part RESIST))
      (sheetpath (names /) (tstamps /))
      (tstamp 548A39DB))
    (comp (ref U46)
      (value RESIST)
      (libsource (lib HEXPAD) (part RESIST))
      (sheetpath (names /) (tstamps /))
      (tstamp 548A39E1))
    (comp (ref U47)
      (value RESIST)
      (libsource (lib HEXPAD) (part RESIST))
      (sheetpath (names /) (tstamps /))
      (tstamp 548A39E7))
    (comp (ref U48)
      (value RESIST)
      (libsource (lib HEXPAD) (part RESIST))
      (sheetpath (names /) (tstamps /))
      (tstamp 548A39ED))
    (comp (ref SR6)
      (value SN74HC165)
      (libsource (lib HEXPAD) (part SN74HC165))
      (sheetpath (names /) (tstamps /))
      (tstamp 548A39F3))
    (comp (ref U49)
      (value RESIST)
      (libsource (lib HEXPAD) (part RESIST))
      (sheetpath (names /) (tstamps /))
      (tstamp 548A3A75))
    (comp (ref U50)
      (value RESIST)
      (libsource (lib HEXPAD) (part RESIST))
      (sheetpath (names /) (tstamps /))
      (tstamp 548A3A7B))
    (comp (ref U51)
      (value RESIST)
      (libsource (lib HEXPAD) (part RESIST))
      (sheetpath (names /) (tstamps /))
      (tstamp 548A3A81))
    (comp (ref U52)
      (value RESIST)
      (libsource (lib HEXPAD) (part RESIST))
      (sheetpath (names /) (tstamps /))
      (tstamp 548A3A87))
    (comp (ref S53)
      (value CHMX)
      (libsource (lib HEXPAD) (part CHMX))
      (sheetpath (names /) (tstamps /))
      (tstamp 548A3A8D))
    (comp (ref S54)
      (value CHMX)
      (libsource (lib HEXPAD) (part CHMX))
      (sheetpath (names /) (tstamps /))
      (tstamp 548A3A93))
    (comp (ref S55)
      (value CHMX)
      (libsource (lib HEXPAD) (part CHMX))
      (sheetpath (names /) (tstamps /))
      (tstamp 548A3A99))
    (comp (ref S56)
      (value CHMX)
      (libsource (lib HEXPAD) (part CHMX))
      (sheetpath (names /) (tstamps /))
      (tstamp 548A3A9F))
    (comp (ref S49)
      (value CHMX)
      (libsource (lib HEXPAD) (part CHMX))
      (sheetpath (names /) (tstamps /))
      (tstamp 548A3AA5))
    (comp (ref S50)
      (value CHMX)
      (libsource (lib HEXPAD) (part CHMX))
      (sheetpath (names /) (tstamps /))
      (tstamp 548A3AAB))
    (comp (ref S51)
      (value CHMX)
      (libsource (lib HEXPAD) (part CHMX))
      (sheetpath (names /) (tstamps /))
      (tstamp 548A3AB1))
    (comp (ref S52)
      (value CHMX)
      (libsource (lib HEXPAD) (part CHMX))
      (sheetpath (names /) (tstamps /))
      (tstamp 548A3AB7))
    (comp (ref U53)
      (value RESIST)
      (libsource (lib HEXPAD) (part RESIST))
      (sheetpath (names /) (tstamps /))
      (tstamp 548A3ABD))
    (comp (ref U54)
      (value RESIST)
      (libsource (lib HEXPAD) (part RESIST))
      (sheetpath (names /) (tstamps /))
      (tstamp 548A3AC3))
    (comp (ref U55)
      (value RESIST)
      (libsource (lib HEXPAD) (part RESIST))
      (sheetpath (names /) (tstamps /))
      (tstamp 548A3AC9))
    (comp (ref U56)
      (value RESIST)
      (libsource (lib HEXPAD) (part RESIST))
      (sheetpath (names /) (tstamps /))
      (tstamp 548A3ACF))
    (comp (ref SR7)
      (value SN74HC165)
      (libsource (lib HEXPAD) (part SN74HC165))
      (sheetpath (names /) (tstamps /))
      (tstamp 548A3AD5))
    (comp (ref U57)
      (value RESIST)
      (libsource (lib HEXPAD) (part RESIST))
      (sheetpath (names /) (tstamps /))
      (tstamp 548A3B30))
    (comp (ref U58)
      (value RESIST)
      (libsource (lib HEXPAD) (part RESIST))
      (sheetpath (names /) (tstamps /))
      (tstamp 548A3B36))
    (comp (ref U59)
      (value RESIST)
      (libsource (lib HEXPAD) (part RESIST))
      (sheetpath (names /) (tstamps /))
      (tstamp 548A3B3C))
    (comp (ref U60)
      (value RESIST)
      (libsource (lib HEXPAD) (part RESIST))
      (sheetpath (names /) (tstamps /))
      (tstamp 548A3B42))
    (comp (ref S61)
      (value CHMX)
      (libsource (lib HEXPAD) (part CHMX))
      (sheetpath (names /) (tstamps /))
      (tstamp 548A3B48))
    (comp (ref S62)
      (value CHMX)
      (libsource (lib HEXPAD) (part CHMX))
      (sheetpath (names /) (tstamps /))
      (tstamp 548A3B4E))
    (comp (ref S63)
      (value CHMX)
      (libsource (lib HEXPAD) (part CHMX))
      (sheetpath (names /) (tstamps /))
      (tstamp 548A3B54))
    (comp (ref S64)
      (value CHMX)
      (libsource (lib HEXPAD) (part CHMX))
      (sheetpath (names /) (tstamps /))
      (tstamp 548A3B5A))
    (comp (ref S57)
      (value CHMX)
      (libsource (lib HEXPAD) (part CHMX))
      (sheetpath (names /) (tstamps /))
      (tstamp 548A3B60))
    (comp (ref S58)
      (value CHMX)
      (libsource (lib HEXPAD) (part CHMX))
      (sheetpath (names /) (tstamps /))
      (tstamp 548A3B66))
    (comp (ref S59)
      (value CHMX)
      (libsource (lib HEXPAD) (part CHMX))
      (sheetpath (names /) (tstamps /))
      (tstamp 548A3B6C))
    (comp (ref S60)
      (value CHMX)
      (libsource (lib HEXPAD) (part CHMX))
      (sheetpath (names /) (tstamps /))
      (tstamp 548A3B72))
    (comp (ref U61)
      (value RESIST)
      (libsource (lib HEXPAD) (part RESIST))
      (sheetpath (names /) (tstamps /))
      (tstamp 548A3B78))
    (comp (ref U62)
      (value RESIST)
      (libsource (lib HEXPAD) (part RESIST))
      (sheetpath (names /) (tstamps /))
      (tstamp 548A3B7E))
    (comp (ref U63)
      (value RESIST)
      (libsource (lib HEXPAD) (part RESIST))
      (sheetpath (names /) (tstamps /))
      (tstamp 548A3B84))
    (comp (ref U64)
      (value RESIST)
      (libsource (lib HEXPAD) (part RESIST))
      (sheetpath (names /) (tstamps /))
      (tstamp 548A3B8A))
    (comp (ref SR8)
      (value SN74HC165)
      (libsource (lib HEXPAD) (part SN74HC165))
      (sheetpath (names /) (tstamps /))
      (tstamp 548A3B90))
    (comp (ref U65)
      (value RESIST)
      (libsource (lib HEXPAD) (part RESIST))
      (sheetpath (names /) (tstamps /))
      (tstamp 548A4CB9))
    (comp (ref U66)
      (value RESIST)
      (libsource (lib HEXPAD) (part RESIST))
      (sheetpath (names /) (tstamps /))
      (tstamp 548A4CBF))
    (comp (ref U67)
      (value RESIST)
      (libsource (lib HEXPAD) (part RESIST))
      (sheetpath (names /) (tstamps /))
      (tstamp 548A4CC5))
    (comp (ref U68)
      (value RESIST)
      (libsource (lib HEXPAD) (part RESIST))
      (sheetpath (names /) (tstamps /))
      (tstamp 548A4CCB))
    (comp (ref S69)
      (value CHMX)
      (libsource (lib HEXPAD) (part CHMX))
      (sheetpath (names /) (tstamps /))
      (tstamp 548A4CD1))
    (comp (ref S70)
      (value CHMX)
      (libsource (lib HEXPAD) (part CHMX))
      (sheetpath (names /) (tstamps /))
      (tstamp 548A4CD7))
    (comp (ref S71)
      (value CHMX)
      (libsource (lib HEXPAD) (part CHMX))
      (sheetpath (names /) (tstamps /))
      (tstamp 548A4CDD))
    (comp (ref S72)
      (value CHMX)
      (libsource (lib HEXPAD) (part CHMX))
      (sheetpath (names /) (tstamps /))
      (tstamp 548A4CE3))
    (comp (ref S65)
      (value CHMX)
      (libsource (lib HEXPAD) (part CHMX))
      (sheetpath (names /) (tstamps /))
      (tstamp 548A4CE9))
    (comp (ref S66)
      (value CHMX)
      (libsource (lib HEXPAD) (part CHMX))
      (sheetpath (names /) (tstamps /))
      (tstamp 548A4CEF))
    (comp (ref S67)
      (value CHMX)
      (libsource (lib HEXPAD) (part CHMX))
      (sheetpath (names /) (tstamps /))
      (tstamp 548A4CF5))
    (comp (ref S68)
      (value CHMX)
      (libsource (lib HEXPAD) (part CHMX))
      (sheetpath (names /) (tstamps /))
      (tstamp 548A4CFB))
    (comp (ref U69)
      (value RESIST)
      (libsource (lib HEXPAD) (part RESIST))
      (sheetpath (names /) (tstamps /))
      (tstamp 548A4D01))
    (comp (ref U70)
      (value RESIST)
      (libsource (lib HEXPAD) (part RESIST))
      (sheetpath (names /) (tstamps /))
      (tstamp 548A4D07))
    (comp (ref U71)
      (value RESIST)
      (libsource (lib HEXPAD) (part RESIST))
      (sheetpath (names /) (tstamps /))
      (tstamp 548A4D0D))
    (comp (ref U72)
      (value RESIST)
      (libsource (lib HEXPAD) (part RESIST))
      (sheetpath (names /) (tstamps /))
      (tstamp 548A4D13))
    (comp (ref SR9)
      (value SN74HC165)
      (libsource (lib HEXPAD) (part SN74HC165))
      (sheetpath (names /) (tstamps /))
      (tstamp 548A4D19))
    (comp (ref U73)
      (value RESIST)
      (libsource (lib HEXPAD) (part RESIST))
      (sheetpath (names /) (tstamps /))
      (tstamp 548A4D1F))
    (comp (ref U74)
      (value RESIST)
      (libsource (lib HEXPAD) (part RESIST))
      (sheetpath (names /) (tstamps /))
      (tstamp 548A4D25))
    (comp (ref U75)
      (value RESIST)
      (libsource (lib HEXPAD) (part RESIST))
      (sheetpath (names /) (tstamps /))
      (tstamp 548A4D2B))
    (comp (ref U76)
      (value RESIST)
      (libsource (lib HEXPAD) (part RESIST))
      (sheetpath (names /) (tstamps /))
      (tstamp 548A4D31))
    (comp (ref S77)
      (value CHMX)
      (libsource (lib HEXPAD) (part CHMX))
      (sheetpath (names /) (tstamps /))
      (tstamp 548A4D37))
    (comp (ref S78)
      (value CHMX)
      (libsource (lib HEXPAD) (part CHMX))
      (sheetpath (names /) (tstamps /))
      (tstamp 548A4D3D))
    (comp (ref S79)
      (value CHMX)
      (libsource (lib HEXPAD) (part CHMX))
      (sheetpath (names /) (tstamps /))
      (tstamp 548A4D43))
    (comp (ref S80)
      (value CHMX)
      (libsource (lib HEXPAD) (part CHMX))
      (sheetpath (names /) (tstamps /))
      (tstamp 548A4D49))
    (comp (ref S73)
      (value CHMX)
      (libsource (lib HEXPAD) (part CHMX))
      (sheetpath (names /) (tstamps /))
      (tstamp 548A4D4F))
    (comp (ref S74)
      (value CHMX)
      (libsource (lib HEXPAD) (part CHMX))
      (sheetpath (names /) (tstamps /))
      (tstamp 548A4D55))
    (comp (ref S75)
      (value CHMX)
      (libsource (lib HEXPAD) (part CHMX))
      (sheetpath (names /) (tstamps /))
      (tstamp 548A4D5B))
    (comp (ref S76)
      (value CHMX)
      (libsource (lib HEXPAD) (part CHMX))
      (sheetpath (names /) (tstamps /))
      (tstamp 548A4D61))
    (comp (ref U77)
      (value RESIST)
      (libsource (lib HEXPAD) (part RESIST))
      (sheetpath (names /) (tstamps /))
      (tstamp 548A4D67))
    (comp (ref U78)
      (value RESIST)
      (libsource (lib HEXPAD) (part RESIST))
      (sheetpath (names /) (tstamps /))
      (tstamp 548A4D6D))
    (comp (ref U79)
      (value RESIST)
      (libsource (lib HEXPAD) (part RESIST))
      (sheetpath (names /) (tstamps /))
      (tstamp 548A4D73))
    (comp (ref U80)
      (value RESIST)
      (libsource (lib HEXPAD) (part RESIST))
      (sheetpath (names /) (tstamps /))
      (tstamp 548A4D79))
    (comp (ref SR10)
      (value SN74HC165)
      (libsource (lib HEXPAD) (part SN74HC165))
      (sheetpath (names /) (tstamps /))
      (tstamp 548A4D7F))
    (comp (ref U81)
      (value RESIST)
      (libsource (lib HEXPAD) (part RESIST))
      (sheetpath (names /) (tstamps /))
      (tstamp 548A4D85))
    (comp (ref U82)
      (value RESIST)
      (libsource (lib HEXPAD) (part RESIST))
      (sheetpath (names /) (tstamps /))
      (tstamp 548A4D8B))
    (comp (ref U83)
      (value RESIST)
      (libsource (lib HEXPAD) (part RESIST))
      (sheetpath (names /) (tstamps /))
      (tstamp 548A4D91))
    (comp (ref U84)
      (value RESIST)
      (libsource (lib HEXPAD) (part RESIST))
      (sheetpath (names /) (tstamps /))
      (tstamp 548A4D97))
    (comp (ref S85)
      (value CHMX)
      (libsource (lib HEXPAD) (part CHMX))
      (sheetpath (names /) (tstamps /))
      (tstamp 548A4D9D))
    (comp (ref S86)
      (value CHMX)
      (libsource (lib HEXPAD) (part CHMX))
      (sheetpath (names /) (tstamps /))
      (tstamp 548A4DA3))
    (comp (ref S87)
      (value CHMX)
      (libsource (lib HEXPAD) (part CHMX))
      (sheetpath (names /) (tstamps /))
      (tstamp 548A4DA9))
    (comp (ref S88)
      (value CHMX)
      (libsource (lib HEXPAD) (part CHMX))
      (sheetpath (names /) (tstamps /))
      (tstamp 548A4DAF))
    (comp (ref S81)
      (value CHMX)
      (libsource (lib HEXPAD) (part CHMX))
      (sheetpath (names /) (tstamps /))
      (tstamp 548A4DB5))
    (comp (ref S82)
      (value CHMX)
      (libsource (lib HEXPAD) (part CHMX))
      (sheetpath (names /) (tstamps /))
      (tstamp 548A4DBB))
    (comp (ref S83)
      (value CHMX)
      (libsource (lib HEXPAD) (part CHMX))
      (sheetpath (names /) (tstamps /))
      (tstamp 548A4DC1))
    (comp (ref S84)
      (value CHMX)
      (libsource (lib HEXPAD) (part CHMX))
      (sheetpath (names /) (tstamps /))
      (tstamp 548A4DC7))
    (comp (ref U85)
      (value RESIST)
      (libsource (lib HEXPAD) (part RESIST))
      (sheetpath (names /) (tstamps /))
      (tstamp 548A4DCD))
    (comp (ref U86)
      (value RESIST)
      (libsource (lib HEXPAD) (part RESIST))
      (sheetpath (names /) (tstamps /))
      (tstamp 548A4DD3))
    (comp (ref U87)
      (value RESIST)
      (libsource (lib HEXPAD) (part RESIST))
      (sheetpath (names /) (tstamps /))
      (tstamp 548A4DD9))
    (comp (ref U88)
      (value RESIST)
      (libsource (lib HEXPAD) (part RESIST))
      (sheetpath (names /) (tstamps /))
      (tstamp 548A4DDF))
    (comp (ref SR11)
      (value SN74HC165)
      (libsource (lib HEXPAD) (part SN74HC165))
      (sheetpath (names /) (tstamps /))
      (tstamp 548A4DE5))
    (comp (ref U89)
      (value RESIST)
      (libsource (lib HEXPAD) (part RESIST))
      (sheetpath (names /) (tstamps /))
      (tstamp 548A4DEB))
    (comp (ref U90)
      (value RESIST)
      (libsource (lib HEXPAD) (part RESIST))
      (sheetpath (names /) (tstamps /))
      (tstamp 548A4DF1))
    (comp (ref U91)
      (value RESIST)
      (libsource (lib HEXPAD) (part RESIST))
      (sheetpath (names /) (tstamps /))
      (tstamp 548A4DF7))
    (comp (ref S89)
      (value CHMX)
      (libsource (lib HEXPAD) (part CHMX))
      (sheetpath (names /) (tstamps /))
      (tstamp 548A4E1B))
    (comp (ref S90)
      (value CHMX)
      (libsource (lib HEXPAD) (part CHMX))
      (sheetpath (names /) (tstamps /))
      (tstamp 548A4E21))
    (comp (ref S91)
      (value CHMX)
      (libsource (lib HEXPAD) (part CHMX))
      (sheetpath (names /) (tstamps /))
      (tstamp 548A4E27))
    (comp (ref SR12)
      (value SN74HC165)
      (libsource (lib HEXPAD) (part SN74HC165))
      (sheetpath (names /) (tstamps /))
      (tstamp 548A4E4B))
    (comp (ref U17)
      (value RESIST)
      (libsource (lib HEXPAD) (part RESIST))
      (sheetpath (names /) (tstamps /))
      (tstamp 548A3C4D))
    (comp (ref U18)
      (value RESIST)
      (libsource (lib HEXPAD) (part RESIST))
      (sheetpath (names /) (tstamps /))
      (tstamp 548A3C53))
    (comp (ref U19)
      (value RESIST)
      (libsource (lib HEXPAD) (part RESIST))
      (sheetpath (names /) (tstamps /))
      (tstamp 548A3C59))
    (comp (ref U20)
      (value RESIST)
      (libsource (lib HEXPAD) (part RESIST))
      (sheetpath (names /) (tstamps /))
      (tstamp 548A3C5F))
    (comp (ref U21)
      (value RESIST)
      (libsource (lib HEXPAD) (part RESIST))
      (sheetpath (names /) (tstamps /))
      (tstamp 548A3C65))
    (comp (ref U22)
      (value RESIST)
      (libsource (lib HEXPAD) (part RESIST))
      (sheetpath (names /) (tstamps /))
      (tstamp 548A3C6B))
    (comp (ref U23)
      (value RESIST)
      (libsource (lib HEXPAD) (part RESIST))
      (sheetpath (names /) (tstamps /))
      (tstamp 548A3C71))
    (comp (ref U24)
      (value RESIST)
      (libsource (lib HEXPAD) (part RESIST))
      (sheetpath (names /) (tstamps /))
      (tstamp 548A3C77))
    (comp (ref U9)
      (value RESIST)
      (libsource (lib HEXPAD) (part RESIST))
      (sheetpath (names /) (tstamps /))
      (tstamp 548A3C7D))
    (comp (ref U10)
      (value RESIST)
      (libsource (lib HEXPAD) (part RESIST))
      (sheetpath (names /) (tstamps /))
      (tstamp 548A3C83))
    (comp (ref U11)
      (value RESIST)
      (libsource (lib HEXPAD) (part RESIST))
      (sheetpath (names /) (tstamps /))
      (tstamp 548A3C89))
    (comp (ref U12)
      (value RESIST)
      (libsource (lib HEXPAD) (part RESIST))
      (sheetpath (names /) (tstamps /))
      (tstamp 548A3C8F))
    (comp (ref U13)
      (value RESIST)
      (libsource (lib HEXPAD) (part RESIST))
      (sheetpath (names /) (tstamps /))
      (tstamp 548A3C95))
    (comp (ref U14)
      (value RESIST)
      (libsource (lib HEXPAD) (part RESIST))
      (sheetpath (names /) (tstamps /))
      (tstamp 548A3C9B))
    (comp (ref U15)
      (value RESIST)
      (libsource (lib HEXPAD) (part RESIST))
      (sheetpath (names /) (tstamps /))
      (tstamp 548A3CA1))
    (comp (ref U16)
      (value RESIST)
      (libsource (lib HEXPAD) (part RESIST))
      (sheetpath (names /) (tstamps /))
      (tstamp 548A3CA7))
    (comp (ref U1)
      (value RESIST)
      (libsource (lib HEXPAD) (part RESIST))
      (sheetpath (names /) (tstamps /))
      (tstamp 548A3CAD))
    (comp (ref U2)
      (value RESIST)
      (libsource (lib HEXPAD) (part RESIST))
      (sheetpath (names /) (tstamps /))
      (tstamp 548A3CB3))
    (comp (ref U3)
      (value RESIST)
      (libsource (lib HEXPAD) (part RESIST))
      (sheetpath (names /) (tstamps /))
      (tstamp 548A3CB9))
    (comp (ref U4)
      (value RESIST)
      (libsource (lib HEXPAD) (part RESIST))
      (sheetpath (names /) (tstamps /))
      (tstamp 548A3CBF))
    (comp (ref U5)
      (value RESIST)
      (libsource (lib HEXPAD) (part RESIST))
      (sheetpath (names /) (tstamps /))
      (tstamp 548A3CC5))
    (comp (ref U6)
      (value RESIST)
      (libsource (lib HEXPAD) (part RESIST))
      (sheetpath (names /) (tstamps /))
      (tstamp 548A3CCB))
    (comp (ref U7)
      (value RESIST)
      (libsource (lib HEXPAD) (part RESIST))
      (sheetpath (names /) (tstamps /))
      (tstamp 548A3CD1))
    (comp (ref U8)
      (value RESIST)
      (libsource (lib HEXPAD) (part RESIST))
      (sheetpath (names /) (tstamps /))
      (tstamp 548A3CD7))
    (comp (ref MODULE1)
      (value TEENSY3.1)
      (libsource (lib HEXPAD) (part TEENSY3.1))
      (sheetpath (names /) (tstamps /))
      (tstamp 54F79A8A))
    (comp (ref P10)
      (value PIN)
      (libsource (lib HEXPAD) (part PIN))
      (sheetpath (names /) (tstamps /))
      (tstamp 54F7B076))
    (comp (ref PORT1)
      (value BUSB)
      (libsource (lib HEXPAD) (part BUSB))
      (sheetpath (names /) (tstamps /))
      (tstamp 54F7DC75))
    (comp (ref SN1)
      (value SN74HCT245)
      (libsource (lib HEXPAD) (part SN74HCT245))
      (sheetpath (names /) (tstamps /))
      (tstamp 54F80E6E))
    (comp (ref P1)
      (value PIN)
      (libsource (lib HEXPAD) (part PIN))
      (sheetpath (names /) (tstamps /))
      (tstamp 54F80F8B))
    (comp (ref PW1)
      (value POWER)
      (libsource (lib HEXPAD) (part POWER))
      (sheetpath (names /) (tstamps /))
      (tstamp 54FE6C93))
    (comp (ref LEDPower1)
      (value PIN)
      (libsource (lib HEXPAD) (part PIN))
      (sheetpath (names /) (tstamps /))
      (tstamp 54FE6CA2))
    (comp (ref GND1)
      (value PIN)
      (libsource (lib HEXPAD) (part PIN))
      (sheetpath (names /) (tstamps /))
      (tstamp 54FE72CC)))
  (libparts
    (libpart (lib HEXPAD) (part BUSB)
      (fields
        (field (name Reference) PORT)
        (field (name Value) BUSB)
        (field (name Footprint) ~)
        (field (name Datasheet) ~))
      (pins
        (pin (num D+) (name D+) (type input))
        (pin (num D-) (name D-) (type input))
        (pin (num USBG) (name USBG) (type input))
        (pin (num USBV) (name USBV) (type input))))
    (libpart (lib HEXPAD) (part CHMX)
      (fields
        (field (name Reference) S)
        (field (name Value) CHMX)
        (field (name Footprint) ~)
        (field (name Datasheet) ~))
      (pins
        (pin (num 1) (name IN) (type input))
        (pin (num 2) (name OUT) (type input))))
    (libpart (lib HEXPAD) (part PIN)
      (fields
        (field (name Reference) P)
        (field (name Value) PIN)
        (field (name Footprint) ~)
        (field (name Datasheet) ~))
      (pins
        (pin (num 1) (name PIN) (type input))))
    (libpart (lib HEXPAD) (part POWER)
      (fields
        (field (name Reference) PW)
        (field (name Value) POWER)
        (field (name Footprint) ~)
        (field (name Datasheet) ~))
      (pins
        (pin (num GND) (name GND) (type input))
        (pin (num ins) (name ins) (type input))
        (pin (num Vin) (name Vin) (type input))))
    (libpart (lib HEXPAD) (part RESIST)
      (fields
        (field (name Reference) R)
        (field (name Value) RESIST)
        (field (name Footprint) ~)
        (field (name Datasheet) ~))
      (pins
        (pin (num 1) (name 1) (type input))
        (pin (num 2) (name 2) (type input))))
    (libpart (lib HEXPAD) (part SN74HC165)
      (fields
        (field (name Reference) SR)
        (field (name Value) SN74HC165)
        (field (name Footprint) ~)
        (field (name Datasheet) ~))
      (pins
        (pin (num 1) (name ~PL) (type input))
        (pin (num 2) (name CP) (type input))
        (pin (num 3) (name D4) (type input))
        (pin (num 4) (name D5) (type input))
        (pin (num 5) (name D6) (type input))
        (pin (num 6) (name D7) (type input))
        (pin (num 7) (name ~Q7) (type input))
        (pin (num 8) (name GND) (type input))
        (pin (num 9) (name Q7) (type input))
        (pin (num 10) (name DS) (type input))
        (pin (num 11) (name D0) (type input))
        (pin (num 12) (name D1) (type input))
        (pin (num 13) (name D2) (type input))
        (pin (num 14) (name D3) (type input))
        (pin (num 15) (name ~CE) (type input))
        (pin (num 16) (name VCC) (type input))))
    (libpart (lib HEXPAD) (part SN74HCT245)
      (fields
        (field (name Reference) SN)
        (field (name Value) SN74HCT245)
        (field (name Footprint) ~)
        (field (name Datasheet) ~))
      (pins
        (pin (num 1) (name DIR) (type input))
        (pin (num 3) (name A2) (type input))
        (pin (num 10) (name GND) (type input))
        (pin (num 17) (name B2) (type input))
        (pin (num 19) (name ~OE) (type input))
        (pin (num 20) (name Vcc) (type input))))
    (libpart (lib HEXPAD) (part TEENSY3.1)
      (fields
        (field (name Reference) MODULE)
        (field (name Value) TEENSY3.1)
        (field (name Footprint) ~)
        (field (name Datasheet) ~))
      (pins
        (pin (num 0) (name 0) (type input))
        (pin (num 1) (name 1) (type input))
        (pin (num 2) (name 2) (type input))
        (pin (num 3) (name 3) (type input))
        (pin (num 4) (name 4) (type input))
        (pin (num 5) (name 5) (type input))
        (pin (num 6) (name 6) (type input))
        (pin (num 7) (name 7) (type input))
        (pin (num 8) (name 8) (type input))
        (pin (num 9) (name 9) (type input))
        (pin (num 10) (name 10) (type input))
        (pin (num 11) (name 11) (type input))
        (pin (num 12) (name 12) (type input))
        (pin (num 13) (name 13) (type input))
        (pin (num 14) (name 14) (type input))
        (pin (num 15) (name 15) (type input))
        (pin (num 16) (name 16) (type input))
        (pin (num 17) (name 17) (type input))
        (pin (num 18) (name 18) (type input))
        (pin (num 19) (name 19) (type input))
        (pin (num 20) (name 20) (type input))
        (pin (num 21) (name 21) (type input))
        (pin (num 22) (name 22) (type input))
        (pin (num 23) (name 23) (type input))
        (pin (num 3.3V) (name 3.3V) (type input))
        (pin (num AGND) (name AGND) (type input))
        (pin (num D+) (name D+) (type input))
        (pin (num D-) (name D-) (type input))
        (pin (num GND) (name GND) (type input))
        (pin (num USBG) (name USBG) (type input))
        (pin (num USBV) (name USBV) (type input))
        (pin (num Vin) (name Vin) (type input)))))
  (libraries
    (library (logical HEXPAD)
      (uri C:\Users\asus\Desktop\pcbcb\HEXPAD.lib)))
  (nets
    (net (code 1) (name "")
      (node (ref S48) (pin 2))
      (node (ref U48) (pin 2))
      (node (ref SR6) (pin 6)))
    (net (code 2) (name "")
      (node (ref SR6) (pin 5))
      (node (ref S47) (pin 2))
      (node (ref U47) (pin 2)))
    (net (code 3) (name "")
      (node (ref S46) (pin 2))
      (node (ref U46) (pin 2))
      (node (ref SR6) (pin 4)))
    (net (code 4) (name "")
      (node (ref U45) (pin 2))
      (node (ref SR6) (pin 3))
      (node (ref S45) (pin 2)))
    (net (code 5) (name "")
      (node (ref U44) (pin 2))
      (node (ref S44) (pin 2))
      (node (ref SR6) (pin 14)))
    (net (code 6) (name "")
      (node (ref S43) (pin 2))
      (node (ref SR6) (pin 13))
      (node (ref U43) (pin 2)))
    (net (code 7) (name "")
      (node (ref SR4) (pin 10))
      (node (ref SR5) (pin 9)))
    (net (code 8) (name "")
      (node (ref U42) (pin 2))
      (node (ref S42) (pin 2))
      (node (ref SR6) (pin 12)))
    (net (code 9) (name "")
      (node (ref SR6) (pin 9))
      (node (ref SR5) (pin 10)))
    (net (code 10) (name "")
      (node (ref SR5) (pin 6))
      (node (ref S40) (pin 2))
      (node (ref U40) (pin 2)))
    (net (code 11) (name "")
      (node (ref U39) (pin 2))
      (node (ref S39) (pin 2))
      (node (ref SR5) (pin 5)))
    (net (code 12) (name "")
      (node (ref U38) (pin 2))
      (node (ref SR5) (pin 4))
      (node (ref S38) (pin 2)))
    (net (code 13) (name "")
      (node (ref U37) (pin 2))
      (node (ref SR5) (pin 3))
      (node (ref S37) (pin 2)))
    (net (code 14) (name "")
      (node (ref U41) (pin 2))
      (node (ref S41) (pin 2))
      (node (ref SR6) (pin 11)))
    (net (code 15) (name "")
      (node (ref SR7) (pin 9))
      (node (ref SR6) (pin 10)))
    (net (code 16) (name "")
      (node (ref SR7) (pin 14))
      (node (ref S52) (pin 2))
      (node (ref U52) (pin 2)))
    (net (code 17) (name "")
      (node (ref U56) (pin 2))
      (node (ref SR7) (pin 6))
      (node (ref S56) (pin 2)))
    (net (code 18) (name "")
      (node (ref S55) (pin 2))
      (node (ref U55) (pin 2))
      (node (ref SR7) (pin 5)))
    (net (code 19) (name "")
      (node (ref S54) (pin 2))
      (node (ref U54) (pin 2))
      (node (ref SR7) (pin 4)))
    (net (code 20) (name "")
      (node (ref S53) (pin 2))
      (node (ref U53) (pin 2))
      (node (ref SR7) (pin 3)))
    (net (code 21) (name "")
      (node (ref SR5) (pin 14))
      (node (ref S36) (pin 2))
      (node (ref U36) (pin 2)))
    (net (code 22) (name "")
      (node (ref SR7) (pin 13))
      (node (ref U51) (pin 2))
      (node (ref S51) (pin 2)))
    (net (code 23) (name "")
      (node (ref S50) (pin 2))
      (node (ref U50) (pin 2))
      (node (ref SR7) (pin 12)))
    (net (code 24) (name "")
      (node (ref SR7) (pin 11))
      (node (ref S49) (pin 2))
      (node (ref U49) (pin 2)))
    (net (code 25) (name "")
      (node (ref U24) (pin 2))
      (node (ref SR3) (pin 6))
      (node (ref S24) (pin 2)))
    (net (code 26) (name "")
      (node (ref U23) (pin 2))
      (node (ref S23) (pin 2))
      (node (ref SR3) (pin 5)))
    (net (code 27) (name "")
      (node (ref U22) (pin 2))
      (node (ref S22) (pin 2))
      (node (ref SR3) (pin 4)))
    (net (code 28) (name "")
      (node (ref U21) (pin 2))
      (node (ref S21) (pin 2))
      (node (ref SR3) (pin 3)))
    (net (code 29) (name "")
      (node (ref U20) (pin 2))
      (node (ref S20) (pin 2))
      (node (ref SR3) (pin 14)))
    (net (code 30) (name "")
      (node (ref SR2) (pin 10))
      (node (ref SR3) (pin 9)))
    (net (code 31) (name "")
      (node (ref S19) (pin 2))
      (node (ref U19) (pin 2))
      (node (ref SR3) (pin 13)))
    (net (code 32) (name "")
      (node (ref U18) (pin 2))
      (node (ref S18) (pin 2))
      (node (ref SR3) (pin 12)))
    (net (code 33) (name "")
      (node (ref U17) (pin 2))
      (node (ref S17) (pin 2))
      (node (ref SR3) (pin 11)))
    (net (code 34) (name "")
      (node (ref SR4) (pin 9))
      (node (ref SR3) (pin 10)))
    (net (code 35) (name "")
      (node (ref SR5) (pin 13))
      (node (ref U35) (pin 2))
      (node (ref S35) (pin 2)))
    (net (code 36) (name "")
      (node (ref S34) (pin 2))
      (node (ref U34) (pin 2))
      (node (ref SR5) (pin 12)))
    (net (code 37) (name "")
      (node (ref S33) (pin 2))
      (node (ref U33) (pin 2))
      (node (ref SR5) (pin 11)))
    (net (code 38) (name "")
      (node (ref SR4) (pin 14))
      (node (ref U28) (pin 2))
      (node (ref S28) (pin 2)))
    (net (code 39) (name "")
      (node (ref S27) (pin 2))
      (node (ref SR4) (pin 13))
      (node (ref U27) (pin 2)))
    (net (code 40) (name "")
      (node (ref S26) (pin 2))
      (node (ref U26) (pin 2))
      (node (ref SR4) (pin 12)))
    (net (code 41) (name "")
      (node (ref U25) (pin 2))
      (node (ref SR4) (pin 11))
      (node (ref S25) (pin 2)))
    (net (code 42) (name "")
      (node (ref U32) (pin 2))
      (node (ref S32) (pin 2))
      (node (ref SR4) (pin 6)))
    (net (code 43) (name "")
      (node (ref SR4) (pin 5))
      (node (ref U31) (pin 2))
      (node (ref S31) (pin 2)))
    (net (code 44) (name "")
      (node (ref S30) (pin 2))
      (node (ref SR4) (pin 4))
      (node (ref U30) (pin 2)))
    (net (code 45) (name "")
      (node (ref SR4) (pin 3))
      (node (ref S29) (pin 2))
      (node (ref U29) (pin 2)))
    (net (code 46) (name "")
      (node (ref SR11) (pin 9))
      (node (ref SR10) (pin 10)))
    (net (code 47) (name "")
      (node (ref S90) (pin 2))
      (node (ref U90) (pin 2))
      (node (ref SR12) (pin 12)))
    (net (code 48) (name "")
      (node (ref U91) (pin 2))
      (node (ref S91) (pin 2))
      (node (ref SR12) (pin 13)))
    (net (code 49) (name "")
      (node (ref U89) (pin 2))
      (node (ref S89) (pin 2))
      (node (ref SR12) (pin 11)))
    (net (code 50) (name "")
      (node (ref SR11) (pin 11))
      (node (ref S81) (pin 2))
      (node (ref U81) (pin 2)))
    (net (code 51) (name "")
      (node (ref SR11) (pin 5))
      (node (ref U87) (pin 2))
      (node (ref S87) (pin 2)))
    (net (code 52) (name "")
      (node (ref U88) (pin 2))
      (node (ref S88) (pin 2))
      (node (ref SR11) (pin 6)))
    (net (code 53) (name "")
      (node (ref SR12) (pin 9))
      (node (ref SR11) (pin 10)))
    (net (code 54) (name "")
      (node (ref S86) (pin 2))
      (node (ref U86) (pin 2))
      (node (ref SR11) (pin 4)))
    (net (code 55) (name "")
      (node (ref U85) (pin 2))
      (node (ref S85) (pin 2))
      (node (ref SR11) (pin 3)))
    (net (code 56) (name "")
      (node (ref U84) (pin 2))
      (node (ref SR11) (pin 14))
      (node (ref S84) (pin 2)))
    (net (code 57) (name "")
      (node (ref S83) (pin 2))
      (node (ref U83) (pin 2))
      (node (ref SR11) (pin 13)))
    (net (code 58) (name "")
      (node (ref S82) (pin 2))
      (node (ref SR11) (pin 12))
      (node (ref U82) (pin 2)))
    (net (code 59) (name "")
      (node (ref PORT1) (pin D-))
      (node (ref MODULE1) (pin D-)))
    (net (code 60) (name "")
      (node (ref SN1) (pin 17))
      (node (ref MODULE1) (pin 10)))
    (net (code 61) (name "")
      (node (ref PORT1) (pin USBV))
      (node (ref MODULE1) (pin USBV)))
    (net (code 62) (name "")
      (node (ref MODULE1) (pin USBG))
      (node (ref PORT1) (pin USBG)))
    (net (code 63) (name "")
      (node (ref PORT1) (pin D+))
      (node (ref MODULE1) (pin D+)))
    (net (code 64) (name "")
      (node (ref MODULE1) (pin 14))
      (node (ref PW1) (pin ins)))
    (net (code 65) (name "")
      (node (ref LEDPower1) (pin 1))
      (node (ref PW1) (pin Vin)))
    (net (code 66) (name "")
      (node (ref P1) (pin 1))
      (node (ref SR12) (pin 10)))
    (net (code 67) (name "")
      (node (ref P10) (pin 1))
      (node (ref SN1) (pin 3)))
    (net (code 68) (name "")
      (node (ref SR9) (pin 9))
      (node (ref SR8) (pin 10)))
    (net (code 69) (name "")
      (node (ref MODULE1) (pin 12))
      (node (ref SR1) (pin 9)))
    (net (code 70) (name "")
      (node (ref SR7) (pin 10))
      (node (ref SR8) (pin 9)))
    (net (code 71) (name "")
      (node (ref SR9) (pin 12))
      (node (ref U66) (pin 2))
      (node (ref S66) (pin 2)))
    (net (code 72) (name "")
      (node (ref U71) (pin 2))
      (node (ref S71) (pin 2))
      (node (ref SR9) (pin 5)))
    (net (code 73) (name "")
      (node (ref U70) (pin 2))
      (node (ref SR9) (pin 4))
      (node (ref S70) (pin 2)))
    (net (code 74) (name "")
      (node (ref S69) (pin 2))
      (node (ref U69) (pin 2))
      (node (ref SR9) (pin 3)))
    (net (code 75) (name "")
      (node (ref U68) (pin 2))
      (node (ref SR9) (pin 14))
      (node (ref S68) (pin 2)))
    (net (code 76) (name "")
      (node (ref U67) (pin 2))
      (node (ref S67) (pin 2))
      (node (ref SR9) (pin 13)))
    (net (code 77) (name "")
      (node (ref SR9) (pin 11))
      (node (ref S65) (pin 2))
      (node (ref U65) (pin 2)))
    (net (code 78) (name "")
      (node (ref U60) (pin 2))
      (node (ref S60) (pin 2))
      (node (ref SR8) (pin 14)))
    (net (code 79) (name "")
      (node (ref S64) (pin 2))
      (node (ref U64) (pin 2))
      (node (ref SR8) (pin 6)))
    (net (code 80) (name "")
      (node (ref SR8) (pin 5))
      (node (ref U63) (pin 2))
      (node (ref S63) (pin 2)))
    (net (code 81) (name "")
      (node (ref SR8) (pin 4))
      (node (ref U62) (pin 2))
      (node (ref S62) (pin 2)))
    (net (code 82) (name "")
      (node (ref U61) (pin 2))
      (node (ref S61) (pin 2))
      (node (ref SR8) (pin 3)))
    (net (code 83) (name "")
      (node (ref SR8) (pin 13))
      (node (ref S59) (pin 2))
      (node (ref U59) (pin 2)))
    (net (code 84) (name "")
      (node (ref S58) (pin 2))
      (node (ref SR8) (pin 12))
      (node (ref U58) (pin 2)))
    (net (code 85) (name "")
      (node (ref S57) (pin 2))
      (node (ref SR8) (pin 11))
      (node (ref U57) (pin 2)))
    (net (code 86) (name "")
      (node (ref U72) (pin 2))
      (node (ref S72) (pin 2))
      (node (ref SR9) (pin 6)))
    (net (code 87) (name "")
      (node (ref SR10) (pin 6))
      (node (ref U80) (pin 2))
      (node (ref S80) (pin 2)))
    (net (code 88) (name "")
      (node (ref U79) (pin 2))
      (node (ref S79) (pin 2))
      (node (ref SR10) (pin 5)))
    (net (code 89) (name "")
      (node (ref U78) (pin 2))
      (node (ref S78) (pin 2))
      (node (ref SR10) (pin 4)))
    (net (code 90) (name "")
      (node (ref SR7) (pin 2))
      (node (ref MODULE1) (pin 13))
      (node (ref SR6) (pin 2))
      (node (ref SR5) (pin 2))
      (node (ref SR4) (pin 2))
      (node (ref SR8) (pin 2))
      (node (ref SR9) (pin 2))
      (node (ref SR2) (pin 2))
      (node (ref SR10) (pin 2))
      (node (ref SR12) (pin 2))
      (node (ref SR3) (pin 2))
      (node (ref SR1) (pin 2))
      (node (ref SR11) (pin 2)))
    (net (code 91) (name "")
      (node (ref SR9) (pin 10))
      (node (ref SR10) (pin 9)))
    (net (code 92) (name "")
      (node (ref SR10) (pin 3))
      (node (ref U77) (pin 2))
      (node (ref S77) (pin 2)))
    (net (code 93) (name "")
      (node (ref SR10) (pin 14))
      (node (ref U76) (pin 2))
      (node (ref S76) (pin 2)))
    (net (code 94) (name "")
      (node (ref SR10) (pin 13))
      (node (ref U75) (pin 2))
      (node (ref S75) (pin 2)))
    (net (code 95) (name "")
      (node (ref SR10) (pin 12))
      (node (ref S74) (pin 2))
      (node (ref U74) (pin 2)))
    (net (code 96) (name "")
      (node (ref SR10) (pin 11))
      (node (ref S73) (pin 2))
      (node (ref U73) (pin 2)))
    (net (code 97) (name "")
      (node (ref SR6) (pin 7)))
    (net (code 98) (name "")
      (node (ref SR5) (pin 7)))
    (net (code 99) (name "")
      (node (ref SR8) (pin 7)))
    (net (code 100) (name "")
      (node (ref SR7) (pin 7)))
    (net (code 101) (name "")
      (node (ref SR1) (pin 10))
      (node (ref SR2) (pin 9)))
    (net (code 102) (name "")
      (node (ref SR2) (pin 7)))
    (net (code 103) (name "")
      (node (ref SR2) (pin 14))
      (node (ref U12) (pin 2))
      (node (ref S12) (pin 2)))
    (net (code 104) (name "")
      (node (ref MODULE1) (pin 11))
      (node (ref SR9) (pin 1))
      (node (ref SR7) (pin 1))
      (node (ref SR4) (pin 1))
      (node (ref SR6) (pin 1))
      (node (ref SR3) (pin 1))
      (node (ref SR5) (pin 1))
      (node (ref SR2) (pin 1))
      (node (ref SR8) (pin 1))
      (node (ref SR11) (pin 1))
      (node (ref SR12) (pin 1))
      (node (ref SR10) (pin 1))
      (node (ref SR1) (pin 1)))
    (net (code 105) (name "")
      (node (ref U6) (pin 2))
      (node (ref S6) (pin 2))
      (node (ref SR1) (pin 4)))
    (net (code 106) (name "")
      (node (ref SR1) (pin 7)))
    (net (code 107) (name "")
      (node (ref SR4) (pin 7)))
    (net (code 108) (name "")
      (node (ref SR3) (pin 7)))
    (net (code 109) (name "")
      (node (ref MODULE1) (pin 19)))
    (net (code 110) (name "")
      (node (ref MODULE1) (pin 3.3V)))
    (net (code 111) (name "")
      (node (ref MODULE1) (pin AGND)))
    (net (code 112) (name "")
      (node (ref MODULE1) (pin 18)))
    (net (code 113) (name "")
      (node (ref MODULE1) (pin 17)))
    (net (code 114) (name "")
      (node (ref MODULE1) (pin 16)))
    (net (code 115) (name "")
      (node (ref MODULE1) (pin 15)))
    (net (code 116) (name "")
      (node (ref MODULE1) (pin 23)))
    (net (code 117) (name "")
      (node (ref MODULE1) (pin 22)))
    (net (code 118) (name "")
      (node (ref MODULE1) (pin 21)))
    (net (code 119) (name "")
      (node (ref MODULE1) (pin 3)))
    (net (code 120) (name "")
      (node (ref MODULE1) (pin 20)))
    (net (code 121) (name "")
      (node (ref MODULE1) (pin 9)))
    (net (code 122) (name "")
      (node (ref MODULE1) (pin 8)))
    (net (code 123) (name "")
      (node (ref MODULE1) (pin 7)))
    (net (code 124) (name "")
      (node (ref MODULE1) (pin 6)))
    (net (code 125) (name "")
      (node (ref MODULE1) (pin 5)))
    (net (code 126) (name "")
      (node (ref MODULE1) (pin 4)))
    (net (code 127) (name "")
      (node (ref MODULE1) (pin 2)))
    (net (code 128) (name "")
      (node (ref MODULE1) (pin 1)))
    (net (code 129) (name "")
      (node (ref MODULE1) (pin 0)))
    (net (code 130) (name "")
      (node (ref SR2) (pin 6))
      (node (ref S16) (pin 2))
      (node (ref U16) (pin 2)))
    (net (code 131) (name "")
      (node (ref U15) (pin 2))
      (node (ref SR2) (pin 5))
      (node (ref S15) (pin 2)))
    (net (code 132) (name "")
      (node (ref SR2) (pin 4))
      (node (ref U14) (pin 2))
      (node (ref S14) (pin 2)))
    (net (code 133) (name "")
      (node (ref SR2) (pin 3))
      (node (ref S13) (pin 2))
      (node (ref U13) (pin 2)))
    (net (code 134) (name "")
      (node (ref SR2) (pin 13))
      (node (ref S11) (pin 2))
      (node (ref U11) (pin 2)))
    (net (code 135) (name "")
      (node (ref S10) (pin 2))
      (node (ref SR2) (pin 12))
      (node (ref U10) (pin 2)))
    (net (code 136) (name "")
      (node (ref U9) (pin 2))
      (node (ref SR2) (pin 11))
      (node (ref S9) (pin 2)))
    (net (code 137) (name "")
      (node (ref S8) (pin 2))
      (node (ref U8) (pin 2))
      (node (ref SR1) (pin 6)))
    (net (code 138) (name "")
      (node (ref SR1) (pin 5))
      (node (ref U7) (pin 2))
      (node (ref S7) (pin 2)))
    (net (code 139) (name "")
      (node (ref S5) (pin 2))
      (node (ref SR1) (pin 3))
      (node (ref U5) (pin 2)))
    (net (code 140) (name "")
      (node (ref S4) (pin 2))
      (node (ref SR1) (pin 14))
      (node (ref U4) (pin 2)))
    (net (code 141) (name "")
      (node (ref S3) (pin 2))
      (node (ref SR1) (pin 13))
      (node (ref U3) (pin 2)))
    (net (code 142) (name "")
      (node (ref SR1) (pin 12))
      (node (ref S2) (pin 2))
      (node (ref U2) (pin 2)))
    (net (code 143) (name "")
      (node (ref S1) (pin 2))
      (node (ref U1) (pin 2))
      (node (ref SR1) (pin 11)))
    (net (code 144) (name "")
      (node (ref SR10) (pin 7)))
    (net (code 145) (name "")
      (node (ref SR9) (pin 7)))
    (net (code 146) (name "")
      (node (ref SR12) (pin 7)))
    (net (code 147) (name "")
      (node (ref SR12) (pin 6)))
    (net (code 148) (name "")
      (node (ref SR12) (pin 5)))
    (net (code 149) (name "")
      (node (ref SR12) (pin 4)))
    (net (code 150) (name "")
      (node (ref SR12) (pin 3)))
    (net (code 151) (name "")
      (node (ref SR12) (pin 14)))
    (net (code 152) (name +5V)
      (node (ref S4) (pin 1))
      (node (ref S19) (pin 1))
      (node (ref S9) (pin 1))
      (node (ref S17) (pin 1))
      (node (ref S20) (pin 1))
      (node (ref S16) (pin 1))
      (node (ref S24) (pin 1))
      (node (ref S6) (pin 1))
      (node (ref S23) (pin 1))
      (node (ref S3) (pin 1))
      (node (ref S22) (pin 1))
      (node (ref S21) (pin 1))
      (node (ref S7) (pin 1))
      (node (ref S2) (pin 1))
      (node (ref S1) (pin 1))
      (node (ref S15) (pin 1))
      (node (ref S14) (pin 1))
      (node (ref S13) (pin 1))
      (node (ref SR1) (pin 16))
      (node (ref S8) (pin 1))
      (node (ref S68) (pin 1))
      (node (ref S78) (pin 1))
      (node (ref SR10) (pin 16))
      (node (ref S79) (pin 1))
      (node (ref S80) (pin 1))
      (node (ref S73) (pin 1))
      (node (ref S74) (pin 1))
      (node (ref S75) (pin 1))
      (node (ref S76) (pin 1))
      (node (ref S67) (pin 1))
      (node (ref SR12) (pin 16))
      (node (ref S5) (pin 1))
      (node (ref SR11) (pin 16))
      (node (ref S85) (pin 1))
      (node (ref S86) (pin 1))
      (node (ref S87) (pin 1))
      (node (ref S88) (pin 1))
      (node (ref S81) (pin 1))
      (node (ref S82) (pin 1))
      (node (ref S83) (pin 1))
      (node (ref S84) (pin 1))
      (node (ref S89) (pin 1))
      (node (ref S90) (pin 1))
      (node (ref S91) (pin 1))
      (node (ref S77) (pin 1))
      (node (ref SR9) (pin 16))
      (node (ref S65) (pin 1))
      (node (ref S66) (pin 1))
      (node (ref S35) (pin 1))
      (node (ref S28) (pin 1))
      (node (ref SR3) (pin 16))
      (node (ref S29) (pin 1))
      (node (ref S30) (pin 1))
      (node (ref S37) (pin 1))
      (node (ref S38) (pin 1))
      (node (ref S39) (pin 1))
      (node (ref S40) (pin 1))
      (node (ref S33) (pin 1))
      (node (ref S36) (pin 1))
      (node (ref S34) (pin 1))
      (node (ref SR4) (pin 16))
      (node (ref S31) (pin 1))
      (node (ref SN1) (pin 20))
      (node (ref MODULE1) (pin Vin))
      (node (ref S32) (pin 1))
      (node (ref S25) (pin 1))
      (node (ref S26) (pin 1))
      (node (ref S27) (pin 1))
      (node (ref S72) (pin 1))
      (node (ref S50) (pin 1))
      (node (ref SR6) (pin 16))
      (node (ref S51) (pin 1))
      (node (ref S49) (pin 1))
      (node (ref S56) (pin 1))
      (node (ref S55) (pin 1))
      (node (ref S54) (pin 1))
      (node (ref S53) (pin 1))
      (node (ref S18) (pin 1))
      (node (ref SR7) (pin 16))
      (node (ref S63) (pin 1))
      (node (ref S62) (pin 1))
      (node (ref S61) (pin 1))
      (node (ref S42) (pin 1))
      (node (ref S41) (pin 1))
      (node (ref S52) (pin 1))
      (node (ref S45) (pin 1))
      (node (ref S47) (pin 1))
      (node (ref S46) (pin 1))
      (node (ref S71) (pin 1))
      (node (ref S57) (pin 1))
      (node (ref S44) (pin 1))
      (node (ref S69) (pin 1))
      (node (ref S70) (pin 1))
      (node (ref S10) (pin 1))
      (node (ref S59) (pin 1))
      (node (ref S60) (pin 1))
      (node (ref S43) (pin 1))
      (node (ref S11) (pin 1))
      (node (ref SR2) (pin 16))
      (node (ref S12) (pin 1))
      (node (ref SR8) (pin 16))
      (node (ref S48) (pin 1))
      (node (ref SR5) (pin 16))
      (node (ref S64) (pin 1))
      (node (ref S58) (pin 1)))
    (net (code 153) (name "")
      (node (ref SR11) (pin 7)))
    (net (code 154) (name GND)
      (node (ref U55) (pin 1))
      (node (ref SR9) (pin 15))
      (node (ref U84) (pin 1))
      (node (ref U70) (pin 1))
      (node (ref U76) (pin 1))
      (node (ref U56) (pin 1))
      (node (ref U73) (pin 1))
      (node (ref U75) (pin 1))
      (node (ref U54) (pin 1))
      (node (ref U74) (pin 1))
      (node (ref U66) (pin 1))
      (node (ref SR7) (pin 8))
      (node (ref SR10) (pin 8))
      (node (ref SR8) (pin 15))
      (node (ref U65) (pin 1))
      (node (ref SR10) (pin 15))
      (node (ref U81) (pin 1))
      (node (ref U67) (pin 1))
      (node (ref U82) (pin 1))
      (node (ref U68) (pin 1))
      (node (ref U83) (pin 1))
      (node (ref SR1) (pin 15))
      (node (ref U69) (pin 1))
      (node (ref U71) (pin 1))
      (node (ref U72) (pin 1))
      (node (ref U87) (pin 1))
      (node (ref SR2) (pin 15))
      (node (ref SR7) (pin 15))
      (node (ref U85) (pin 1))
      (node (ref U86) (pin 1))
      (node (ref U57) (pin 1))
      (node (ref SR12) (pin 15))
      (node (ref U88) (pin 1))
      (node (ref U58) (pin 1))
      (node (ref SR11) (pin 15))
      (node (ref U89) (pin 1))
      (node (ref SR11) (pin 8))
      (node (ref SR2) (pin 8))
      (node (ref U91) (pin 1))
      (node (ref SR12) (pin 8))
      (node (ref SR9) (pin 8))
      (node (ref U17) (pin 1))
      (node (ref U18) (pin 1))
      (node (ref U19) (pin 1))
      (node (ref U20) (pin 1))
      (node (ref U90) (pin 1))
      (node (ref U21) (pin 1))
      (node (ref U53) (pin 1))
      (node (ref U22) (pin 1))
      (node (ref U59) (pin 1))
      (node (ref U23) (pin 1))
      (node (ref U24) (pin 1))
      (node (ref U60) (pin 1))
      (node (ref U9) (pin 1))
      (node (ref U15) (pin 1))
      (node (ref U26) (pin 1))
      (node (ref U11) (pin 1))
      (node (ref U12) (pin 1))
      (node (ref U13) (pin 1))
      (node (ref SR3) (pin 15))
      (node (ref U14) (pin 1))
      (node (ref U5) (pin 1))
      (node (ref U16) (pin 1))
      (node (ref U1) (pin 1))
      (node (ref U2) (pin 1))
      (node (ref U3) (pin 1))
      (node (ref U4) (pin 1))
      (node (ref U6) (pin 1))
      (node (ref U28) (pin 1))
      (node (ref U7) (pin 1))
      (node (ref U8) (pin 1))
      (node (ref U27) (pin 1))
      (node (ref SR3) (pin 8))
      (node (ref MODULE1) (pin GND))
      (node (ref U32) (pin 1))
      (node (ref U49) (pin 1))
      (node (ref U48) (pin 1))
      (node (ref U31) (pin 1))
      (node (ref U47) (pin 1))
      (node (ref SN1) (pin 1))
      (node (ref SR6) (pin 8))
      (node (ref U46) (pin 1))
      (node (ref U41) (pin 1))
      (node (ref U30) (pin 1))
      (node (ref U29) (pin 1))
      (node (ref U42) (pin 1))
      (node (ref U50) (pin 1))
      (node (ref U51) (pin 1))
      (node (ref U52) (pin 1))
      (node (ref SN1) (pin 10))
      (node (ref SN1) (pin 19))
      (node (ref SR6) (pin 15))
      (node (ref SR5) (pin 15))
      (node (ref U10) (pin 1))
      (node (ref U34) (pin 1))
      (node (ref U44) (pin 1))
      (node (ref U61) (pin 1))
      (node (ref PW1) (pin GND))
      (node (ref SR1) (pin 8))
      (node (ref U62) (pin 1))
      (node (ref U77) (pin 1))
      (node (ref U63) (pin 1))
      (node (ref U78) (pin 1))
      (node (ref U79) (pin 1))
      (node (ref U80) (pin 1))
      (node (ref U64) (pin 1))
      (node (ref SR8) (pin 8))
      (node (ref U43) (pin 1))
      (node (ref U36) (pin 1))
      (node (ref U35) (pin 1))
      (node (ref U39) (pin 1))
      (node (ref U38) (pin 1))
      (node (ref U37) (pin 1))
      (node (ref U45) (pin 1))
      (node (ref U40) (pin 1))
      (node (ref U25) (pin 1))
      (node (ref SR5) (pin 8))
      (node (ref U33) (pin 1))
      (node (ref SR4) (pin 15))
      (node (ref GND1) (pin 1))
      (node (ref SR4) (pin 8)))))