PCBNEW-LibModule-V1  3/9/2015 11:00:16 PM
# encoding utf-8
Units mm
$INDEX
BUSB
CHMX
CUSTSM0805
PIN
Power
SM0805
SN74HC245
SN74HD165
TACT
Teensy
Teensymod
Teensyside
WS2812B
WS2812BU
WS2812BUSD
$EndINDEX
$MODULE BUSB
Po 0 0 0 15 54F7F1A7 00000000 ~~
Li BUSB
Sc 0
AR 
Op 0 0 0
T0 10.16 -8.89 1 1 0 0.15 N V 21 N "BUSB"
T1 15.24 -8.89 1 1 0 0.15 N V 21 N "VAL**"
DS -6.35 -5.08 6.35 -5.08 0.15 21
DS 6.35 -5.08 6.35 10.16 0.15 21
DS 6.35 10.16 -6.35 10.16 0.15 21
DS -6.35 10.16 -6.35 -5.08 0.15 21
$PAD
Sh "D+" C 1.5 1.5 0 0 0
Dr 1 0 0
At STD N 00E0FFFF
Ne 0 ""
Po -1.25 -2.71
$EndPAD
$PAD
Sh "USBG" C 1.5 1.5 0 0 0
Dr 1 0 0
At STD N 00E0FFFF
Ne 0 ""
Po 1.25 -2.71
$EndPAD
$PAD
Sh "D-" C 1.5 1.5 0 0 0
Dr 1 0 0
At STD N 00E0FFFF
Ne 0 ""
Po -1.25 -4.71
$EndPAD
$PAD
Sh "USBV" C 1.5 1.5 0 0 0
Dr 1 0 0
At STD N 00E0FFFF
Ne 0 ""
Po 1.25 -4.71
$EndPAD
$PAD
Sh "0" C 3 3 0 0 0
Dr 2.4 0 0
At STD N 00E0FFFF
Ne 0 ""
Po 6.02 0
$EndPAD
$PAD
Sh "0" C 3 3 0 0 0
Dr 2.4 0 0
At STD N 00E0FFFF
Ne 0 ""
Po -6.04 0
$EndPAD
$EndMODULE BUSB
$MODULE CHMX
Po 0 0 0 15 548E4FA4 00000000 ~~
Li CHMX
Sc 0
AR 
Op 0 0 0
T0 0 3.5 1 1 0 0.15 N V 21 N "CHMX"
T1 0 6 1 1 0 0.15 N V 21 N "S**"
DS -7.5 -7.5 7.5 -7.5 0.15 21
DS 7.5 -7.5 7.5 7.5 0.15 21
DS 7.5 7.5 -7.5 7.5 0.15 21
DS -7.5 7.5 -7.5 -7.5 0.15 21
$PAD
Sh "1" C 2.54 2.54 0 0 0
Dr 1.27 0 0
At STD N 00E0FFFF
Ne 0 ""
Po -3.81 -2.54
$EndPAD
$PAD
Sh "2" C 2.54 2.54 0 0 0
Dr 1.27 0 0
At STD N 00E0FFFF
Ne 0 ""
Po 2.54 -5.08
$EndPAD
$PAD
Sh "" C 4 4 0 0 0
Dr 4 0 0
At STD N 00E0FFFF
Ne 0 ""
Po 0 0
$EndPAD
$EndMODULE CHMX
$MODULE CUSTSM0805
Po 0 0 0 15 548A61F6 00000000 ~~
Li CUSTSM0805
Sc 0
AR /548A3CC5
Op 0 0 0
At SMD
T0 0 -0.3175 0.50038 0.50038 0 0.10922 N V 21 N "U?"
T1 0 0.381 0.50038 0.50038 0 0.10922 N V 21 N "RESIST"
DC -1.651 0.762 -1.651 0.635 0.09906 21
DS -0.508 0.762 -1.524 0.762 0.09906 21
DS -1.524 0.762 -1.524 -0.762 0.09906 21
DS -1.524 -0.762 -0.508 -0.762 0.09906 21
DS 0.508 -0.762 1.524 -0.762 0.09906 21
DS 1.524 -0.762 1.524 0.762 0.09906 21
DS 1.524 0.762 0.508 0.762 0.09906 21
$PAD
Sh "1" R 0.889 1.397 0 0 0
Dr 0 0 0
At SMD N 00888000
Ne 0 ""
Po -0.9525 0
$EndPAD
$PAD
Sh "2" R 0.889 1.397 0 0 0
Dr 0 0 0
At SMD N 00888000
Ne 0 ""
Po 0.9525 0
$EndPAD
$SHAPE3D
Na "smd/chip_cms.wrl"
Sc 0.1 0.1 0.1
Of 0 0 0
Ro 0 0 0
$EndSHAPE3D
$EndMODULE CUSTSM0805
$MODULE PIN
Po 0 0 0 15 5470D0F9 00000000 ~~
Li PIN
Sc 0
AR 
Op 0 0 0
T0 0 -1.5 1 1 0 0.15 N V 21 N "PIN"
T1 0 1.5 1 1 0 0.15 N V 21 N "P"
$PAD
Sh "1" C 2 2 0 0 0
Dr 1 0 0
At STD N 00E0FFFF
Ne 0 ""
Po 0 0
$EndPAD
$EndMODULE PIN
$MODULE Power
Po 0 0 0 15 54FE6C4E 00000000 ~~
Li Power
Sc 0
AR 
Op 0 0 0
T0 3.9 1.95 1 1 0 0.15 N V 21 N "Power"
T1 3.9 7.8 1 1 0 0.15 N V 21 N "VAL**"
DS 0 0 0 9.8 0.15 21
DS 0 9.8 14.5 9.8 0.15 21
DS 14.5 9.8 14.5 0 0.15 21
DS 14.5 0 0 0 0.15 21
$PAD
Sh "GND" R 2 4.25 0 0 0
Dr 1.25 0 0 O 1.25 3.5
At STD N 00E0FFFF
Ne 0 ""
Po 8.5 4.9
$EndPAD
$PAD
Sh "Vin" R 2 5 0 0 0
Dr 1.25 0 0 O 1.25 4.25
At STD N 00E0FFFF
Ne 0 ""
Po 14.5 4.9
$EndPAD
$PAD
Sh "0" C 2.2 2.2 0 0 0
Dr 2.2 0 0
At STD N 00E0FFFF
Ne 0 ""
Po 4 4.9
$EndPAD
$PAD
Sh "ins" R 5.5 2.5 0 0 0
Dr 4.5 0 0 O 4.5 1.5
At STD N 00E0FFFF
Ne 0 ""
Po 11.55 0
$EndPAD
$EndMODULE Power
$MODULE SM0805
Po 0 0 0 15 548A5E18 00000000 ~~
Li SM0805
Sc 0
AR /548A3CC5
Op 0 0 0
At SMD
T0 0 -0.3175 0.50038 0.50038 0 0.10922 N V 21 N "U5"
T1 0 0.381 0.50038 0.50038 0 0.10922 N V 21 N "RESIST"
DC -1.651 0.762 -1.651 0.635 0.09906 21
DS -0.508 0.762 -1.524 0.762 0.09906 21
DS -1.524 0.762 -1.524 -0.762 0.09906 21
DS -1.524 -0.762 -0.508 -0.762 0.09906 21
DS 0.508 -0.762 1.524 -0.762 0.09906 21
DS 1.524 -0.762 1.524 0.762 0.09906 21
DS 1.524 0.762 0.508 0.762 0.09906 21
$PAD
Sh "1" R 0.889 1.397 0 0 0
Dr 0 0 0
At SMD N 00888000
Ne 0 ""
Po -0.9525 0
$EndPAD
$PAD
Sh "2" R 0.889 1.397 0 0 0
Dr 0 0 0
At SMD N 00888000
Ne 0 ""
Po 0.9525 0
$EndPAD
$SHAPE3D
Na "smd/chip_cms.wrl"
Sc 0.1 0.1 0.1
Of 0 0 0
Ro 0 0 0
$EndSHAPE3D
$EndMODULE SM0805
$MODULE SN74HC245
Po 0 0 0 15 54F806F7 00000000 ~~
Li SN74HC245
Sc 0
AR 
Op 0 0 0
T0 13.335 1.905 1 1 0 0.15 N V 21 N "SN74HCT"
T1 12.7 5.715 1 1 0 0.15 N V 21 N "SR**"
DC 1.25 0 1.5 0.25 0.15 21
DS 0.65 -0.65 5.85 -0.65 0.15 21
DS 5.85 -0.65 5.85 6.5 0.15 21
DS 5.85 6.5 0.65 6.5 0.15 21
DS 0.65 6.5 0.65 -0.65 0.15 21
$PAD
Sh "5" R 0.3 1 0 0 900
Dr 0 0 0
At SMD N 00888000
Ne 0 ""
Po 0 2.6
$EndPAD
$PAD
Sh "6" R 0.3 1 0 0 900
Dr 0 0 0
At SMD N 00888000
Ne 0 ""
Po 0 3.25
$EndPAD
$PAD
Sh "8" R 0.3 1 0 0 900
Dr 0 0 0
At SMD N 00888000
Ne 0 ""
Po 0 4.55
$EndPAD
$PAD
Sh "7" R 0.3 1 0 0 900
Dr 0 0 0
At SMD N 00888000
Ne 0 ""
Po 0 3.9
$EndPAD
$PAD
Sh "3" R 0.3 1 0 0 2700
Dr 0 0 0
At SMD N 00888000
Ne 0 ""
Po 0 1.3
$EndPAD
$PAD
Sh "2" R 0.3 1 0 0 2700
Dr 0 0 0
At SMD N 00888000
Ne 0 ""
Po 0 0.65
$EndPAD
$PAD
Sh "1" R 0.3 1 0 0 2700
Dr 0 0 0
At SMD N 00888000
Ne 0 ""
Po 0 0
$EndPAD
$PAD
Sh "4" R 0.3 1 0 0 2700
Dr 0 0 0
At SMD N 00888000
Ne 0 ""
Po 0 1.95
$EndPAD
$PAD
Sh "20" R 0.3 1 0 0 2700
Dr 0 0 0
At SMD N 00888000
Ne 0 ""
Po 6.5 0
$EndPAD
$PAD
Sh "19" R 0.3 1 0 0 2700
Dr 0 0 0
At SMD N 00888000
Ne 0 ""
Po 6.5 0.65
$EndPAD
$PAD
Sh "18" R 0.3 1 0 0 2700
Dr 0 0 0
At SMD N 00888000
Ne 0 ""
Po 6.5 1.3
$EndPAD
$PAD
Sh "17" R 0.3 1 0 0 2700
Dr 0 0 0
At SMD N 00888000
Ne 0 ""
Po 6.5 1.95
$EndPAD
$PAD
Sh "16" R 0.3 1 0 0 2700
Dr 0 0 0
At SMD N 00888000
Ne 0 ""
Po 6.5 2.6
$EndPAD
$PAD
Sh "15" R 0.3 1 0 0 2700
Dr 0 0 0
At SMD N 00888000
Ne 0 ""
Po 6.5 3.25
$EndPAD
$PAD
Sh "14" R 0.3 1 0 0 2700
Dr 0 0 0
At SMD N 00888000
Ne 0 ""
Po 6.5 3.9
$EndPAD
$PAD
Sh "9" R 0.3 1 0 0 2700
Dr 0 0 0
At SMD N 00888000
Ne 0 ""
Po 0 5.2
$EndPAD
$PAD
Sh "10" R 0.3 1 0 0 2700
Dr 0 0 0
At SMD N 00888000
Ne 0 ""
Po 0 5.85
$EndPAD
$PAD
Sh "11" R 0.3 1 0 0 2700
Dr 0 0 0
At SMD N 00888000
Ne 0 ""
Po 6.5 5.85
$EndPAD
$PAD
Sh "12" R 0.3 1 0 0 2700
Dr 0 0 0
At SMD N 00888000
Ne 0 ""
Po 6.5 5.2
$EndPAD
$PAD
Sh "13" R 0.3 1 0 0 2700
Dr 0 0 0
At SMD N 00888000
Ne 0 ""
Po 6.5 4.55
$EndPAD
$EndMODULE SN74HC245
$MODULE SN74HD165
Po 0 0 0 15 548A48FA 00000000 ~~
Li SN74HD165
Sc 0
AR 
Op 0 0 0
T0 0 -1 1 1 0 0.15 N V 21 N "SN74HD"
T1 0 1 1 1 0 0.15 N V 21 N "SR**"
DS -5 -2 5 -2 0.15 21
DS 5 -2 5 2 0.15 21
DS 5 2 -5 2 0.15 21
DS -5 2 -5 -2 0.15 21
$PAD
Sh "12" R 0.5 1 0 0 1800
Dr 0 0 0
At SMD N 00888000
Ne 0 ""
Po 0.635 -2.6
$EndPAD
$PAD
Sh "9" R 0.5 1 0 0 1800
Dr 0 0 0
At SMD N 00888000
Ne 0 ""
Po 4.445 -2.6
$EndPAD
$PAD
Sh "10" R 0.5 1 0 0 1800
Dr 0 0 0
At SMD N 00888000
Ne 0 ""
Po 3.175 -2.6
$EndPAD
$PAD
Sh "11" R 0.5 1 0 0 1800
Dr 0 0 0
At SMD N 00888000
Ne 0 ""
Po 1.905 -2.6
$EndPAD
$PAD
Sh "15" R 0.5 1 0 0 0
Dr 0 0 0
At SMD N 00888000
Ne 0 ""
Po -3.175 -2.6
$EndPAD
$PAD
Sh "16" R 0.5 1 0 0 0
Dr 0 0 0
At SMD N 00888000
Ne 0 ""
Po -4.445 -2.6
$EndPAD
$PAD
Sh "14" R 0.5 1 0 0 0
Dr 0 0 0
At SMD N 00888000
Ne 0 ""
Po -1.905 -2.6
$EndPAD
$PAD
Sh "13" R 0.5 1 0 0 0
Dr 0 0 0
At SMD N 00888000
Ne 0 ""
Po -0.635 -2.6
$EndPAD
$PAD
Sh "5" R 0.5 1 0 0 1800
Dr 0 0 0
At SMD N 00888000
Ne 0 ""
Po 0.635 2.6
$EndPAD
$PAD
Sh "6" R 0.5 1 0 0 1800
Dr 0 0 0
At SMD N 00888000
Ne 0 ""
Po 1.905 2.6
$EndPAD
$PAD
Sh "8" R 0.5 1 0 0 1800
Dr 0 0 0
At SMD N 00888000
Ne 0 ""
Po 4.445 2.6
$EndPAD
$PAD
Sh "7" R 0.5 1 0 0 1800
Dr 0 0 0
At SMD N 00888000
Ne 0 ""
Po 3.175 2.6
$EndPAD
$PAD
Sh "3" R 0.5 1 0 0 0
Dr 0 0 0
At SMD N 00888000
Ne 0 ""
Po -1.905 2.6
$EndPAD
$PAD
Sh "2" R 0.5 1 0 0 0
Dr 0 0 0
At SMD N 00888000
Ne 0 ""
Po -3.175 2.6
$EndPAD
$PAD
Sh "1" R 0.5 1 0 0 0
Dr 0 0 0
At SMD N 00888000
Ne 0 ""
Po -4.445 2.6
$EndPAD
$PAD
Sh "4" R 0.5 1 0 0 0
Dr 0 0 0
At SMD N 00888000
Ne 0 ""
Po -0.635 2.6
$EndPAD
$EndMODULE SN74HD165
$MODULE TACT
Po 0 0 0 15 548E7AEC 00000000 ~~
Li TACT
Sc 0
AR 
Op 0 0 0
T0 0 -2 1 1 0 0.15 N V 21 N "TACT"
T1 0 2.25 1 1 0 0.15 N V 21 N "S**"
DS -3 -3 3 -3 0.15 21
DS 3 -3 3 3 0.15 21
DS 3 3 -3 3 0.15 21
DS -3 3 -3 -3 0.15 21
$PAD
Sh "2" R 3 1.5 0 0 0
Dr 0 0 0
At SMD N 00888000
Ne 0 ""
Po 3.5 -2.25
$EndPAD
$PAD
Sh "1" R 3 1.5 0 0 0
Dr 0 0 0
At SMD N 00888000
Ne 0 ""
Po 3.5 2.25
$EndPAD
$PAD
Sh "2" R 3 1.5 0 0 0
Dr 0 0 0
At SMD N 00888000
Ne 0 ""
Po -3.5 -2.25
$EndPAD
$PAD
Sh "1" R 3 1.5 0 0 0
Dr 0 0 0
At SMD N 00888000
Ne 0 ""
Po -3.5 2.25
$EndPAD
$EndMODULE TACT
$MODULE Teensy
Po 0 0 0 15 54F7C84D 00000000 ~~
Li Teensy
Sc 0
AR 
Op 0 0 0
T0 5.75 -13 1 1 0 0.15 N V 21 N "Teensy"
T1 12.5 -11.25 1 1 0 0.15 N V 21 N "VAL**"
DS -1.27 -3.81 16.51 -3.81 0.15 21
DS 16.51 -3.81 16.51 31.75 0.15 21
DS 16.51 31.75 -1.27 31.75 0.15 21
DS -1.27 31.75 -1.27 -3.81 0.15 21
$PAD
Sh "4" C 1.905 1.905 0 0 0
Dr 1.016 0 0
At STD N 00E0FFFF
Ne 0 ""
Po 0 10.16
$EndPAD
$PAD
Sh "5" C 1.905 1.905 0 0 0
Dr 1.016 0 0
At STD N 00E0FFFF
Ne 0 ""
Po 0 12.7
$EndPAD
$PAD
Sh "2" C 1.905 1.905 0 0 0
Dr 1.016 0 0
At STD N 00E0FFFF
Ne 0 ""
Po 0 5.08
$EndPAD
$PAD
Sh "3" C 1.905 1.905 0 0 0
Dr 1.016 0 0
At STD N 00E0FFFF
Ne 0 ""
Po 0 7.62
$EndPAD
$PAD
Sh "1" C 1.905 1.905 0 0 0
Dr 1.016 0 0
At STD N 00E0FFFF
Ne 0 ""
Po 0 2.54
$EndPAD
$PAD
Sh "6" C 1.905 1.905 0 0 0
Dr 1.016 0 0
At STD N 00E0FFFF
Ne 0 ""
Po 0 15.24
$EndPAD
$PAD
Sh "7" C 1.905 1.905 0 0 0
Dr 1.016 0 0
At STD N 00E0FFFF
Ne 0 ""
Po 0 17.78
$EndPAD
$PAD
Sh "8" C 1.905 1.905 0 0 0
Dr 1.016 0 0
At STD N 00E0FFFF
Ne 0 ""
Po 0 20.32
$EndPAD
$PAD
Sh "9" C 1.905 1.905 0 0 0
Dr 1.016 0 0
At STD N 00E0FFFF
Ne 0 ""
Po 0 22.86
$EndPAD
$PAD
Sh "10" C 1.905 1.905 0 0 0
Dr 1.016 0 0
At STD N 00E0FFFF
Ne 0 ""
Po 0 25.4
$EndPAD
$PAD
Sh "11" C 1.905 1.905 0 0 0
Dr 1.016 0 0
At STD N 00E0FFFF
Ne 0 ""
Po 0 27.94
$EndPAD
$PAD
Sh "12" C 1.905 1.905 0 0 0
Dr 1.016 0 0
At STD N 00E0FFFF
Ne 0 ""
Po 0 30.48
$EndPAD
$PAD
Sh "13" C 1.905 1.905 0 0 0
Dr 1.016 0 0
At STD N 00E0FFFF
Ne 0 ""
Po 15.24 30.48
$EndPAD
$PAD
Sh "14" C 1.905 1.905 0 0 0
Dr 1.016 0 0
At STD N 00E0FFFF
Ne 0 ""
Po 15.24 27.94
$EndPAD
$PAD
Sh "15" C 1.905 1.905 0 0 0
Dr 1.016 0 0
At STD N 00E0FFFF
Ne 0 ""
Po 15.24 25.4
$EndPAD
$PAD
Sh "16" C 1.905 1.905 0 0 0
Dr 1.016 0 0
At STD N 00E0FFFF
Ne 0 ""
Po 15.24 22.86
$EndPAD
$PAD
Sh "17" C 1.905 1.905 0 0 0
Dr 1.016 0 0
At STD N 00E0FFFF
Ne 0 ""
Po 15.24 20.32
$EndPAD
$PAD
Sh "18" C 1.905 1.905 0 0 0
Dr 1.016 0 0
At STD N 00E0FFFF
Ne 0 ""
Po 15.24 17.78
$EndPAD
$PAD
Sh "19" C 1.905 1.905 0 0 0
Dr 1.016 0 0
At STD N 00E0FFFF
Ne 0 ""
Po 15.24 15.24
$EndPAD
$PAD
Sh "20" C 1.905 1.905 0 0 0
Dr 1.016 0 0
At STD N 00E0FFFF
Ne 0 ""
Po 15.24 12.7
$EndPAD
$PAD
Sh "21" C 1.905 1.905 0 0 0
Dr 1.016 0 0
At STD N 00E0FFFF
Ne 0 ""
Po 15.24 10.16
$EndPAD
$PAD
Sh "22" C 1.905 1.905 0 0 0
Dr 1.016 0 0
At STD N 00E0FFFF
Ne 0 ""
Po 15.24 7.62
$EndPAD
$PAD
Sh "23" C 1.905 1.905 0 0 0
Dr 1.016 0 0
At STD N 00E0FFFF
Ne 0 ""
Po 15.24 5.08
$EndPAD
$PAD
Sh "0" C 1.905 1.905 0 0 0
Dr 1.016 0 0
At STD N 00E0FFFF
Ne 0 ""
Po 0 0
$EndPAD
$PAD
Sh "3.3V" C 1.905 1.905 0 0 0
Dr 1.016 0 0
At STD N 00E0FFFF
Ne 0 ""
Po 15.24 2.54
$EndPAD
$PAD
Sh "AGND" C 1.905 1.905 0 0 0
Dr 1.016 0 0
At STD N 00E0FFFF
Ne 0 ""
Po 15.24 0
$EndPAD
$PAD
Sh "Vin" C 1.905 1.905 0 0 0
Dr 1.016 0 0
At STD N 00E0FFFF
Ne 0 ""
Po 15.24 -2.54
$EndPAD
$PAD
Sh "GND" C 1.905 1.905 0 0 0
Dr 1.016 0 0
At STD N 00E0FFFF
Ne 0 ""
Po 0 -2.54
$EndPAD
$PAD
Sh "GND" C 1.905 1.905 0 0 0
Dr 1.016 0 0
At STD N 00E0FFFF
Ne 0 ""
Po 2.54 -1.27
$EndPAD
$PAD
Sh "D+" C 1.905 1.905 0 0 0
Dr 1.016 0 0
At STD N 00E0FFFF
Ne 0 ""
Po 7.62 2.54
$EndPAD
$PAD
Sh "D-" C 1.905 1.905 0 0 0
Dr 1.016 0 0
At STD N 00E0FFFF
Ne 0 ""
Po 10.16 2.54
$EndPAD
$PAD
Sh "PWM" C 1.905 1.905 0 0 0
Dr 1.016 0 0
At STD N 00E0FFFF
Ne 0 ""
Po 10.16 -1.27
$EndPAD
$EndMODULE Teensy
$MODULE Teensymod
Po 0 0 0 15 54F7F377 00000000 ~~
Li Teensymod
Sc 0
AR 
Op 0 0 0
T0 5.75 -13 1 1 0 0.15 N V 21 N "Teensy"
T1 12.5 -11.25 1 1 0 0.15 N V 21 N "VAL**"
DS -1.27 -3.81 16.51 -3.81 0.15 21
DS 16.51 -3.81 16.51 31.75 0.15 21
DS 16.51 31.75 -1.27 31.75 0.15 21
DS -1.27 31.75 -1.27 -3.81 0.15 21
$PAD
Sh "10" C 1.905 1.905 0 0 0
Dr 1.016 0 0
At STD N 00E0FFFF
Ne 0 ""
Po 0 25.4
$EndPAD
$PAD
Sh "11" C 1.905 1.905 0 0 0
Dr 1.016 0 0
At STD N 00E0FFFF
Ne 0 ""
Po 0 27.94
$EndPAD
$PAD
Sh "12" C 1.905 1.905 0 0 0
Dr 1.016 0 0
At STD N 00E0FFFF
Ne 0 ""
Po 0 30.48
$EndPAD
$PAD
Sh "13" C 1.905 1.905 0 0 0
Dr 1.016 0 0
At STD N 00E0FFFF
Ne 0 ""
Po 15.24 30.48
$EndPAD
$PAD
Sh "Vin" C 1.905 1.905 0 0 0
Dr 1.016 0 0
At STD N 00E0FFFF
Ne 0 ""
Po 15.24 -2.54
$EndPAD
$PAD
Sh "GND" C 1.905 1.905 0 0 0
Dr 1.016 0 0
At STD N 00E0FFFF
Ne 0 ""
Po 0 -2.54
$EndPAD
$PAD
Sh "USBG" C 1.905 1.905 0 0 0
Dr 1.016 0 0
At STD N 00E0FFFF
Ne 0 ""
Po 2.54 -1.27
$EndPAD
$PAD
Sh "D+" C 1.905 1.905 0 0 0
Dr 1.016 0 0
At STD N 00E0FFFF
Ne 0 ""
Po 7.62 2.54
$EndPAD
$PAD
Sh "D-" C 1.905 1.905 0 0 0
Dr 1.016 0 0
At STD N 00E0FFFF
Ne 0 ""
Po 10.16 2.54
$EndPAD
$PAD
Sh "USBV" C 1.905 1.905 0 0 0
Dr 1.016 0 0
At STD N 00E0FFFF
Ne 0 ""
Po 10.16 -1.27
$EndPAD
$EndMODULE Teensymod
$MODULE Teensyside
Po 0 0 0 15 54FE69FE 00000000 ~~
Li Teensyside
Sc 0
AR 
Op 0 0 0
T0 2.6 -0.65 1 1 0 0.15 N V 21 N "Teensy"
T1 7.8 -0.65 1 1 0 0.15 N V 21 N "VAL**"
DS 9.1 35.75 0 35.75 0.15 21
DS 0 35.75 0 0 0.15 21
DS 0 0 9.1 0 0.15 21
DS 9.1 0 9.1 35.75 0.15 21
$PAD
Sh "10" C 1.905 1.905 0 0 0
Dr 1.016 0 0
At STD N 00E0FFFF
Ne 0 ""
Po 1.3 26.7
$EndPAD
$PAD
Sh "11" C 1.905 1.905 0 0 0
Dr 1.016 0 0
At STD N 00E0FFFF
Ne 0 ""
Po 1.3 29.24
$EndPAD
$PAD
Sh "12" C 1.905 1.905 0 0 0
Dr 1.016 0 0
At STD N 00E0FFFF
Ne 0 ""
Po 1.3 31.78
$EndPAD
$PAD
Sh "13" C 1.905 1.905 0 0 0
Dr 1.016 0 0
At STD N 00E0FFFF
Ne 0 ""
Po 1.3 34.45
$EndPAD
$PAD
Sh "Vin" C 1.905 1.905 0 0 0
Dr 1.016 0 0
At STD N 00E0FFFF
Ne 0 ""
Po 1.3 9.1
$EndPAD
$PAD
Sh "GND" C 1.905 1.905 0 0 0
Dr 1.016 0 0
At STD N 00E0FFFF
Ne 0 ""
Po 1.3 1.36
$EndPAD
$PAD
Sh "USBG" C 1.905 1.905 0 0 0
Dr 1.016 0 0
At STD N 00E0FFFF
Ne 0 ""
Po 1.3 3.9
$EndPAD
$PAD
Sh "D+" C 1.905 1.905 0 0 0
Dr 1.016 0 0
At STD N 00E0FFFF
Ne 0 ""
Po 1.3 11.7
$EndPAD
$PAD
Sh "D-" C 1.905 1.905 0 0 0
Dr 1.016 0 0
At STD N 00E0FFFF
Ne 0 ""
Po 1.3 14.3
$EndPAD
$PAD
Sh "USBV" C 1.905 1.905 0 0 0
Dr 1.016 0 0
At STD N 00E0FFFF
Ne 0 ""
Po 1.3 6.5
$EndPAD
$PAD
Sh "14" C 2 2 0 0 0
Dr 1 0 0
At STD N 00E0FFFF
Ne 0 ""
Po 1.3 24.05
$EndPAD
$EndMODULE Teensyside
$MODULE WS2812B
Po 0 0 0 15 548E6124 00000000 ~~
Li WS2812B
Sc 0
AR 
Op 0 0 0
T0 0 -3.175 1 1 0 0.15 N V 21 N "WS2812B"
T1 0 3.175 1 1 0 0.15 N V 21 N "LED"
DS 3.25 -3.5 -3.25 -3.5 0.15 28
DS -3.25 -8.5 -3.25 -3.5 0.15 28
DS -3.25 -8.5 3.25 -8.5 0.15 28
DS 3.25 -3.5 3.25 -8.5 0.15 28
DS 2.5 1 1 2.5 0.15 21
DS -2.5 2.5 2.5 2.5 0.15 21
DS 2.5 2.5 2.5 -2.5 0.15 21
DS 2.5 -2.5 -2.5 -2.5 0.15 21
DS -2.5 -2.5 -2.5 2.5 0.15 21
$PAD
Sh "1" R 1.5 0.9 0 0 0
Dr 0 0 0
At SMD N 00888000
Ne 0 ""
Po -2.45 -1.65
$EndPAD
$PAD
Sh "2" R 1.5 0.9 0 0 0
Dr 0 0 0
At SMD N 00888000
Ne 0 ""
Po -2.45 1.65
$EndPAD
$PAD
Sh "3" R 1.5 0.9 0 0 0
Dr 0 0 0
At SMD N 00888000
Ne 0 ""
Po 2.45 1.65
$EndPAD
$PAD
Sh "4" R 1.5 0.9 0 0 0
Dr 0 0 0
At SMD N 00888000
Ne 0 ""
Po 2.45 -1.65
$EndPAD
$EndMODULE WS2812B
$MODULE WS2812BU
Po 0 0 0 15 548E6124 00000000 ~~
Li WS2812BU
Sc 0
AR 
Op 0 0 0
T0 0 -3.175 1 1 0 0.15 N V 21 N "WS2812B"
T1 0 3.175 1 1 0 0.15 N V 21 N "LED"
DS 3.25 3.5 -3.25 3.5 0.15 28
DS -3.25 3.5 -3.25 8.5 0.15 28
DS -3.25 8.5 3.25 8.5 0.15 28
DS 3.25 8.5 3.25 3.5 0.15 28
DS 2.5 1 1 2.5 0.15 21
DS -2.5 2.5 2.5 2.5 0.15 21
DS 2.5 2.5 2.5 -2.5 0.15 21
DS 2.5 -2.5 -2.5 -2.5 0.15 21
DS -2.5 -2.5 -2.5 2.5 0.15 21
$PAD
Sh "1" R 1.5 0.9 0 0 0
Dr 0 0 0
At SMD N 00888000
Ne 0 ""
Po -2.45 -1.65
$EndPAD
$PAD
Sh "2" R 1.5 0.9 0 0 0
Dr 0 0 0
At SMD N 00888000
Ne 0 ""
Po -2.45 1.65
$EndPAD
$PAD
Sh "3" R 1.5 0.9 0 0 0
Dr 0 0 0
At SMD N 00888000
Ne 0 ""
Po 2.45 1.65
$EndPAD
$PAD
Sh "4" R 1.5 0.9 0 0 0
Dr 0 0 0
At SMD N 00888000
Ne 0 ""
Po 2.45 -1.65
$EndPAD
$EndMODULE WS2812BU
$MODULE WS2812BUSD
Po 0 0 0 15 548E6124 00000000 ~~
Li WS2812BUSD
Sc 0
AR 
Op 0 0 0
T0 0 -3.175 1 1 0 0.15 N V 21 N "WS2812B"
T1 0 3.175 1 1 0 0.15 N V 21 N "LED"
DS 3.25 4 -3.25 4 0.15 28
DS -3.25 4 -3.25 9 0.15 28
DS -3.25 9 3.25 9 0.15 28
DS 3.25 9 3.25 4 0.15 28
DS 2.5 1 1 2.5 0.15 21
DS -2.5 2.5 2.5 2.5 0.15 21
DS 2.5 2.5 2.5 -2.5 0.15 21
DS 2.5 -2.5 -2.5 -2.5 0.15 21
DS -2.5 -2.5 -2.5 2.5 0.15 21
$PAD
Sh "1" R 1.5 0.9 0 0 0
Dr 0 0 0
At SMD N 00888000
Ne 0 ""
Po -2.45 -1.65
$EndPAD
$PAD
Sh "2" R 1.5 0.9 0 0 0
Dr 0 0 0
At SMD N 00888000
Ne 0 ""
Po -2.45 1.65
$EndPAD
$PAD
Sh "3" R 1.5 0.9 0 0 0
Dr 0 0 0
At SMD N 00888000
Ne 0 ""
Po 2.45 1.65
$EndPAD
$PAD
Sh "4" R 1.5 0.9 0 0 0
Dr 0 0 0
At SMD N 00888000
Ne 0 ""
Po 2.45 -1.65
$EndPAD
$EndMODULE WS2812BUSD
$EndLIBRARY
