PCBNEW-LibModule-V1
$INDEX
LOGO
$EndINDEX
#
# LOGO
# pixmap w = 3223, h = 3717
#
$MODULE LOGO
Po 0 0 0 15 00000000 00000000 ~~
Li LOGO
DP 0 0 0 0 375 1 28
Dl 53231 -30658
Dl 53199 -30653
Dl 53108 -30648
Dl 52964 -30643
Dl 52775 -30640
Dl 52548 -30637
Dl 52290 -30634
Dl 52008 -30634
Dl 51933 -30633
Dl 50633 -30633
Dl 50633 -23383
Dl 50633 -16133
Dl 51916 -16133
Dl 53200 -16133
Dl 53191 7302
Dl 53183 30738
Dl 53133 30766
Dl 53133 -16067
Dl 51850 -16067
Dl 50566 -16067
Dl 50566 -23383
Dl 50566 -30699
Dl 51782 -30708
Dl 52997 -30717
Dl 26511 -46012
Dl 25006 -46881
Dl 23558 -47717
Dl 22166 -48521
Dl 20828 -49293
Dl 19544 -50034
Dl 18312 -50745
Dl 17131 -51427
Dl 16001 -52079
Dl 14921 -52703
Dl 13888 -53299
Dl 12903 -53867
Dl 11964 -54409
Dl 11069 -54925
Dl 10219 -55415
Dl 9412 -55880
Dl 8647 -56321
Dl 7923 -56739
Dl 7238 -57133
Dl 6592 -57505
Dl 5984 -57855
Dl 5413 -58184
Dl 4877 -58492
Dl 4375 -58780
Dl 3908 -59048
Dl 3472 -59298
Dl 3068 -59530
Dl 2694 -59744
Dl 2350 -59941
Dl 2034 -60121
Dl 1745 -60286
Dl 1482 -60435
Dl 1244 -60570
Dl 1030 -60691
Dl 839 -60799
Dl 670 -60894
Dl 522 -60976
Dl 394 -61047
Dl 284 -61107
Dl 192 -61157
Dl 117 -61197
Dl 57 -61228
Dl 12 -61250
Dl -20 -61265
Dl -39 -61272
Dl -47 -61272
Dl -79 -61254
Dl -167 -61203
Dl -311 -61121
Dl -508 -61007
Dl -758 -60863
Dl -1060 -60689
Dl -1411 -60486
Dl -1811 -60256
Dl -2259 -59997
Dl -2753 -59712
Dl -3292 -59401
Dl -3874 -59065
Dl -4499 -58704
Dl -5165 -58320
Dl -5871 -57913
Dl -6615 -57483
Dl -7396 -57032
Dl -8214 -56560
Dl -9066 -56068
Dl -9951 -55557
Dl -10869 -55027
Dl -11818 -54479
Dl -12796 -53915
Dl -13802 -53333
Dl -14835 -52737
Dl -15894 -52125
Dl -16978 -51499
Dl -18085 -50860
Dl -19213 -50209
Dl -20362 -49545
Dl -21531 -48870
Dl -22717 -48185
Dl -23921 -47490
Dl -25139 -46786
Dl -26372 -46074
Dl -26600 -45942
Dl -53084 -30647
Dl -53084 16
Dl -53084 30678
Dl -26550 46004
Dl -25314 46718
Dl -24092 47424
Dl -22885 48121
Dl -21695 48809
Dl -20522 49486
Dl -19369 50152
Dl -18236 50806
Dl -17124 51448
Dl -16036 52076
Dl -14972 52690
Dl -13934 53290
Dl -12922 53873
Dl -11938 54441
Dl -10984 54992
Dl -10060 55525
Dl -9169 56039
Dl -8310 56535
Dl -7486 57010
Dl -6698 57465
Dl -5946 57898
Dl -5233 58310
Dl -4560 58698
Dl -3927 59063
Dl -3336 59403
Dl -2789 59718
Dl -2287 60008
Dl -1830 60271
Dl -1421 60506
Dl -1060 60714
Dl -749 60893
Dl -489 61042
Dl -282 61161
Dl -128 61249
Dl -29 61305
Dl 14 61329
Dl 16 61330
Dl 46 61314
Dl 133 61265
Dl 275 61184
Dl 471 61071
Dl 719 60929
Dl 1019 60757
Dl 1368 60555
Dl 1767 60326
Dl 2213 60069
Dl 2705 59786
Dl 3243 59476
Dl 3824 59141
Dl 4447 58782
Dl 5111 58399
Dl 5816 57993
Dl 6559 57565
Dl 7339 57115
Dl 8155 56644
Dl 9006 56153
Dl 9890 55643
Dl 10807 55114
Dl 11755 54567
Dl 12732 54003
Dl 13737 53423
Dl 14770 52827
Dl 15829 52216
Dl 16912 51591
Dl 18018 50952
Dl 19146 50301
Dl 20295 49638
Dl 21463 48963
Dl 22650 48278
Dl 23853 47583
Dl 25072 46879
Dl 26306 46167
Dl 26583 46007
Dl 53116 30683
Dl 53125 7308
Dl 53133 -16067
Dl 53133 30766
Dl 26605 46086
Dl 25367 46800
Dl 24144 47507
Dl 22936 48204
Dl 21745 48892
Dl 20571 49569
Dl 19417 50236
Dl 18283 50890
Dl 17171 51532
Dl 16082 52161
Dl 15017 52776
Dl 13978 53375
Dl 12965 53960
Dl 11980 54528
Dl 11025 55079
Dl 10101 55613
Dl 9208 56128
Dl 8349 56623
Dl 7524 57099
Dl 6735 57554
Dl 5982 57988
Dl 5268 58400
Dl 4594 58789
Dl 3961 59154
Dl 3369 59495
Dl 2821 59811
Dl 2318 60101
Dl 1860 60365
Dl 1450 60601
Dl 1088 60809
Dl 776 60989
Dl 515 61139
Dl 306 61258
Dl 151 61347
Dl 51 61404
Dl 7 61429
Dl 5 61430
Dl -25 61414
Dl -111 61364
Dl -252 61283
Dl -448 61171
Dl -695 61028
Dl -995 60856
Dl -1344 60654
Dl -1742 60425
Dl -2187 60168
Dl -2679 59884
Dl -3216 59574
Dl -3797 59239
Dl -4420 58880
Dl -5084 58496
Dl -5788 58090
Dl -6530 57661
Dl -7310 57211
Dl -8126 56740
Dl -8977 56249
Dl -9861 55739
Dl -10777 55209
Dl -11725 54662
Dl -12702 54098
Dl -13707 53517
Dl -14740 52921
Dl -15798 52310
Dl -16881 51684
Dl -17988 51045
Dl -19116 50394
Dl -20265 49730
Dl -21434 49055
Dl -22621 48369
Dl -23825 47674
Dl -25044 46970
Dl -26278 46257
Dl -26592 46075
Dl -53167 30723
Dl -53167 15
Dl -53167 -30693
Dl -26593 -46038
Dl -25356 -46753
Dl -24132 -47459
Dl -22924 -48156
Dl -21733 -48844
Dl -20559 -49522
Dl -19405 -50188
Dl -18271 -50843
Dl -17159 -51485
Dl -16069 -52113
Dl -15004 -52728
Dl -13964 -53328
Dl -12952 -53912
Dl -11967 -54480
Dl -11012 -55032
Dl -10087 -55565
Dl -9194 -56080
Dl -8334 -56576
Dl -7509 -57052
Dl -6719 -57507
Dl -5967 -57941
Dl -5252 -58353
Dl -4578 -58742
Dl -3944 -59107
Dl -3352 -59448
Dl -2804 -59764
Dl -2300 -60054
Dl -1842 -60318
Dl -1431 -60554
Dl -1069 -60762
Dl -757 -60942
Dl -495 -61092
Dl -286 -61212
Dl -131 -61301
Dl -30 -61358
Dl 15 -61382
Dl 17 -61383
Dl 47 -61367
Dl 134 -61318
Dl 275 -61237
Dl 470 -61126
Dl 716 -60985
Dl 1012 -60816
Dl 1356 -60618
Dl 1747 -60393
Dl 2183 -60142
Dl 2663 -59866
Dl 3185 -59565
Dl 3748 -59241
Dl 4350 -58894
Dl 4989 -58526
Dl 5664 -58137
Dl 6374 -57728
Dl 7116 -57300
Dl 7890 -56854
Dl 8694 -56390
Dl 9525 -55911
Dl 10384 -55416
Dl 11267 -54906
Dl 12174 -54383
Dl 13103 -53847
Dl 14052 -53299
Dl 15020 -52741
Dl 16006 -52172
Dl 17007 -51594
Dl 18022 -51008
Dl 19051 -50415
Dl 20090 -49815
Dl 21138 -49210
Dl 22195 -48600
Dl 23258 -47986
Dl 24326 -47369
Dl 25398 -46751
Dl 26471 -46131
Dl 27544 -45512
Dl 28616 -44893
Dl 29685 -44275
Dl 30750 -43660
Dl 31809 -43049
Dl 32860 -42442
Dl 33902 -41840
Dl 34933 -41244
Dl 35953 -40655
Dl 36958 -40075
Dl 37948 -39503
Dl 38921 -38940
Dl 39876 -38389
Dl 40811 -37848
Dl 41724 -37321
Dl 42615 -36806
Dl 43480 -36306
Dl 44320 -35821
Dl 45132 -35351
Dl 45914 -34899
Dl 46666 -34464
Dl 47385 -34048
Dl 48070 -33652
Dl 48720 -33276
Dl 49332 -32922
Dl 49906 -32589
Dl 50440 -32280
Dl 50932 -31995
Dl 51381 -31735
Dl 51785 -31501
Dl 52143 -31294
Dl 52453 -31114
Dl 52713 -30962
Dl 52922 -30841
Dl 53079 -30749
Dl 53182 -30689
Dl 53228 -30661
Dl 53231 -30658
Dl 53231 -30658
$EndMODULE LOGO
$EndLIBRARY
