EESchema Schematic File Version 4
EELAYER 30 0
EELAYER END
$Descr A4 11693 8268
encoding utf-8
Sheet 1 1
Title ""
Date "5 mar 2015"
Rev ""
Comp ""
Comment1 ""
Comment2 ""
Comment3 ""
Comment4 ""
$EndDescr
$Comp
L led-rescue:WS2812B-neopix-rescue RGBLED20
U 1 1 546FB30D
P 2000 4100
F 0 "RGBLED20" H 2000 4000 20  0000 C TNN
F 1 "WS2812B" H 2000 4200 20  0000 C BNN
F 2 "" H 2100 4000 60  0000 C CNN
F 3 "" H 2100 4000 60  0000 C CNN
	1    2000 4100
	1    0    0    -1  
$EndComp
$Comp
L led-rescue:WS2812B-neopix-rescue RGBLED19
U 1 1 546FB31A
P 2000 3800
F 0 "RGBLED19" H 2000 3700 20  0000 C TNN
F 1 "WS2812B" H 2000 3900 20  0000 C BNN
F 2 "" H 2100 3700 60  0000 C CNN
F 3 "" H 2100 3700 60  0000 C CNN
	1    2000 3800
	1    0    0    -1  
$EndComp
$Comp
L led-rescue:WS2812B-neopix-rescue RGBLED18
U 1 1 546FB320
P 2000 3500
F 0 "RGBLED18" H 2000 3400 20  0000 C TNN
F 1 "WS2812B" H 2000 3600 20  0000 C BNN
F 2 "" H 2100 3400 60  0000 C CNN
F 3 "" H 2100 3400 60  0000 C CNN
	1    2000 3500
	1    0    0    -1  
$EndComp
$Comp
L led-rescue:WS2812B-neopix-rescue RGBLED17
U 1 1 546FB326
P 2000 3200
F 0 "RGBLED17" H 2000 3100 20  0000 C TNN
F 1 "WS2812B" H 2000 3300 20  0000 C BNN
F 2 "" H 2100 3100 60  0000 C CNN
F 3 "" H 2100 3100 60  0000 C CNN
	1    2000 3200
	1    0    0    -1  
$EndComp
$Comp
L led-rescue:WS2812B-neopix-rescue RGBLED16
U 1 1 546FB32C
P 2000 2900
F 0 "RGBLED16" H 2000 2800 20  0000 C TNN
F 1 "WS2812B" H 2000 3000 20  0000 C BNN
F 2 "" H 2100 2800 60  0000 C CNN
F 3 "" H 2100 2800 60  0000 C CNN
	1    2000 2900
	1    0    0    -1  
$EndComp
$Comp
L led-rescue:WS2812B-neopix-rescue RGBLED15
U 1 1 546FB332
P 2000 2600
F 0 "RGBLED15" H 2000 2500 20  0000 C TNN
F 1 "WS2812B" H 2000 2700 20  0000 C BNN
F 2 "" H 2100 2500 60  0000 C CNN
F 3 "" H 2100 2500 60  0000 C CNN
	1    2000 2600
	1    0    0    -1  
$EndComp
$Comp
L led-rescue:WS2812B-neopix-rescue RGBLED14
U 1 1 546FB338
P 2000 2300
F 0 "RGBLED14" H 2000 2200 20  0000 C TNN
F 1 "WS2812B" H 2000 2400 20  0000 C BNN
F 2 "" H 2100 2200 60  0000 C CNN
F 3 "" H 2100 2200 60  0000 C CNN
	1    2000 2300
	1    0    0    -1  
$EndComp
$Comp
L led-rescue:WS2812B-neopix-rescue RGBLED13
U 1 1 546FB33E
P 2000 2000
F 0 "RGBLED13" H 2000 1900 20  0000 C TNN
F 1 "WS2812B" H 2000 2100 20  0000 C BNN
F 2 "" H 2100 1900 60  0000 C CNN
F 3 "" H 2100 1900 60  0000 C CNN
	1    2000 2000
	1    0    0    -1  
$EndComp
$Comp
L led-rescue:WS2812B-neopix-rescue RGBLED12
U 1 1 546FB36C
P 2000 1700
F 0 "RGBLED12" H 2000 1600 20  0000 C TNN
F 1 "WS2812B" H 2000 1800 20  0000 C BNN
F 2 "" H 2100 1600 60  0000 C CNN
F 3 "" H 2100 1600 60  0000 C CNN
	1    2000 1700
	1    0    0    -1  
$EndComp
$Comp
L led-rescue:WS2812B-neopix-rescue RGBLED11
U 1 1 546FB3E8
P 2000 1400
F 0 "RGBLED11" H 2000 1300 20  0000 C TNN
F 1 "WS2812B" H 2000 1500 20  0000 C BNN
F 2 "" H 2100 1300 60  0000 C CNN
F 3 "" H 2100 1300 60  0000 C CNN
	1    2000 1400
	1    0    0    -1  
$EndComp
$Comp
L led-rescue:R-RESCUE-neopix-neopix-rescue R1
U 1 1 546FB48E
P 1500 4400
F 0 "R1" V 1600 4400 40  0000 C CNN
F 1 "R" V 1507 4401 40  0000 C CNN
F 2 "~" V 1430 4400 30  0000 C CNN
F 3 "300" H 1500 4400 30  0000 C CNN
	1    1500 4400
	0    -1   -1   0   
$EndComp
$Comp
L led-rescue:WS2812B-neopix-rescue RGBLED3
U 1 1 546FB51C
P 1450 2000
F 0 "RGBLED3" H 1450 1900 20  0000 C TNN
F 1 "WS2812B" H 1450 2100 20  0000 C BNN
F 2 "" H 1550 1900 60  0000 C CNN
F 3 "" H 1550 1900 60  0000 C CNN
	1    1450 2000
	-1   0    0    1   
$EndComp
$Comp
L led-rescue:WS2812B-neopix-rescue RGBLED4
U 1 1 546FB522
P 1450 2300
F 0 "RGBLED4" H 1450 2200 20  0000 C TNN
F 1 "WS2812B" H 1450 2400 20  0000 C BNN
F 2 "" H 1550 2200 60  0000 C CNN
F 3 "" H 1550 2200 60  0000 C CNN
	1    1450 2300
	-1   0    0    1   
$EndComp
$Comp
L led-rescue:WS2812B-neopix-rescue RGBLED5
U 1 1 546FB528
P 1450 2600
F 0 "RGBLED5" H 1450 2500 20  0000 C TNN
F 1 "WS2812B" H 1450 2700 20  0000 C BNN
F 2 "" H 1550 2500 60  0000 C CNN
F 3 "" H 1550 2500 60  0000 C CNN
	1    1450 2600
	-1   0    0    1   
$EndComp
$Comp
L led-rescue:WS2812B-neopix-rescue RGBLED6
U 1 1 546FB52E
P 1450 2900
F 0 "RGBLED6" H 1450 2800 20  0000 C TNN
F 1 "WS2812B" H 1450 3000 20  0000 C BNN
F 2 "" H 1550 2800 60  0000 C CNN
F 3 "" H 1550 2800 60  0000 C CNN
	1    1450 2900
	-1   0    0    1   
$EndComp
$Comp
L led-rescue:WS2812B-neopix-rescue RGBLED7
U 1 1 546FB534
P 1450 3200
F 0 "RGBLED7" H 1450 3100 20  0000 C TNN
F 1 "WS2812B" H 1450 3300 20  0000 C BNN
F 2 "" H 1550 3100 60  0000 C CNN
F 3 "" H 1550 3100 60  0000 C CNN
	1    1450 3200
	-1   0    0    1   
$EndComp
$Comp
L led-rescue:WS2812B-neopix-rescue RGBLED8
U 1 1 546FB53A
P 1450 3500
F 0 "RGBLED8" H 1450 3400 20  0000 C TNN
F 1 "WS2812B" H 1450 3600 20  0000 C BNN
F 2 "" H 1550 3400 60  0000 C CNN
F 3 "" H 1550 3400 60  0000 C CNN
	1    1450 3500
	-1   0    0    1   
$EndComp
$Comp
L led-rescue:WS2812B-neopix-rescue RGBLED9
U 1 1 546FB540
P 1450 3800
F 0 "RGBLED9" H 1450 3700 20  0000 C TNN
F 1 "WS2812B" H 1450 3900 20  0000 C BNN
F 2 "" H 1550 3700 60  0000 C CNN
F 3 "" H 1550 3700 60  0000 C CNN
	1    1450 3800
	-1   0    0    1   
$EndComp
$Comp
L led-rescue:WS2812B-neopix-rescue RGBLED10
U 1 1 546FB546
P 1450 4100
F 0 "RGBLED10" H 1450 4000 20  0000 C TNN
F 1 "WS2812B" H 1450 4200 20  0000 C BNN
F 2 "" H 1550 4000 60  0000 C CNN
F 3 "" H 1550 4000 60  0000 C CNN
	1    1450 4100
	-1   0    0    1   
$EndComp
$Comp
L led-rescue:WS2812B-neopix-rescue RGBLED2
U 1 1 546FB54C
P 1450 1700
F 0 "RGBLED2" H 1450 1600 20  0000 C TNN
F 1 "WS2812B" H 1450 1800 20  0000 C BNN
F 2 "" H 1550 1600 60  0000 C CNN
F 3 "" H 1550 1600 60  0000 C CNN
	1    1450 1700
	-1   0    0    1   
$EndComp
$Comp
L led-rescue:WS2812B-neopix-rescue RGBLED1
U 1 1 546FB552
P 1450 1400
F 0 "RGBLED1" H 1450 1300 20  0000 C TNN
F 1 "WS2812B" H 1450 1500 20  0000 C BNN
F 2 "" H 1550 1300 60  0000 C CNN
F 3 "" H 1550 1300 60  0000 C CNN
	1    1450 1400
	-1   0    0    1   
$EndComp
$Comp
L led-rescue:WS2812B-neopix-rescue RGBLED40
U 1 1 546FC607
P 3100 4100
F 0 "RGBLED40" H 3100 4000 20  0000 C TNN
F 1 "WS2812B" H 3100 4200 20  0000 C BNN
F 2 "" H 3200 4000 60  0000 C CNN
F 3 "" H 3200 4000 60  0000 C CNN
	1    3100 4100
	1    0    0    -1  
$EndComp
$Comp
L led-rescue:WS2812B-neopix-rescue RGBLED39
U 1 1 546FC60D
P 3100 3800
F 0 "RGBLED39" H 3100 3700 20  0000 C TNN
F 1 "WS2812B" H 3100 3900 20  0000 C BNN
F 2 "" H 3200 3700 60  0000 C CNN
F 3 "" H 3200 3700 60  0000 C CNN
	1    3100 3800
	1    0    0    -1  
$EndComp
$Comp
L led-rescue:WS2812B-neopix-rescue RGBLED38
U 1 1 546FC613
P 3100 3500
F 0 "RGBLED38" H 3100 3400 20  0000 C TNN
F 1 "WS2812B" H 3100 3600 20  0000 C BNN
F 2 "" H 3200 3400 60  0000 C CNN
F 3 "" H 3200 3400 60  0000 C CNN
	1    3100 3500
	1    0    0    -1  
$EndComp
$Comp
L led-rescue:WS2812B-neopix-rescue RGBLED37
U 1 1 546FC619
P 3100 3200
F 0 "RGBLED37" H 3100 3100 20  0000 C TNN
F 1 "WS2812B" H 3100 3300 20  0000 C BNN
F 2 "" H 3200 3100 60  0000 C CNN
F 3 "" H 3200 3100 60  0000 C CNN
	1    3100 3200
	1    0    0    -1  
$EndComp
$Comp
L led-rescue:WS2812B-neopix-rescue RGBLED36
U 1 1 546FC61F
P 3100 2900
F 0 "RGBLED36" H 3100 2800 20  0000 C TNN
F 1 "WS2812B" H 3100 3000 20  0000 C BNN
F 2 "" H 3200 2800 60  0000 C CNN
F 3 "" H 3200 2800 60  0000 C CNN
	1    3100 2900
	1    0    0    -1  
$EndComp
$Comp
L led-rescue:WS2812B-neopix-rescue RGBLED35
U 1 1 546FC625
P 3100 2600
F 0 "RGBLED35" H 3100 2500 20  0000 C TNN
F 1 "WS2812B" H 3100 2700 20  0000 C BNN
F 2 "" H 3200 2500 60  0000 C CNN
F 3 "" H 3200 2500 60  0000 C CNN
	1    3100 2600
	1    0    0    -1  
$EndComp
$Comp
L led-rescue:WS2812B-neopix-rescue RGBLED34
U 1 1 546FC62B
P 3100 2300
F 0 "RGBLED34" H 3100 2200 20  0000 C TNN
F 1 "WS2812B" H 3100 2400 20  0000 C BNN
F 2 "" H 3200 2200 60  0000 C CNN
F 3 "" H 3200 2200 60  0000 C CNN
	1    3100 2300
	1    0    0    -1  
$EndComp
$Comp
L led-rescue:WS2812B-neopix-rescue RGBLED33
U 1 1 546FC631
P 3100 2000
F 0 "RGBLED33" H 3100 1900 20  0000 C TNN
F 1 "WS2812B" H 3100 2100 20  0000 C BNN
F 2 "" H 3200 1900 60  0000 C CNN
F 3 "" H 3200 1900 60  0000 C CNN
	1    3100 2000
	1    0    0    -1  
$EndComp
$Comp
L led-rescue:WS2812B-neopix-rescue RGBLED32
U 1 1 546FC637
P 3100 1700
F 0 "RGBLED32" H 3100 1600 20  0000 C TNN
F 1 "WS2812B" H 3100 1800 20  0000 C BNN
F 2 "" H 3200 1600 60  0000 C CNN
F 3 "" H 3200 1600 60  0000 C CNN
	1    3100 1700
	1    0    0    -1  
$EndComp
$Comp
L led-rescue:WS2812B-neopix-rescue RGBLED31
U 1 1 546FC63D
P 3100 1400
F 0 "RGBLED31" H 3100 1300 20  0000 C TNN
F 1 "WS2812B" H 3100 1500 20  0000 C BNN
F 2 "" H 3200 1300 60  0000 C CNN
F 3 "" H 3200 1300 60  0000 C CNN
	1    3100 1400
	1    0    0    -1  
$EndComp
$Comp
L led-rescue:WS2812B-neopix-rescue RGBLED23
U 1 1 546FC643
P 2550 2000
F 0 "RGBLED23" H 2550 1900 20  0000 C TNN
F 1 "WS2812B" H 2550 2100 20  0000 C BNN
F 2 "" H 2650 1900 60  0000 C CNN
F 3 "" H 2650 1900 60  0000 C CNN
	1    2550 2000
	-1   0    0    1   
$EndComp
$Comp
L led-rescue:WS2812B-neopix-rescue RGBLED24
U 1 1 546FC649
P 2550 2300
F 0 "RGBLED24" H 2550 2200 20  0000 C TNN
F 1 "WS2812B" H 2550 2400 20  0000 C BNN
F 2 "" H 2650 2200 60  0000 C CNN
F 3 "" H 2650 2200 60  0000 C CNN
	1    2550 2300
	-1   0    0    1   
$EndComp
$Comp
L led-rescue:WS2812B-neopix-rescue RGBLED25
U 1 1 546FC64F
P 2550 2600
F 0 "RGBLED25" H 2550 2500 20  0000 C TNN
F 1 "WS2812B" H 2550 2700 20  0000 C BNN
F 2 "" H 2650 2500 60  0000 C CNN
F 3 "" H 2650 2500 60  0000 C CNN
	1    2550 2600
	-1   0    0    1   
$EndComp
$Comp
L led-rescue:WS2812B-neopix-rescue RGBLED26
U 1 1 546FC655
P 2550 2900
F 0 "RGBLED26" H 2550 2800 20  0000 C TNN
F 1 "WS2812B" H 2550 3000 20  0000 C BNN
F 2 "" H 2650 2800 60  0000 C CNN
F 3 "" H 2650 2800 60  0000 C CNN
	1    2550 2900
	-1   0    0    1   
$EndComp
$Comp
L led-rescue:WS2812B-neopix-rescue RGBLED27
U 1 1 546FC65B
P 2550 3200
F 0 "RGBLED27" H 2550 3100 20  0000 C TNN
F 1 "WS2812B" H 2550 3300 20  0000 C BNN
F 2 "" H 2650 3100 60  0000 C CNN
F 3 "" H 2650 3100 60  0000 C CNN
	1    2550 3200
	-1   0    0    1   
$EndComp
$Comp
L led-rescue:WS2812B-neopix-rescue RGBLED28
U 1 1 546FC661
P 2550 3500
F 0 "RGBLED28" H 2550 3400 20  0000 C TNN
F 1 "WS2812B" H 2550 3600 20  0000 C BNN
F 2 "" H 2650 3400 60  0000 C CNN
F 3 "" H 2650 3400 60  0000 C CNN
	1    2550 3500
	-1   0    0    1   
$EndComp
$Comp
L led-rescue:WS2812B-neopix-rescue RGBLED29
U 1 1 546FC667
P 2550 3800
F 0 "RGBLED29" H 2550 3700 20  0000 C TNN
F 1 "WS2812B" H 2550 3900 20  0000 C BNN
F 2 "" H 2650 3700 60  0000 C CNN
F 3 "" H 2650 3700 60  0000 C CNN
	1    2550 3800
	-1   0    0    1   
$EndComp
$Comp
L led-rescue:WS2812B-neopix-rescue RGBLED30
U 1 1 546FC66D
P 2550 4100
F 0 "RGBLED30" H 2550 4000 20  0000 C TNN
F 1 "WS2812B" H 2550 4200 20  0000 C BNN
F 2 "" H 2650 4000 60  0000 C CNN
F 3 "" H 2650 4000 60  0000 C CNN
	1    2550 4100
	-1   0    0    1   
$EndComp
$Comp
L led-rescue:WS2812B-neopix-rescue RGBLED22
U 1 1 546FC673
P 2550 1700
F 0 "RGBLED22" H 2550 1600 20  0000 C TNN
F 1 "WS2812B" H 2550 1800 20  0000 C BNN
F 2 "" H 2650 1600 60  0000 C CNN
F 3 "" H 2650 1600 60  0000 C CNN
	1    2550 1700
	-1   0    0    1   
$EndComp
$Comp
L led-rescue:WS2812B-neopix-rescue RGBLED21
U 1 1 546FC679
P 2550 1400
F 0 "RGBLED21" H 2550 1300 20  0000 C TNN
F 1 "WS2812B" H 2550 1500 20  0000 C BNN
F 2 "" H 2650 1300 60  0000 C CNN
F 3 "" H 2650 1300 60  0000 C CNN
	1    2550 1400
	-1   0    0    1   
$EndComp
$Comp
L led-rescue:WS2812B-neopix-rescue RGBLED60
U 1 1 546FC81F
P 4200 4100
F 0 "RGBLED60" H 4200 4000 20  0000 C TNN
F 1 "WS2812B" H 4200 4200 20  0000 C BNN
F 2 "" H 4300 4000 60  0000 C CNN
F 3 "" H 4300 4000 60  0000 C CNN
	1    4200 4100
	1    0    0    -1  
$EndComp
$Comp
L led-rescue:WS2812B-neopix-rescue RGBLED59
U 1 1 546FC825
P 4200 3800
F 0 "RGBLED59" H 4200 3700 20  0000 C TNN
F 1 "WS2812B" H 4200 3900 20  0000 C BNN
F 2 "" H 4300 3700 60  0000 C CNN
F 3 "" H 4300 3700 60  0000 C CNN
	1    4200 3800
	1    0    0    -1  
$EndComp
$Comp
L led-rescue:WS2812B-neopix-rescue RGBLED58
U 1 1 546FC82B
P 4200 3500
F 0 "RGBLED58" H 4200 3400 20  0000 C TNN
F 1 "WS2812B" H 4200 3600 20  0000 C BNN
F 2 "" H 4300 3400 60  0000 C CNN
F 3 "" H 4300 3400 60  0000 C CNN
	1    4200 3500
	1    0    0    -1  
$EndComp
$Comp
L led-rescue:WS2812B-neopix-rescue RGBLED57
U 1 1 546FC831
P 4200 3200
F 0 "RGBLED57" H 4200 3100 20  0000 C TNN
F 1 "WS2812B" H 4200 3300 20  0000 C BNN
F 2 "" H 4300 3100 60  0000 C CNN
F 3 "" H 4300 3100 60  0000 C CNN
	1    4200 3200
	1    0    0    -1  
$EndComp
$Comp
L led-rescue:WS2812B-neopix-rescue RGBLED56
U 1 1 546FC837
P 4200 2900
F 0 "RGBLED56" H 4200 2800 20  0000 C TNN
F 1 "WS2812B" H 4200 3000 20  0000 C BNN
F 2 "" H 4300 2800 60  0000 C CNN
F 3 "" H 4300 2800 60  0000 C CNN
	1    4200 2900
	1    0    0    -1  
$EndComp
$Comp
L led-rescue:WS2812B-neopix-rescue RGBLED55
U 1 1 546FC83D
P 4200 2600
F 0 "RGBLED55" H 4200 2500 20  0000 C TNN
F 1 "WS2812B" H 4200 2700 20  0000 C BNN
F 2 "" H 4300 2500 60  0000 C CNN
F 3 "" H 4300 2500 60  0000 C CNN
	1    4200 2600
	1    0    0    -1  
$EndComp
$Comp
L led-rescue:WS2812B-neopix-rescue RGBLED54
U 1 1 546FC843
P 4200 2300
F 0 "RGBLED54" H 4200 2200 20  0000 C TNN
F 1 "WS2812B" H 4200 2400 20  0000 C BNN
F 2 "" H 4300 2200 60  0000 C CNN
F 3 "" H 4300 2200 60  0000 C CNN
	1    4200 2300
	1    0    0    -1  
$EndComp
$Comp
L led-rescue:WS2812B-neopix-rescue RGBLED53
U 1 1 546FC849
P 4200 2000
F 0 "RGBLED53" H 4200 1900 20  0000 C TNN
F 1 "WS2812B" H 4200 2100 20  0000 C BNN
F 2 "" H 4300 1900 60  0000 C CNN
F 3 "" H 4300 1900 60  0000 C CNN
	1    4200 2000
	1    0    0    -1  
$EndComp
$Comp
L led-rescue:WS2812B-neopix-rescue RGBLED52
U 1 1 546FC84F
P 4200 1700
F 0 "RGBLED52" H 4200 1600 20  0000 C TNN
F 1 "WS2812B" H 4200 1800 20  0000 C BNN
F 2 "" H 4300 1600 60  0000 C CNN
F 3 "" H 4300 1600 60  0000 C CNN
	1    4200 1700
	1    0    0    -1  
$EndComp
$Comp
L led-rescue:WS2812B-neopix-rescue RGBLED51
U 1 1 546FC855
P 4200 1400
F 0 "RGBLED51" H 4200 1300 20  0000 C TNN
F 1 "WS2812B" H 4200 1500 20  0000 C BNN
F 2 "" H 4300 1300 60  0000 C CNN
F 3 "" H 4300 1300 60  0000 C CNN
	1    4200 1400
	1    0    0    -1  
$EndComp
$Comp
L led-rescue:WS2812B-neopix-rescue RGBLED43
U 1 1 546FC85B
P 3650 2000
F 0 "RGBLED43" H 3650 1900 20  0000 C TNN
F 1 "WS2812B" H 3650 2100 20  0000 C BNN
F 2 "" H 3750 1900 60  0000 C CNN
F 3 "" H 3750 1900 60  0000 C CNN
	1    3650 2000
	-1   0    0    1   
$EndComp
$Comp
L led-rescue:WS2812B-neopix-rescue RGBLED44
U 1 1 546FC861
P 3650 2300
F 0 "RGBLED44" H 3650 2200 20  0000 C TNN
F 1 "WS2812B" H 3650 2400 20  0000 C BNN
F 2 "" H 3750 2200 60  0000 C CNN
F 3 "" H 3750 2200 60  0000 C CNN
	1    3650 2300
	-1   0    0    1   
$EndComp
$Comp
L led-rescue:WS2812B-neopix-rescue RGBLED45
U 1 1 546FC867
P 3650 2600
F 0 "RGBLED45" H 3650 2500 20  0000 C TNN
F 1 "WS2812B" H 3650 2700 20  0000 C BNN
F 2 "" H 3750 2500 60  0000 C CNN
F 3 "" H 3750 2500 60  0000 C CNN
	1    3650 2600
	-1   0    0    1   
$EndComp
$Comp
L led-rescue:WS2812B-neopix-rescue RGBLED46
U 1 1 546FC86D
P 3650 2900
F 0 "RGBLED46" H 3650 2800 20  0000 C TNN
F 1 "WS2812B" H 3650 3000 20  0000 C BNN
F 2 "" H 3750 2800 60  0000 C CNN
F 3 "" H 3750 2800 60  0000 C CNN
	1    3650 2900
	-1   0    0    1   
$EndComp
$Comp
L led-rescue:WS2812B-neopix-rescue RGBLED47
U 1 1 546FC873
P 3650 3200
F 0 "RGBLED47" H 3650 3100 20  0000 C TNN
F 1 "WS2812B" H 3650 3300 20  0000 C BNN
F 2 "" H 3750 3100 60  0000 C CNN
F 3 "" H 3750 3100 60  0000 C CNN
	1    3650 3200
	-1   0    0    1   
$EndComp
$Comp
L led-rescue:WS2812B-neopix-rescue RGBLED48
U 1 1 546FC879
P 3650 3500
F 0 "RGBLED48" H 3650 3400 20  0000 C TNN
F 1 "WS2812B" H 3650 3600 20  0000 C BNN
F 2 "" H 3750 3400 60  0000 C CNN
F 3 "" H 3750 3400 60  0000 C CNN
	1    3650 3500
	-1   0    0    1   
$EndComp
$Comp
L led-rescue:WS2812B-neopix-rescue RGBLED49
U 1 1 546FC87F
P 3650 3800
F 0 "RGBLED49" H 3650 3700 20  0000 C TNN
F 1 "WS2812B" H 3650 3900 20  0000 C BNN
F 2 "" H 3750 3700 60  0000 C CNN
F 3 "" H 3750 3700 60  0000 C CNN
	1    3650 3800
	-1   0    0    1   
$EndComp
$Comp
L led-rescue:WS2812B-neopix-rescue RGBLED50
U 1 1 546FC885
P 3650 4100
F 0 "RGBLED50" H 3650 4000 20  0000 C TNN
F 1 "WS2812B" H 3650 4200 20  0000 C BNN
F 2 "" H 3750 4000 60  0000 C CNN
F 3 "" H 3750 4000 60  0000 C CNN
	1    3650 4100
	-1   0    0    1   
$EndComp
$Comp
L led-rescue:WS2812B-neopix-rescue RGBLED42
U 1 1 546FC88B
P 3650 1700
F 0 "RGBLED42" H 3650 1600 20  0000 C TNN
F 1 "WS2812B" H 3650 1800 20  0000 C BNN
F 2 "" H 3750 1600 60  0000 C CNN
F 3 "" H 3750 1600 60  0000 C CNN
	1    3650 1700
	-1   0    0    1   
$EndComp
$Comp
L led-rescue:WS2812B-neopix-rescue RGBLED41
U 1 1 546FC891
P 3650 1400
F 0 "RGBLED41" H 3650 1300 20  0000 C TNN
F 1 "WS2812B" H 3650 1500 20  0000 C BNN
F 2 "" H 3750 1300 60  0000 C CNN
F 3 "" H 3750 1300 60  0000 C CNN
	1    3650 1400
	-1   0    0    1   
$EndComp
$Comp
L led-rescue:WS2812B-neopix-rescue RGBLED80
U 1 1 546FC91F
P 5300 4100
F 0 "RGBLED80" H 5300 4000 20  0000 C TNN
F 1 "WS2812B" H 5300 4200 20  0000 C BNN
F 2 "" H 5400 4000 60  0000 C CNN
F 3 "" H 5400 4000 60  0000 C CNN
	1    5300 4100
	1    0    0    -1  
$EndComp
$Comp
L led-rescue:WS2812B-neopix-rescue RGBLED79
U 1 1 546FC925
P 5300 3800
F 0 "RGBLED79" H 5300 3700 20  0000 C TNN
F 1 "WS2812B" H 5300 3900 20  0000 C BNN
F 2 "" H 5400 3700 60  0000 C CNN
F 3 "" H 5400 3700 60  0000 C CNN
	1    5300 3800
	1    0    0    -1  
$EndComp
$Comp
L led-rescue:WS2812B-neopix-rescue RGBLED78
U 1 1 546FC92B
P 5300 3500
F 0 "RGBLED78" H 5300 3400 20  0000 C TNN
F 1 "WS2812B" H 5300 3600 20  0000 C BNN
F 2 "" H 5400 3400 60  0000 C CNN
F 3 "" H 5400 3400 60  0000 C CNN
	1    5300 3500
	1    0    0    -1  
$EndComp
$Comp
L led-rescue:WS2812B-neopix-rescue RGBLED77
U 1 1 546FC931
P 5300 3200
F 0 "RGBLED77" H 5300 3100 20  0000 C TNN
F 1 "WS2812B" H 5300 3300 20  0000 C BNN
F 2 "" H 5400 3100 60  0000 C CNN
F 3 "" H 5400 3100 60  0000 C CNN
	1    5300 3200
	1    0    0    -1  
$EndComp
$Comp
L led-rescue:WS2812B-neopix-rescue RGBLED76
U 1 1 546FC937
P 5300 2900
F 0 "RGBLED76" H 5300 2800 20  0000 C TNN
F 1 "WS2812B" H 5300 3000 20  0000 C BNN
F 2 "" H 5400 2800 60  0000 C CNN
F 3 "" H 5400 2800 60  0000 C CNN
	1    5300 2900
	1    0    0    -1  
$EndComp
$Comp
L led-rescue:WS2812B-neopix-rescue RGBLED75
U 1 1 546FC93D
P 5300 2600
F 0 "RGBLED75" H 5300 2500 20  0000 C TNN
F 1 "WS2812B" H 5300 2700 20  0000 C BNN
F 2 "" H 5400 2500 60  0000 C CNN
F 3 "" H 5400 2500 60  0000 C CNN
	1    5300 2600
	1    0    0    -1  
$EndComp
$Comp
L led-rescue:WS2812B-neopix-rescue RGBLED74
U 1 1 546FC943
P 5300 2300
F 0 "RGBLED74" H 5300 2200 20  0000 C TNN
F 1 "WS2812B" H 5300 2400 20  0000 C BNN
F 2 "" H 5400 2200 60  0000 C CNN
F 3 "" H 5400 2200 60  0000 C CNN
	1    5300 2300
	1    0    0    -1  
$EndComp
$Comp
L led-rescue:WS2812B-neopix-rescue RGBLED73
U 1 1 546FC949
P 5300 2000
F 0 "RGBLED73" H 5300 1900 20  0000 C TNN
F 1 "WS2812B" H 5300 2100 20  0000 C BNN
F 2 "" H 5400 1900 60  0000 C CNN
F 3 "" H 5400 1900 60  0000 C CNN
	1    5300 2000
	1    0    0    -1  
$EndComp
$Comp
L led-rescue:WS2812B-neopix-rescue RGBLED72
U 1 1 546FC94F
P 5300 1700
F 0 "RGBLED72" H 5300 1600 20  0000 C TNN
F 1 "WS2812B" H 5300 1800 20  0000 C BNN
F 2 "" H 5400 1600 60  0000 C CNN
F 3 "" H 5400 1600 60  0000 C CNN
	1    5300 1700
	1    0    0    -1  
$EndComp
$Comp
L led-rescue:WS2812B-neopix-rescue RGBLED71
U 1 1 546FC955
P 5300 1400
F 0 "RGBLED71" H 5300 1300 20  0000 C TNN
F 1 "WS2812B" H 5300 1500 20  0000 C BNN
F 2 "" H 5400 1300 60  0000 C CNN
F 3 "" H 5400 1300 60  0000 C CNN
	1    5300 1400
	1    0    0    -1  
$EndComp
$Comp
L led-rescue:WS2812B-neopix-rescue RGBLED63
U 1 1 546FC95B
P 4750 2000
F 0 "RGBLED63" H 4750 1900 20  0000 C TNN
F 1 "WS2812B" H 4750 2100 20  0000 C BNN
F 2 "" H 4850 1900 60  0000 C CNN
F 3 "" H 4850 1900 60  0000 C CNN
	1    4750 2000
	-1   0    0    1   
$EndComp
$Comp
L led-rescue:WS2812B-neopix-rescue RGBLED64
U 1 1 546FC961
P 4750 2300
F 0 "RGBLED64" H 4750 2200 20  0000 C TNN
F 1 "WS2812B" H 4750 2400 20  0000 C BNN
F 2 "" H 4850 2200 60  0000 C CNN
F 3 "" H 4850 2200 60  0000 C CNN
	1    4750 2300
	-1   0    0    1   
$EndComp
$Comp
L led-rescue:WS2812B-neopix-rescue RGBLED65
U 1 1 546FC967
P 4750 2600
F 0 "RGBLED65" H 4750 2500 20  0000 C TNN
F 1 "WS2812B" H 4750 2700 20  0000 C BNN
F 2 "" H 4850 2500 60  0000 C CNN
F 3 "" H 4850 2500 60  0000 C CNN
	1    4750 2600
	-1   0    0    1   
$EndComp
$Comp
L led-rescue:WS2812B-neopix-rescue RGBLED66
U 1 1 546FC96D
P 4750 2900
F 0 "RGBLED66" H 4750 2800 20  0000 C TNN
F 1 "WS2812B" H 4750 3000 20  0000 C BNN
F 2 "" H 4850 2800 60  0000 C CNN
F 3 "" H 4850 2800 60  0000 C CNN
	1    4750 2900
	-1   0    0    1   
$EndComp
$Comp
L led-rescue:WS2812B-neopix-rescue RGBLED67
U 1 1 546FC973
P 4750 3200
F 0 "RGBLED67" H 4750 3100 20  0000 C TNN
F 1 "WS2812B" H 4750 3300 20  0000 C BNN
F 2 "" H 4850 3100 60  0000 C CNN
F 3 "" H 4850 3100 60  0000 C CNN
	1    4750 3200
	-1   0    0    1   
$EndComp
$Comp
L led-rescue:WS2812B-neopix-rescue RGBLED68
U 1 1 546FC979
P 4750 3500
F 0 "RGBLED68" H 4750 3400 20  0000 C TNN
F 1 "WS2812B" H 4750 3600 20  0000 C BNN
F 2 "" H 4850 3400 60  0000 C CNN
F 3 "" H 4850 3400 60  0000 C CNN
	1    4750 3500
	-1   0    0    1   
$EndComp
$Comp
L led-rescue:WS2812B-neopix-rescue RGBLED69
U 1 1 546FC97F
P 4750 3800
F 0 "RGBLED69" H 4750 3700 20  0000 C TNN
F 1 "WS2812B" H 4750 3900 20  0000 C BNN
F 2 "" H 4850 3700 60  0000 C CNN
F 3 "" H 4850 3700 60  0000 C CNN
	1    4750 3800
	-1   0    0    1   
$EndComp
$Comp
L led-rescue:WS2812B-neopix-rescue RGBLED70
U 1 1 546FC985
P 4750 4100
F 0 "RGBLED70" H 4750 4000 20  0000 C TNN
F 1 "WS2812B" H 4750 4200 20  0000 C BNN
F 2 "" H 4850 4000 60  0000 C CNN
F 3 "" H 4850 4000 60  0000 C CNN
	1    4750 4100
	-1   0    0    1   
$EndComp
$Comp
L led-rescue:WS2812B-neopix-rescue RGBLED62
U 1 1 546FC98B
P 4750 1700
F 0 "RGBLED62" H 4750 1600 20  0000 C TNN
F 1 "WS2812B" H 4750 1800 20  0000 C BNN
F 2 "" H 4850 1600 60  0000 C CNN
F 3 "" H 4850 1600 60  0000 C CNN
	1    4750 1700
	-1   0    0    1   
$EndComp
$Comp
L led-rescue:WS2812B-neopix-rescue RGBLED61
U 1 1 546FC991
P 4750 1400
F 0 "RGBLED61" H 4750 1300 20  0000 C TNN
F 1 "WS2812B" H 4750 1500 20  0000 C BNN
F 2 "" H 4850 1300 60  0000 C CNN
F 3 "" H 4850 1300 60  0000 C CNN
	1    4750 1400
	-1   0    0    1   
$EndComp
$Comp
L led-rescue:WS2812B-neopix-rescue RGBLED84
U 1 1 546FCAC8
P 5850 2000
F 0 "RGBLED84" H 5850 1900 20  0000 C TNN
F 1 "WS2812B" H 5850 2100 20  0000 C BNN
F 2 "" H 5950 1900 60  0000 C CNN
F 3 "" H 5950 1900 60  0000 C CNN
	1    5850 2000
	-1   0    0    1   
$EndComp
$Comp
L led-rescue:WS2812B-neopix-rescue RGBLED85
U 1 1 546FCACE
P 5850 2300
F 0 "RGBLED85" H 5850 2200 20  0000 C TNN
F 1 "WS2812B" H 5850 2400 20  0000 C BNN
F 2 "" H 5950 2200 60  0000 C CNN
F 3 "" H 5950 2200 60  0000 C CNN
	1    5850 2300
	-1   0    0    1   
$EndComp
$Comp
L led-rescue:WS2812B-neopix-rescue RGBLED86
U 1 1 546FCAD4
P 5850 2600
F 0 "RGBLED86" H 5850 2500 20  0000 C TNN
F 1 "WS2812B" H 5850 2700 20  0000 C BNN
F 2 "" H 5950 2500 60  0000 C CNN
F 3 "" H 5950 2500 60  0000 C CNN
	1    5850 2600
	-1   0    0    1   
$EndComp
$Comp
L led-rescue:WS2812B-neopix-rescue RGBLED87
U 1 1 546FCADA
P 5850 2900
F 0 "RGBLED87" H 5850 2800 20  0000 C TNN
F 1 "WS2812B" H 5850 3000 20  0000 C BNN
F 2 "" H 5950 2800 60  0000 C CNN
F 3 "" H 5950 2800 60  0000 C CNN
	1    5850 2900
	-1   0    0    1   
$EndComp
$Comp
L led-rescue:WS2812B-neopix-rescue RGBLED88
U 1 1 546FCAE0
P 5850 3200
F 0 "RGBLED88" H 5850 3100 20  0000 C TNN
F 1 "WS2812B" H 5850 3300 20  0000 C BNN
F 2 "" H 5950 3100 60  0000 C CNN
F 3 "" H 5950 3100 60  0000 C CNN
	1    5850 3200
	-1   0    0    1   
$EndComp
$Comp
L led-rescue:WS2812B-neopix-rescue RGBLED89
U 1 1 546FCAE6
P 5850 3500
F 0 "RGBLED89" H 5850 3400 20  0000 C TNN
F 1 "WS2812B" H 5850 3600 20  0000 C BNN
F 2 "" H 5950 3400 60  0000 C CNN
F 3 "" H 5950 3400 60  0000 C CNN
	1    5850 3500
	-1   0    0    1   
$EndComp
$Comp
L led-rescue:WS2812B-neopix-rescue RGBLED90
U 1 1 546FCAEC
P 5850 3800
F 0 "RGBLED90" H 5850 3700 20  0000 C TNN
F 1 "WS2812B" H 5850 3900 20  0000 C BNN
F 2 "" H 5950 3700 60  0000 C CNN
F 3 "" H 5950 3700 60  0000 C CNN
	1    5850 3800
	-1   0    0    1   
$EndComp
$Comp
L led-rescue:WS2812B-neopix-rescue RGBLED91
U 1 1 546FCAF2
P 5850 4100
F 0 "RGBLED91" H 5850 4000 20  0000 C TNN
F 1 "WS2812B" H 5850 4200 20  0000 C BNN
F 2 "" H 5950 4000 60  0000 C CNN
F 3 "" H 5950 4000 60  0000 C CNN
	1    5850 4100
	-1   0    0    1   
$EndComp
$Comp
L led-rescue:WS2812B-neopix-rescue RGBLED83
U 1 1 546FCAF8
P 5850 1700
F 0 "RGBLED83" H 5850 1600 20  0000 C TNN
F 1 "WS2812B" H 5850 1800 20  0000 C BNN
F 2 "" H 5950 1600 60  0000 C CNN
F 3 "" H 5950 1600 60  0000 C CNN
	1    5850 1700
	-1   0    0    1   
$EndComp
$Comp
L led-rescue:WS2812B-neopix-rescue RGBLED82
U 1 1 546FCAFE
P 5850 1400
F 0 "RGBLED82" H 5850 1300 20  0000 C TNN
F 1 "WS2812B" H 5850 1500 20  0000 C BNN
F 2 "" H 5950 1300 60  0000 C CNN
F 3 "" H 5950 1300 60  0000 C CNN
	1    5850 1400
	-1   0    0    1   
$EndComp
$Comp
L led-rescue:WS2812B-neopix-rescue RGBLED81
U 1 1 54702778
P 5850 1100
F 0 "RGBLED81" H 5850 1000 20  0000 C TNN
F 1 "WS2812B" H 5850 1200 20  0000 C BNN
F 2 "" H 5950 1000 60  0000 C CNN
F 3 "" H 5950 1000 60  0000 C CNN
	1    5850 1100
	-1   0    0    1   
$EndComp
$Comp
L led-rescue:CAPAPOL-neopix-rescue C1
U 1 1 547036E6
P 1450 4650
F 0 "C1" H 1500 4750 40  0000 L CNN
F 1 "CAPAPOL" H 1500 4550 40  0000 L CNN
F 2 "~" H 1550 4500 30  0000 C CNN
F 3 "1000uF" H 1450 4650 39  0000 C CNN
	1    1450 4650
	0    1    1    0   
$EndComp
$Comp
L power:+5V #PWR01
U 1 1 54703EC4
P 1700 4750
F 0 "#PWR01" H 1700 4840 20  0001 C CNN
F 1 "+5V" H 1700 4840 30  0000 C CNN
F 2 "" H 1700 4750 60  0000 C CNN
F 3 "" H 1700 4750 60  0000 C CNN
	1    1700 4750
	-1   0    0    1   
$EndComp
$Comp
L led-rescue:GND-RESCUE-neopix-neopix-rescue #PWR02
U 1 1 547058F8
P 1200 4750
F 0 "#PWR02" H 1200 4750 30  0001 C CNN
F 1 "GND" H 1200 4680 30  0001 C CNN
F 2 "" H 1200 4750 60  0000 C CNN
F 3 "" H 1200 4750 60  0000 C CNN
	1    1200 4750
	1    0    0    -1  
$EndComp
Wire Wire Line
	2300 4150 2250 4150
Wire Wire Line
	2250 1200 2250 1450
Wire Wire Line
	2250 3850 2200 3850
Wire Wire Line
	2250 3550 2200 3550
Connection ~ 2250 3850
Wire Wire Line
	2250 3250 2200 3250
Connection ~ 2250 3550
Wire Wire Line
	2200 4050 2200 3950
Wire Wire Line
	2200 3950 1800 3950
Wire Wire Line
	1800 3950 1800 3850
Wire Wire Line
	1700 4150 1650 4150
Wire Wire Line
	1700 3850 1650 3850
Wire Wire Line
	1700 3550 1650 3550
Connection ~ 1700 3850
Wire Wire Line
	1650 3250 1700 3250
Connection ~ 1700 3550
Wire Wire Line
	1700 2950 1650 2950
Connection ~ 1700 3250
Wire Wire Line
	1700 2650 1650 2650
Connection ~ 1700 2950
Wire Wire Line
	1700 2350 1650 2350
Connection ~ 1700 2650
Wire Wire Line
	1200 4050 1250 4050
Wire Wire Line
	1200 1350 1200 1650
Wire Wire Line
	1200 3750 1250 3750
Wire Wire Line
	1200 3450 1250 3450
Connection ~ 1200 3750
Wire Wire Line
	1200 3150 1250 3150
Connection ~ 1200 3450
Wire Wire Line
	1200 2850 1250 2850
Connection ~ 1200 3150
Wire Wire Line
	1200 2550 1250 2550
Connection ~ 1200 2850
Wire Wire Line
	1200 2250 1250 2250
Connection ~ 1200 2550
Wire Wire Line
	1700 2050 1650 2050
Connection ~ 1700 2350
Wire Wire Line
	1700 1750 1650 1750
Connection ~ 1700 2050
Wire Wire Line
	1700 1450 1650 1450
Connection ~ 1700 1750
Wire Wire Line
	1700 1350 1750 1350
Connection ~ 1700 1450
Wire Wire Line
	1650 1350 1650 1250
Wire Wire Line
	1650 1250 2200 1250
Wire Wire Line
	2200 1250 2200 1350
Wire Wire Line
	1250 1350 1250 1200
Wire Wire Line
	1250 1200 2250 1200
Wire Wire Line
	2250 1450 2200 1450
Wire Wire Line
	1250 1450 1250 1550
Wire Wire Line
	1250 1550 1650 1550
Wire Wire Line
	1650 1550 1650 1650
Wire Wire Line
	1250 1750 1250 1850
Wire Wire Line
	1250 1850 1650 1850
Wire Wire Line
	1650 1850 1650 1950
Wire Wire Line
	1250 2050 1250 2150
Wire Wire Line
	1250 2150 1650 2150
Wire Wire Line
	1650 2150 1650 2250
Wire Wire Line
	1200 1950 1250 1950
Connection ~ 1200 2250
Wire Wire Line
	1200 1650 1250 1650
Connection ~ 1200 1950
Wire Wire Line
	1200 1350 1250 1350
Connection ~ 1200 1650
Wire Wire Line
	2250 1750 2200 1750
Connection ~ 2250 1450
Wire Wire Line
	2250 2050 2200 2050
Connection ~ 2250 1750
Wire Wire Line
	2250 2350 2200 2350
Connection ~ 2250 2050
Wire Wire Line
	2250 2650 2200 2650
Connection ~ 2250 2350
Wire Wire Line
	2250 2950 2200 2950
Connection ~ 2250 2650
Connection ~ 2250 3250
Connection ~ 2250 2950
Wire Wire Line
	1650 4050 1650 3950
Wire Wire Line
	1650 3950 1250 3950
Wire Wire Line
	1250 3950 1250 3850
Wire Wire Line
	1650 3750 1650 3650
Wire Wire Line
	1650 3650 1250 3650
Wire Wire Line
	1250 3650 1250 3550
Wire Wire Line
	1650 3450 1650 3350
Wire Wire Line
	1650 3350 1250 3350
Wire Wire Line
	1250 3350 1250 3250
Wire Wire Line
	1650 2850 1650 2750
Wire Wire Line
	1650 2750 1250 2750
Wire Wire Line
	1250 2750 1250 2650
Wire Wire Line
	1650 2550 1650 2450
Wire Wire Line
	1650 2450 1250 2450
Wire Wire Line
	1250 2450 1250 2350
Wire Wire Line
	1650 3150 1650 3050
Wire Wire Line
	1650 3050 1250 3050
Wire Wire Line
	1250 3050 1250 2950
Wire Wire Line
	1800 1450 1800 1550
Wire Wire Line
	1800 1550 2200 1550
Wire Wire Line
	2200 1550 2200 1650
Wire Wire Line
	1800 1750 1800 1850
Wire Wire Line
	1800 1850 2200 1850
Wire Wire Line
	2200 1850 2200 1950
Wire Wire Line
	1800 1650 1750 1650
Wire Wire Line
	1750 1350 1750 1650
Connection ~ 1750 1350
Wire Wire Line
	1750 1950 1800 1950
Connection ~ 1750 1650
Wire Wire Line
	1750 2250 1800 2250
Connection ~ 1750 1950
Wire Wire Line
	1750 2550 1800 2550
Connection ~ 1750 2250
Wire Wire Line
	1750 2850 1800 2850
Connection ~ 1750 2550
Wire Wire Line
	1750 3150 1800 3150
Connection ~ 1750 2850
Wire Wire Line
	1750 3450 1800 3450
Connection ~ 1750 3150
Wire Wire Line
	1750 3750 1800 3750
Connection ~ 1750 3450
Wire Wire Line
	1750 4050 1800 4050
Connection ~ 1750 3750
Wire Wire Line
	2200 3750 2200 3650
Wire Wire Line
	2200 3650 1800 3650
Wire Wire Line
	1800 3650 1800 3550
Wire Wire Line
	2200 3450 2200 3350
Wire Wire Line
	2200 3350 1800 3350
Wire Wire Line
	1800 3350 1800 3250
Wire Wire Line
	2200 3150 2200 3050
Wire Wire Line
	2200 3050 1800 3050
Wire Wire Line
	1800 3050 1800 2950
Wire Wire Line
	2200 2850 2200 2750
Wire Wire Line
	2200 2750 1800 2750
Wire Wire Line
	1800 2750 1800 2650
Wire Wire Line
	2200 2550 2200 2450
Wire Wire Line
	2200 2450 1800 2450
Wire Wire Line
	1800 2450 1800 2350
Wire Wire Line
	2200 2250 2200 2150
Wire Wire Line
	2200 2150 1800 2150
Wire Wire Line
	1800 2150 1800 2050
Wire Wire Line
	3350 1200 3350 1450
Wire Wire Line
	3350 3850 3300 3850
Wire Wire Line
	3350 3550 3300 3550
Connection ~ 3350 3850
Wire Wire Line
	3350 3250 3300 3250
Connection ~ 3350 3550
Wire Wire Line
	3300 4050 3300 3950
Wire Wire Line
	3300 3950 2900 3950
Wire Wire Line
	2900 3950 2900 3850
Wire Wire Line
	2800 1350 2800 1450
Wire Wire Line
	2800 3850 2750 3850
Wire Wire Line
	2800 3550 2750 3550
Connection ~ 2800 3850
Wire Wire Line
	2750 3250 2800 3250
Connection ~ 2800 3550
Wire Wire Line
	2800 2950 2750 2950
Connection ~ 2800 3250
Wire Wire Line
	2800 2650 2750 2650
Connection ~ 2800 2950
Wire Wire Line
	2800 2350 2750 2350
Connection ~ 2800 2650
Wire Wire Line
	2300 4050 2350 4050
Wire Wire Line
	2300 1350 2300 1650
Wire Wire Line
	2300 3750 2350 3750
Wire Wire Line
	2300 3450 2350 3450
Connection ~ 2300 3750
Wire Wire Line
	2300 3150 2350 3150
Connection ~ 2300 3450
Wire Wire Line
	2300 2850 2350 2850
Connection ~ 2300 3150
Wire Wire Line
	2300 2550 2350 2550
Connection ~ 2300 2850
Wire Wire Line
	2300 2250 2350 2250
Connection ~ 2300 2550
Wire Wire Line
	2800 2050 2750 2050
Connection ~ 2800 2350
Wire Wire Line
	2800 1750 2750 1750
Connection ~ 2800 2050
Wire Wire Line
	2800 1450 2750 1450
Connection ~ 2800 1750
Wire Wire Line
	2800 1350 2850 1350
Connection ~ 2800 1450
Wire Wire Line
	2750 1350 2750 1250
Wire Wire Line
	2750 1250 3300 1250
Wire Wire Line
	3300 1250 3300 1350
Wire Wire Line
	2350 1350 2350 1200
Wire Wire Line
	2350 1200 3350 1200
Wire Wire Line
	3350 1450 3300 1450
Wire Wire Line
	2350 1450 2350 1550
Wire Wire Line
	2350 1550 2750 1550
Wire Wire Line
	2750 1550 2750 1650
Wire Wire Line
	2350 1750 2350 1850
Wire Wire Line
	2350 1850 2750 1850
Wire Wire Line
	2750 1850 2750 1950
Wire Wire Line
	2350 2050 2350 2150
Wire Wire Line
	2350 2150 2750 2150
Wire Wire Line
	2750 2150 2750 2250
Wire Wire Line
	2300 1950 2350 1950
Connection ~ 2300 2250
Wire Wire Line
	2300 1650 2350 1650
Connection ~ 2300 1950
Wire Wire Line
	2300 1350 2350 1350
Connection ~ 2300 1650
Wire Wire Line
	3350 1750 3300 1750
Connection ~ 3350 1450
Wire Wire Line
	3350 2050 3300 2050
Connection ~ 3350 1750
Wire Wire Line
	3350 2350 3300 2350
Connection ~ 3350 2050
Wire Wire Line
	3350 2650 3300 2650
Connection ~ 3350 2350
Wire Wire Line
	3350 2950 3300 2950
Connection ~ 3350 2650
Connection ~ 3350 3250
Connection ~ 3350 2950
Wire Wire Line
	2750 4050 2750 3950
Wire Wire Line
	2750 3950 2350 3950
Wire Wire Line
	2350 3950 2350 3850
Wire Wire Line
	2750 3750 2750 3650
Wire Wire Line
	2750 3650 2350 3650
Wire Wire Line
	2350 3650 2350 3550
Wire Wire Line
	2750 3450 2750 3350
Wire Wire Line
	2750 3350 2350 3350
Wire Wire Line
	2350 3350 2350 3250
Wire Wire Line
	2750 2850 2750 2750
Wire Wire Line
	2750 2750 2350 2750
Wire Wire Line
	2350 2750 2350 2650
Wire Wire Line
	2750 2550 2750 2450
Wire Wire Line
	2750 2450 2350 2450
Wire Wire Line
	2350 2450 2350 2350
Wire Wire Line
	2750 3150 2750 3050
Wire Wire Line
	2750 3050 2350 3050
Wire Wire Line
	2350 3050 2350 2950
Wire Wire Line
	2900 1450 2900 1550
Wire Wire Line
	2900 1550 3300 1550
Wire Wire Line
	3300 1550 3300 1650
Wire Wire Line
	2900 1750 2900 1850
Wire Wire Line
	2900 1850 3300 1850
Wire Wire Line
	3300 1850 3300 1950
Wire Wire Line
	2900 1650 2850 1650
Wire Wire Line
	2850 1350 2850 1650
Connection ~ 2850 1350
Wire Wire Line
	2850 1950 2900 1950
Connection ~ 2850 1650
Wire Wire Line
	2850 2250 2900 2250
Connection ~ 2850 1950
Wire Wire Line
	2850 2550 2900 2550
Connection ~ 2850 2250
Wire Wire Line
	2850 2850 2900 2850
Connection ~ 2850 2550
Wire Wire Line
	2850 3150 2900 3150
Connection ~ 2850 2850
Wire Wire Line
	2850 3450 2900 3450
Connection ~ 2850 3150
Wire Wire Line
	2850 3750 2900 3750
Connection ~ 2850 3450
Wire Wire Line
	2850 4050 2900 4050
Connection ~ 2850 3750
Wire Wire Line
	3300 3750 3300 3650
Wire Wire Line
	3300 3650 2900 3650
Wire Wire Line
	2900 3650 2900 3550
Wire Wire Line
	3300 3450 3300 3350
Wire Wire Line
	3300 3350 2900 3350
Wire Wire Line
	2900 3350 2900 3250
Wire Wire Line
	3300 3150 3300 3050
Wire Wire Line
	3300 3050 2900 3050
Wire Wire Line
	2900 3050 2900 2950
Wire Wire Line
	3300 2850 3300 2750
Wire Wire Line
	3300 2750 2900 2750
Wire Wire Line
	2900 2750 2900 2650
Wire Wire Line
	3300 2550 3300 2450
Wire Wire Line
	3300 2450 2900 2450
Wire Wire Line
	2900 2450 2900 2350
Wire Wire Line
	3300 2250 3300 2150
Wire Wire Line
	3300 2150 2900 2150
Wire Wire Line
	2900 2150 2900 2050
Wire Wire Line
	4450 1200 4450 1450
Wire Wire Line
	4450 3850 4400 3850
Wire Wire Line
	4450 3550 4400 3550
Connection ~ 4450 3850
Wire Wire Line
	4450 3250 4400 3250
Connection ~ 4450 3550
Wire Wire Line
	4400 4050 4400 3950
Wire Wire Line
	4400 3950 4000 3950
Wire Wire Line
	4000 3950 4000 3850
Wire Wire Line
	3900 1350 3900 1450
Wire Wire Line
	3900 3850 3850 3850
Wire Wire Line
	3900 3550 3850 3550
Connection ~ 3900 3850
Wire Wire Line
	3850 3250 3900 3250
Connection ~ 3900 3550
Wire Wire Line
	3900 2950 3850 2950
Connection ~ 3900 3250
Wire Wire Line
	3900 2650 3850 2650
Connection ~ 3900 2950
Wire Wire Line
	3900 2350 3850 2350
Connection ~ 3900 2650
Wire Wire Line
	3400 4050 3450 4050
Wire Wire Line
	3400 4150 3400 4050
Wire Wire Line
	3400 3750 3450 3750
Wire Wire Line
	3400 3450 3450 3450
Connection ~ 3400 3750
Wire Wire Line
	3400 3150 3450 3150
Connection ~ 3400 3450
Wire Wire Line
	3400 2850 3450 2850
Connection ~ 3400 3150
Wire Wire Line
	3400 2550 3450 2550
Connection ~ 3400 2850
Wire Wire Line
	3400 2250 3450 2250
Connection ~ 3400 2550
Wire Wire Line
	3900 2050 3850 2050
Connection ~ 3900 2350
Wire Wire Line
	3900 1750 3850 1750
Connection ~ 3900 2050
Wire Wire Line
	3900 1450 3850 1450
Connection ~ 3900 1750
Wire Wire Line
	3900 1350 3950 1350
Connection ~ 3900 1450
Wire Wire Line
	3850 1350 3850 1250
Wire Wire Line
	3850 1250 4400 1250
Wire Wire Line
	4400 1250 4400 1350
Wire Wire Line
	3450 1350 3450 1200
Wire Wire Line
	3450 1200 4450 1200
Wire Wire Line
	4450 1450 4400 1450
Wire Wire Line
	3450 1450 3450 1550
Wire Wire Line
	3450 1550 3850 1550
Wire Wire Line
	3850 1550 3850 1650
Wire Wire Line
	3450 1750 3450 1850
Wire Wire Line
	3450 1850 3850 1850
Wire Wire Line
	3850 1850 3850 1950
Wire Wire Line
	3450 2050 3450 2150
Wire Wire Line
	3450 2150 3850 2150
Wire Wire Line
	3850 2150 3850 2250
Wire Wire Line
	3400 1950 3450 1950
Connection ~ 3400 2250
Wire Wire Line
	3400 1650 3450 1650
Connection ~ 3400 1950
Wire Wire Line
	3400 1350 3450 1350
Connection ~ 3400 1650
Wire Wire Line
	4450 1750 4400 1750
Connection ~ 4450 1450
Wire Wire Line
	4450 2050 4400 2050
Connection ~ 4450 1750
Wire Wire Line
	4450 2350 4400 2350
Connection ~ 4450 2050
Wire Wire Line
	4450 2650 4400 2650
Connection ~ 4450 2350
Wire Wire Line
	4450 2950 4400 2950
Connection ~ 4450 2650
Connection ~ 4450 3250
Connection ~ 4450 2950
Wire Wire Line
	3850 4050 3850 3950
Wire Wire Line
	3850 3950 3450 3950
Wire Wire Line
	3450 3950 3450 3850
Wire Wire Line
	3850 3750 3850 3650
Wire Wire Line
	3850 3650 3450 3650
Wire Wire Line
	3450 3650 3450 3550
Wire Wire Line
	3850 3450 3850 3350
Wire Wire Line
	3850 3350 3450 3350
Wire Wire Line
	3450 3350 3450 3250
Wire Wire Line
	3850 2850 3850 2750
Wire Wire Line
	3850 2750 3450 2750
Wire Wire Line
	3450 2750 3450 2650
Wire Wire Line
	3850 2550 3850 2450
Wire Wire Line
	3850 2450 3450 2450
Wire Wire Line
	3450 2450 3450 2350
Wire Wire Line
	3850 3150 3850 3050
Wire Wire Line
	3850 3050 3450 3050
Wire Wire Line
	3450 3050 3450 2950
Wire Wire Line
	4000 1450 4000 1550
Wire Wire Line
	4000 1550 4400 1550
Wire Wire Line
	4400 1550 4400 1650
Wire Wire Line
	4000 1750 4000 1850
Wire Wire Line
	4000 1850 4400 1850
Wire Wire Line
	4400 1850 4400 1950
Wire Wire Line
	4000 1650 3950 1650
Connection ~ 3950 1350
Wire Wire Line
	3950 1950 4000 1950
Connection ~ 3950 1650
Wire Wire Line
	3950 2250 4000 2250
Connection ~ 3950 1950
Wire Wire Line
	3950 2550 4000 2550
Connection ~ 3950 2250
Wire Wire Line
	3950 2850 4000 2850
Connection ~ 3950 2550
Wire Wire Line
	3950 3150 4000 3150
Connection ~ 3950 2850
Wire Wire Line
	3950 3450 4000 3450
Connection ~ 3950 3150
Wire Wire Line
	3950 3750 4000 3750
Connection ~ 3950 3450
Wire Wire Line
	3950 4050 4000 4050
Connection ~ 3950 3750
Wire Wire Line
	4400 3750 4400 3650
Wire Wire Line
	4400 3650 4000 3650
Wire Wire Line
	4000 3650 4000 3550
Wire Wire Line
	4400 3450 4400 3350
Wire Wire Line
	4400 3350 4000 3350
Wire Wire Line
	4000 3350 4000 3250
Wire Wire Line
	4400 3150 4400 3050
Wire Wire Line
	4400 3050 4000 3050
Wire Wire Line
	4000 3050 4000 2950
Wire Wire Line
	4400 2850 4400 2750
Wire Wire Line
	4400 2750 4000 2750
Wire Wire Line
	4000 2750 4000 2650
Wire Wire Line
	4400 2550 4400 2450
Wire Wire Line
	4400 2450 4000 2450
Wire Wire Line
	4000 2450 4000 2350
Wire Wire Line
	4400 2250 4400 2150
Wire Wire Line
	4400 2150 4000 2150
Wire Wire Line
	4000 2150 4000 2050
Wire Wire Line
	5550 4150 5550 3850
Wire Wire Line
	5550 3850 5500 3850
Wire Wire Line
	5550 3550 5500 3550
Connection ~ 5550 3850
Wire Wire Line
	5550 3250 5500 3250
Connection ~ 5550 3550
Wire Wire Line
	5500 4050 5500 3950
Wire Wire Line
	5500 3950 5100 3950
Wire Wire Line
	5100 3950 5100 3850
Wire Wire Line
	5000 1350 5000 1450
Wire Wire Line
	5000 3850 4950 3850
Wire Wire Line
	5000 3550 4950 3550
Connection ~ 5000 3850
Wire Wire Line
	4950 3250 5000 3250
Connection ~ 5000 3550
Wire Wire Line
	5000 2950 4950 2950
Connection ~ 5000 3250
Wire Wire Line
	5000 2650 4950 2650
Connection ~ 5000 2950
Wire Wire Line
	5000 2350 4950 2350
Connection ~ 5000 2650
Wire Wire Line
	4500 4050 4550 4050
Wire Wire Line
	4500 4150 4500 4050
Wire Wire Line
	4500 3750 4550 3750
Wire Wire Line
	4500 3450 4550 3450
Connection ~ 4500 3750
Wire Wire Line
	4500 3150 4550 3150
Connection ~ 4500 3450
Wire Wire Line
	4500 2850 4550 2850
Connection ~ 4500 3150
Wire Wire Line
	4500 2550 4550 2550
Connection ~ 4500 2850
Wire Wire Line
	4500 2250 4550 2250
Connection ~ 4500 2550
Wire Wire Line
	5000 2050 4950 2050
Connection ~ 5000 2350
Wire Wire Line
	5000 1750 4950 1750
Connection ~ 5000 2050
Wire Wire Line
	5000 1450 4950 1450
Connection ~ 5000 1750
Wire Wire Line
	5000 1350 5050 1350
Connection ~ 5000 1450
Wire Wire Line
	4950 1350 4950 1250
Wire Wire Line
	4950 1250 5500 1250
Wire Wire Line
	5500 1250 5500 1350
Wire Wire Line
	4550 1350 4550 1200
Wire Wire Line
	4550 1200 5550 1200
Wire Wire Line
	5550 1450 5500 1450
Wire Wire Line
	4550 1450 4550 1550
Wire Wire Line
	4550 1550 4950 1550
Wire Wire Line
	4950 1550 4950 1650
Wire Wire Line
	4550 1750 4550 1850
Wire Wire Line
	4550 1850 4950 1850
Wire Wire Line
	4950 1850 4950 1950
Wire Wire Line
	4550 2050 4550 2150
Wire Wire Line
	4550 2150 4950 2150
Wire Wire Line
	4950 2150 4950 2250
Wire Wire Line
	4500 1950 4550 1950
Connection ~ 4500 2250
Wire Wire Line
	4500 1650 4550 1650
Connection ~ 4500 1950
Wire Wire Line
	4500 1350 4550 1350
Connection ~ 4500 1650
Wire Wire Line
	5550 1750 5500 1750
Connection ~ 5550 1450
Wire Wire Line
	5550 2050 5500 2050
Connection ~ 5550 1750
Wire Wire Line
	5550 2350 5500 2350
Connection ~ 5550 2050
Wire Wire Line
	5550 2650 5500 2650
Connection ~ 5550 2350
Wire Wire Line
	5550 2950 5500 2950
Connection ~ 5550 2650
Connection ~ 5550 3250
Connection ~ 5550 2950
Wire Wire Line
	4950 4050 4950 3950
Wire Wire Line
	4950 3950 4550 3950
Wire Wire Line
	4550 3950 4550 3850
Wire Wire Line
	4950 3750 4950 3650
Wire Wire Line
	4950 3650 4550 3650
Wire Wire Line
	4550 3650 4550 3550
Wire Wire Line
	4950 3450 4950 3350
Wire Wire Line
	4950 3350 4550 3350
Wire Wire Line
	4550 3350 4550 3250
Wire Wire Line
	4950 2850 4950 2750
Wire Wire Line
	4950 2750 4550 2750
Wire Wire Line
	4550 2750 4550 2650
Wire Wire Line
	4950 2550 4950 2450
Wire Wire Line
	4950 2450 4550 2450
Wire Wire Line
	4550 2450 4550 2350
Wire Wire Line
	4950 3150 4950 3050
Wire Wire Line
	4950 3050 4550 3050
Wire Wire Line
	4550 3050 4550 2950
Wire Wire Line
	5100 1450 5100 1550
Wire Wire Line
	5100 1550 5500 1550
Wire Wire Line
	5500 1550 5500 1650
Wire Wire Line
	5100 1750 5100 1850
Wire Wire Line
	5100 1850 5500 1850
Wire Wire Line
	5500 1850 5500 1950
Wire Wire Line
	5100 1650 5050 1650
Wire Wire Line
	5050 1350 5050 1650
Connection ~ 5050 1350
Wire Wire Line
	5050 1950 5100 1950
Connection ~ 5050 1650
Wire Wire Line
	5050 2250 5100 2250
Connection ~ 5050 1950
Wire Wire Line
	5050 2550 5100 2550
Connection ~ 5050 2250
Wire Wire Line
	5050 2850 5100 2850
Connection ~ 5050 2550
Wire Wire Line
	5050 3150 5100 3150
Connection ~ 5050 2850
Wire Wire Line
	5050 3450 5100 3450
Connection ~ 5050 3150
Wire Wire Line
	5050 3750 5100 3750
Connection ~ 5050 3450
Wire Wire Line
	5050 4050 5100 4050
Connection ~ 5050 3750
Wire Wire Line
	5500 3750 5500 3650
Wire Wire Line
	5500 3650 5100 3650
Wire Wire Line
	5100 3650 5100 3550
Wire Wire Line
	5500 3450 5500 3350
Wire Wire Line
	5500 3350 5100 3350
Wire Wire Line
	5100 3350 5100 3250
Wire Wire Line
	5500 3150 5500 3050
Wire Wire Line
	5500 3050 5100 3050
Wire Wire Line
	5100 3050 5100 2950
Wire Wire Line
	5500 2850 5500 2750
Wire Wire Line
	5500 2750 5100 2750
Wire Wire Line
	5100 2750 5100 2650
Wire Wire Line
	5500 2550 5500 2450
Wire Wire Line
	5500 2450 5100 2450
Wire Wire Line
	5100 2450 5100 2350
Wire Wire Line
	5500 2250 5500 2150
Wire Wire Line
	5500 2150 5100 2150
Wire Wire Line
	5100 2150 5100 2050
Wire Wire Line
	6100 1150 6100 1450
Wire Wire Line
	6100 3850 6050 3850
Wire Wire Line
	6100 3550 6050 3550
Connection ~ 6100 3850
Wire Wire Line
	6050 3250 6100 3250
Connection ~ 6100 3550
Wire Wire Line
	6100 2950 6050 2950
Connection ~ 6100 3250
Wire Wire Line
	6100 2650 6050 2650
Connection ~ 6100 2950
Wire Wire Line
	6100 2350 6050 2350
Connection ~ 6100 2650
Wire Wire Line
	5600 4050 5650 4050
Wire Wire Line
	5600 1050 5600 1350
Wire Wire Line
	5600 3750 5650 3750
Wire Wire Line
	5600 3450 5650 3450
Connection ~ 5600 3750
Wire Wire Line
	5600 3150 5650 3150
Connection ~ 5600 3450
Wire Wire Line
	5600 2850 5650 2850
Connection ~ 5600 3150
Wire Wire Line
	5600 2550 5650 2550
Connection ~ 5600 2850
Wire Wire Line
	5600 2250 5650 2250
Connection ~ 5600 2550
Wire Wire Line
	6100 2050 6050 2050
Connection ~ 6100 2350
Wire Wire Line
	6100 1750 6050 1750
Connection ~ 6100 2050
Wire Wire Line
	6100 1450 6050 1450
Connection ~ 6100 1750
Connection ~ 6100 1450
Wire Wire Line
	5650 1450 5650 1550
Wire Wire Line
	5650 1550 6050 1550
Wire Wire Line
	6050 1550 6050 1650
Wire Wire Line
	5650 1750 5650 1850
Wire Wire Line
	5650 1850 6050 1850
Wire Wire Line
	6050 1850 6050 1950
Wire Wire Line
	5650 2050 5650 2150
Wire Wire Line
	5650 2150 6050 2150
Wire Wire Line
	6050 2150 6050 2250
Wire Wire Line
	5600 1950 5650 1950
Connection ~ 5600 2250
Wire Wire Line
	5600 1650 5650 1650
Connection ~ 5600 1950
Wire Wire Line
	5600 1350 5650 1350
Connection ~ 5600 1650
Wire Wire Line
	6050 4050 6050 3950
Wire Wire Line
	6050 3950 5650 3950
Wire Wire Line
	5650 3950 5650 3850
Wire Wire Line
	6050 3750 6050 3650
Wire Wire Line
	6050 3650 5650 3650
Wire Wire Line
	5650 3650 5650 3550
Wire Wire Line
	6050 3450 6050 3350
Wire Wire Line
	6050 3350 5650 3350
Wire Wire Line
	5650 3350 5650 3250
Wire Wire Line
	6050 2850 6050 2750
Wire Wire Line
	6050 2750 5650 2750
Wire Wire Line
	5650 2750 5650 2650
Wire Wire Line
	6050 2550 6050 2450
Wire Wire Line
	6050 2450 5650 2450
Wire Wire Line
	5650 2450 5650 2350
Wire Wire Line
	6050 3150 6050 3050
Wire Wire Line
	6050 3050 5650 3050
Wire Wire Line
	5650 3050 5650 2950
Wire Wire Line
	2800 4150 2750 4150
Wire Wire Line
	1800 4150 1800 4250
Wire Wire Line
	1800 4250 2350 4250
Wire Wire Line
	2350 4250 2350 4150
Wire Wire Line
	2800 4300 1750 4300
Connection ~ 2800 4150
Connection ~ 1750 4050
Connection ~ 2300 4050
Connection ~ 2250 4150
Wire Wire Line
	3300 4150 3350 4150
Wire Wire Line
	3900 4150 3850 4150
Wire Wire Line
	4400 4150 4450 4150
Wire Wire Line
	2900 4150 2900 4250
Wire Wire Line
	2900 4250 3450 4250
Wire Wire Line
	3450 4250 3450 4150
Connection ~ 3950 4050
Connection ~ 2850 4050
Wire Wire Line
	4000 4150 4000 4250
Wire Wire Line
	4000 4250 4550 4250
Wire Wire Line
	4550 4250 4550 4150
Connection ~ 3900 4150
Wire Wire Line
	3950 1350 3950 1650
Wire Wire Line
	3900 4300 2850 4300
Wire Wire Line
	3950 4300 5000 4300
Wire Wire Line
	5000 4150 4950 4150
Connection ~ 5000 4150
Wire Wire Line
	6100 4300 5050 4300
Connection ~ 5050 4050
Wire Wire Line
	6100 4150 6050 4150
Connection ~ 6100 4150
Wire Wire Line
	5600 4150 5550 4150
Wire Wire Line
	5100 4150 5100 4250
Wire Wire Line
	5100 4250 5650 4250
Wire Wire Line
	5650 4250 5650 4150
Connection ~ 3400 4050
Connection ~ 3350 4150
Connection ~ 4500 4050
Connection ~ 4450 4150
Connection ~ 5600 4050
Connection ~ 5550 4150
Wire Wire Line
	6050 1350 6050 1250
Wire Wire Line
	6050 1250 5650 1250
Wire Wire Line
	5650 1250 5650 1150
Wire Wire Line
	5600 1050 5650 1050
Connection ~ 5600 1350
Wire Wire Line
	6100 1150 6050 1150
Connection ~ 1200 4050
Connection ~ 1700 4150
Wire Wire Line
	1700 1350 1700 1450
Wire Wire Line
	1250 4150 1250 4400
Connection ~ 1700 4650
Wire Wire Line
	1650 4650 1700 4650
Wire Wire Line
	1150 4650 1200 4650
Connection ~ 1200 4650
$Comp
L led-rescue:PIN-neopix-rescue DATA1
U 1 1 5470D06D
P 1800 4400
F 0 "DATA1" H 1800 4350 20  0000 C CNN
F 1 "PIN" H 1800 4450 20  0000 C CNN
F 2 "" H 1800 4400 60  0000 C CNN
F 3 "" H 1800 4400 60  0000 C CNN
	1    1800 4400
	1    0    0    -1  
$EndComp
$Comp
L led-rescue:PIN-neopix-rescue PWM1
U 1 1 5470D07A
P 1750 4650
F 0 "PWM1" H 1750 4600 20  0000 C CNN
F 1 "PIN" H 1750 4700 20  0000 C CNN
F 2 "" H 1750 4650 60  0000 C CNN
F 3 "" H 1750 4650 60  0000 C CNN
	1    1750 4650
	1    0    0    -1  
$EndComp
$Comp
L led-rescue:PIN-neopix-rescue GND1
U 1 1 5470D080
P 1150 4650
F 0 "GND1" H 1150 4600 20  0000 C CNN
F 1 "PIN" H 1150 4700 20  0000 C CNN
F 2 "" H 1150 4650 60  0000 C CNN
F 3 "" H 1150 4650 60  0000 C CNN
	1    1150 4650
	-1   0    0    1   
$EndComp
Wire Wire Line
	1800 4400 1750 4400
Wire Wire Line
	2250 3850 2250 4150
Wire Wire Line
	2250 3550 2250 3850
Wire Wire Line
	1700 3850 1700 4150
Wire Wire Line
	1700 3550 1700 3850
Wire Wire Line
	1700 3250 1700 3550
Wire Wire Line
	1700 2950 1700 3250
Wire Wire Line
	1700 2650 1700 2950
Wire Wire Line
	1200 3750 1200 4050
Wire Wire Line
	1200 3450 1200 3750
Wire Wire Line
	1200 3150 1200 3450
Wire Wire Line
	1200 2850 1200 3150
Wire Wire Line
	1200 2550 1200 2850
Wire Wire Line
	1700 2350 1700 2650
Wire Wire Line
	1700 2050 1700 2350
Wire Wire Line
	1700 1750 1700 2050
Wire Wire Line
	1700 1450 1700 1750
Wire Wire Line
	1200 2250 1200 2550
Wire Wire Line
	1200 1950 1200 2250
Wire Wire Line
	1200 1650 1200 1950
Wire Wire Line
	2250 1450 2250 1750
Wire Wire Line
	2250 1750 2250 2050
Wire Wire Line
	2250 2050 2250 2350
Wire Wire Line
	2250 2350 2250 2650
Wire Wire Line
	2250 2650 2250 2950
Wire Wire Line
	2250 3250 2250 3550
Wire Wire Line
	2250 2950 2250 3250
Wire Wire Line
	1750 1350 1800 1350
Wire Wire Line
	1750 1650 1750 1950
Wire Wire Line
	1750 1950 1750 2250
Wire Wire Line
	1750 2250 1750 2550
Wire Wire Line
	1750 2550 1750 2850
Wire Wire Line
	1750 2850 1750 3150
Wire Wire Line
	1750 3150 1750 3450
Wire Wire Line
	1750 3450 1750 3750
Wire Wire Line
	1750 3750 1750 4050
Wire Wire Line
	3350 3850 3350 4150
Wire Wire Line
	3350 3550 3350 3850
Wire Wire Line
	2800 3850 2800 4150
Wire Wire Line
	2800 3550 2800 3850
Wire Wire Line
	2800 3250 2800 3550
Wire Wire Line
	2800 2950 2800 3250
Wire Wire Line
	2800 2650 2800 2950
Wire Wire Line
	2300 3750 2300 4050
Wire Wire Line
	2300 3450 2300 3750
Wire Wire Line
	2300 3150 2300 3450
Wire Wire Line
	2300 2850 2300 3150
Wire Wire Line
	2300 2550 2300 2850
Wire Wire Line
	2800 2350 2800 2650
Wire Wire Line
	2800 2050 2800 2350
Wire Wire Line
	2800 1750 2800 2050
Wire Wire Line
	2800 1450 2800 1750
Wire Wire Line
	2300 2250 2300 2550
Wire Wire Line
	2300 1950 2300 2250
Wire Wire Line
	2300 1650 2300 1950
Wire Wire Line
	3350 1450 3350 1750
Wire Wire Line
	3350 1750 3350 2050
Wire Wire Line
	3350 2050 3350 2350
Wire Wire Line
	3350 2350 3350 2650
Wire Wire Line
	3350 2650 3350 2950
Wire Wire Line
	3350 3250 3350 3550
Wire Wire Line
	3350 2950 3350 3250
Wire Wire Line
	2850 1350 2900 1350
Wire Wire Line
	2850 1650 2850 1950
Wire Wire Line
	2850 1950 2850 2250
Wire Wire Line
	2850 2250 2850 2550
Wire Wire Line
	2850 2550 2850 2850
Wire Wire Line
	2850 2850 2850 3150
Wire Wire Line
	2850 3150 2850 3450
Wire Wire Line
	2850 3450 2850 3750
Wire Wire Line
	2850 3750 2850 4050
Wire Wire Line
	4450 3850 4450 4150
Wire Wire Line
	4450 3550 4450 3850
Wire Wire Line
	3900 3850 3900 4150
Wire Wire Line
	3900 3550 3900 3850
Wire Wire Line
	3900 3250 3900 3550
Wire Wire Line
	3900 2950 3900 3250
Wire Wire Line
	3900 2650 3900 2950
Wire Wire Line
	3400 3750 3400 3450
Wire Wire Line
	3400 3450 3400 3150
Wire Wire Line
	3400 3150 3400 2850
Wire Wire Line
	3400 2850 3400 2550
Wire Wire Line
	3400 2550 3400 2250
Wire Wire Line
	3900 2350 3900 2650
Wire Wire Line
	3900 2050 3900 2350
Wire Wire Line
	3900 1750 3900 2050
Wire Wire Line
	3900 1450 3900 1750
Wire Wire Line
	3400 2250 3400 1950
Wire Wire Line
	3400 1950 3400 1650
Wire Wire Line
	3400 1650 3400 1350
Wire Wire Line
	4450 1450 4450 1750
Wire Wire Line
	4450 1750 4450 2050
Wire Wire Line
	4450 2050 4450 2350
Wire Wire Line
	4450 2350 4450 2650
Wire Wire Line
	4450 2650 4450 2950
Wire Wire Line
	4450 3250 4450 3550
Wire Wire Line
	4450 2950 4450 3250
Wire Wire Line
	3950 1350 4000 1350
Wire Wire Line
	3950 1650 3950 1950
Wire Wire Line
	3950 1950 3950 2250
Wire Wire Line
	3950 2250 3950 2550
Wire Wire Line
	3950 2550 3950 2850
Wire Wire Line
	3950 2850 3950 3150
Wire Wire Line
	3950 3150 3950 3450
Wire Wire Line
	3950 3450 3950 3750
Wire Wire Line
	3950 3750 3950 4050
Wire Wire Line
	5550 3850 5550 3550
Wire Wire Line
	5550 3550 5550 3250
Wire Wire Line
	5000 3850 5000 4150
Wire Wire Line
	5000 3550 5000 3850
Wire Wire Line
	5000 3250 5000 3550
Wire Wire Line
	5000 2950 5000 3250
Wire Wire Line
	5000 2650 5000 2950
Wire Wire Line
	4500 3750 4500 3450
Wire Wire Line
	4500 3450 4500 3150
Wire Wire Line
	4500 3150 4500 2850
Wire Wire Line
	4500 2850 4500 2550
Wire Wire Line
	4500 2550 4500 2250
Wire Wire Line
	5000 2350 5000 2650
Wire Wire Line
	5000 2050 5000 2350
Wire Wire Line
	5000 1750 5000 2050
Wire Wire Line
	5000 1450 5000 1750
Wire Wire Line
	4500 2250 4500 1950
Wire Wire Line
	4500 1950 4500 1650
Wire Wire Line
	4500 1650 4500 1350
Wire Wire Line
	5550 1450 5550 1200
Wire Wire Line
	5550 1750 5550 1450
Wire Wire Line
	5550 2050 5550 1750
Wire Wire Line
	5550 2350 5550 2050
Wire Wire Line
	5550 2650 5550 2350
Wire Wire Line
	5550 3250 5550 2950
Wire Wire Line
	5550 2950 5550 2650
Wire Wire Line
	5050 1350 5100 1350
Wire Wire Line
	5050 1650 5050 1950
Wire Wire Line
	5050 1950 5050 2250
Wire Wire Line
	5050 2250 5050 2550
Wire Wire Line
	5050 2550 5050 2850
Wire Wire Line
	5050 2850 5050 3150
Wire Wire Line
	5050 3150 5050 3450
Wire Wire Line
	5050 3450 5050 3750
Wire Wire Line
	5050 3750 5050 4050
Wire Wire Line
	6100 3850 6100 4150
Wire Wire Line
	6100 3550 6100 3850
Wire Wire Line
	6100 3250 6100 3550
Wire Wire Line
	6100 2950 6100 3250
Wire Wire Line
	6100 2650 6100 2950
Wire Wire Line
	5600 3750 5600 4050
Wire Wire Line
	5600 3450 5600 3750
Wire Wire Line
	5600 3150 5600 3450
Wire Wire Line
	5600 2850 5600 3150
Wire Wire Line
	5600 2550 5600 2850
Wire Wire Line
	6100 2350 6100 2650
Wire Wire Line
	6100 2050 6100 2350
Wire Wire Line
	6100 1750 6100 2050
Wire Wire Line
	6100 1450 6100 1750
Wire Wire Line
	5600 2250 5600 2550
Wire Wire Line
	5600 1950 5600 2250
Wire Wire Line
	5600 1650 5600 1950
Wire Wire Line
	2800 4150 2800 4300
Wire Wire Line
	1750 4050 1750 4300
Wire Wire Line
	2300 4050 2300 4150
Wire Wire Line
	2250 4150 2200 4150
Wire Wire Line
	3950 4050 3950 4300
Wire Wire Line
	2850 4050 2850 4300
Wire Wire Line
	3900 4150 3900 4300
Wire Wire Line
	5000 4150 5000 4300
Wire Wire Line
	5050 4050 5050 4300
Wire Wire Line
	6100 4150 6100 4300
Wire Wire Line
	3400 4050 3400 3750
Wire Wire Line
	3350 4150 3400 4150
Wire Wire Line
	4500 4050 4500 3750
Wire Wire Line
	4450 4150 4500 4150
Wire Wire Line
	5600 4050 5600 4150
Wire Wire Line
	5550 4150 5500 4150
Wire Wire Line
	5600 1350 5600 1650
Wire Wire Line
	1200 4050 1200 4650
Wire Wire Line
	1700 4150 1700 4650
Wire Wire Line
	1700 4650 1750 4650
Wire Wire Line
	1700 4650 1700 4750
Wire Wire Line
	1200 4650 1250 4650
Wire Wire Line
	1200 4650 1200 4750
$EndSCHEMATC
