(module WS2812B2 (layer F.Cu) (tedit 558F7566)
  (fp_text reference WS2812B (at 0 -11) (layer B.Adhes)
    (effects (font (size 1 1) (thickness 0.15)) (justify mirror))
  )
  (fp_text value LED (at 0 3.5) (layer F.SilkS)
    (effects (font (size 1 1) (thickness 0.15)))
  )
  (fp_line (start -1.75 -10) (end 4.75 -10) (layer Edge.Cuts) (width 0.15))
  (fp_line (start -4.75 -7.5) (end -4.75 -2.5) (layer Edge.Cuts) (width 0.15))
  (fp_line (start 4.75 -2.5) (end 4.75 -7.5) (layer Edge.Cuts) (width 0.15))
  (fp_line (start 4.75 -2.5) (end -1.75 -2.5) (layer Edge.Cuts) (width 0.15))
  (fp_line (start 1.75 -2.5) (end -4.75 -2.5) (layer Edge.Cuts) (width 0.15))
  (fp_line (start -4.75 -10) (end -4.75 -5) (layer Edge.Cuts) (width 0.15))
  (fp_line (start -4.75 -10) (end 1.75 -10) (layer Edge.Cuts) (width 0.15))
  (fp_line (start 4.75 -5) (end 4.75 -10) (layer Edge.Cuts) (width 0.15))
  (fp_line (start 2.5 1) (end 1 2.5) (layer F.SilkS) (width 0.15))
  (fp_line (start -2.5 2.5) (end 2.5 2.5) (layer F.SilkS) (width 0.15))
  (fp_line (start 2.5 2.5) (end 2.5 -2.5) (layer F.SilkS) (width 0.15))
  (fp_line (start 2.5 -2.5) (end -2.5 -2.5) (layer F.SilkS) (width 0.15))
  (fp_line (start -2.5 -2.5) (end -2.5 2.5) (layer F.SilkS) (width 0.15))
  (pad 1 smd rect (at -3 -1.65) (size 2 1) (layers F.Cu F.Paste F.Mask))
  (pad 2 smd rect (at -3 1.65) (size 2 1) (layers F.Cu F.Paste F.Mask))
  (pad 3 smd rect (at 3 1.65) (size 2 1) (layers F.Cu F.Paste F.Mask))
  (pad 4 smd rect (at 3 -1.65) (size 2 1) (layers F.Cu F.Paste F.Mask))
)
